<?xml version="1.0" encoding="UTF-8" standalone="no"?>
<!-- Created with Inkscape (http://www.inkscape.org/) -->

<svg
   xmlns:dc="http://purl.org/dc/elements/1.1/"
   xmlns:cc="http://creativecommons.org/ns#"
   xmlns:rdf="http://www.w3.org/1999/02/22-rdf-syntax-ns#"
   xmlns:svg="http://www.w3.org/2000/svg"
   xmlns="http://www.w3.org/2000/svg"
   xmlns:sodipodi="http://sodipodi.sourceforge.net/DTD/sodipodi-0.dtd"
   xmlns:inkscape="http://www.inkscape.org/namespaces/inkscape"
   width="210mm"
   height="297mm"
   viewBox="0 0 210 297"
   version="1.1"
   id="svg691"
   sodipodi:docname="raw_from_cockerill.svg"
   inkscape:version="0.92.1 r15371">
  <defs
     id="defs685">
    <clipPath
       clipPathUnits="userSpaceOnUse"
       id="clipPath336">
      <path
         d="M 525.845,554.859 H 299.074 V 231.006 h 226.771 z"
         id="path334"
         inkscape:connector-curvature="0" />
    </clipPath>
    <clipPath
       clipPathUnits="userSpaceOnUse"
       id="clipPath324">
      <path
         d="M 525.845,554.859 H 299.074 V 231.006 h 226.771 z"
         id="path322"
         inkscape:connector-curvature="0" />
    </clipPath>
    <clipPath
       clipPathUnits="userSpaceOnUse"
       id="clipPath252">
      <path
         d="M 525.845,554.859 H 299.074 V 231.006 h 226.771 z"
         id="path250"
         inkscape:connector-curvature="0" />
    </clipPath>
    <clipPath
       clipPathUnits="userSpaceOnUse"
       id="clipPath226">
      <path
         d="M 525.845,554.859 H 299.074 V 231.006 h 226.771 z"
         id="path224"
         inkscape:connector-curvature="0" />
    </clipPath>
    <clipPath
       clipPathUnits="userSpaceOnUse"
       id="clipPath170">
      <path
         d="M 525.845,554.859 H 299.074 V 231.006 h 226.771 z"
         id="path168"
         inkscape:connector-curvature="0" />
    </clipPath>
  </defs>
  <sodipodi:namedview
     id="base"
     pagecolor="#ffffff"
     bordercolor="#666666"
     borderopacity="1.0"
     inkscape:pageopacity="0.0"
     inkscape:pageshadow="2"
     inkscape:zoom="0.98994949"
     inkscape:cx="342.69705"
     inkscape:cy="832.03962"
     inkscape:document-units="mm"
     inkscape:current-layer="layer1"
     showgrid="false"
     inkscape:window-width="1920"
     inkscape:window-height="1021"
     inkscape:window-x="0"
     inkscape:window-y="0"
     inkscape:window-maximized="1" />
  <metadata
     id="metadata688">
    <rdf:RDF>
      <cc:Work
         rdf:about="">
        <dc:format>image/svg+xml</dc:format>
        <dc:type
           rdf:resource="http://purl.org/dc/dcmitype/StillImage" />
      </cc:Work>
    </rdf:RDF>
  </metadata>
  <g
     inkscape:label="Layer 1"
     inkscape:groupmode="layer"
     id="layer1">
    <g
       transform="matrix(0.66345824,0,0,-0.66345824,-169.38809,385.24687)"
       id="g164">
      <g
         id="g166"
         clip-path="url(#clipPath170)">
        <path
           d="m 386.553,518.447 c -3.349,-0.146 -6.689,-0.3 -8.368,0.65 -1.678,0.951 0.197,3.777 -1.712,5.045 -1.919,1.276 -7.477,1.336 -9.764,2.586 -2.287,1.251 -2.621,4.137 -3.966,4.943 -1.336,0.804 -2.706,0.351 -4.076,-0.103"
           style="fill:none;stroke:#30b55b;stroke-width:2.56900001;stroke-linecap:butt;stroke-linejoin:round;stroke-miterlimit:10;stroke-dasharray:none;stroke-opacity:1"
           id="path172"
           inkscape:connector-curvature="0" />
        <path
           d="m 428.735,528.861 c 3.28,0.668 6.56,1.328 7.956,2.655 1.404,1.327 -1.105,3.614 0.445,5.31 1.542,1.696 6.93,3.1 8.839,4.874 1.919,1.773 1.551,4.65 2.655,5.755 1.105,1.105 2.544,0.994 3.983,0.882"
           style="fill:none;stroke:#32419f;stroke-width:2.56900001;stroke-linecap:butt;stroke-linejoin:round;stroke-miterlimit:10;stroke-dasharray:none;stroke-opacity:1"
           id="path174"
           inkscape:connector-curvature="0" />
      </g>
    </g>
    <path
       d="m 114.20648,128.12761 c 2.18742,0.44319 4.3702,0.88107 5.30236,1.76214 0.93746,0.88042 -0.73379,2.39774 0.29457,3.52231 1.035,1.12588 4.62032,2.05738 5.89284,3.2337 1.27914,1.1763 1.03433,3.08574 1.76745,3.81887 0.73843,0.73244 1.69314,0.65879 2.65383,0.58517"
       style="fill:none;stroke:#e9b652;stroke-width:1.27848411;stroke-linecap:butt;stroke-linejoin:round;stroke-miterlimit:10;stroke-dasharray:none;stroke-opacity:1"
       id="path176"
       inkscape:connector-curvature="0" />
    <path
       d="m 88.568463,104.26767 c -2.210646,0.30121 -4.420624,0.60242 -5.591626,0.0795 -1.17034,-0.52879 -0.09089,-2.5059 -1.437717,-3.23304 -1.340845,-0.72184 -5.034318,-0.42593 -6.62529,-1.11394 -1.591637,-0.693325 -1.983741,-2.574224 -2.921208,-3.028687 -0.937467,-0.449161 -1.817875,-0.06244 -2.698948,0.318453"
       style="fill:none;stroke:#30b55b;stroke-width:1.27848411;stroke-linecap:butt;stroke-linejoin:round;stroke-miterlimit:10;stroke-dasharray:none;stroke-opacity:1"
       id="path178"
       inkscape:connector-curvature="0" />
    <path
       d="m 115.34298,99.005775 c 2.17681,-0.4432 4.35295,-0.880413 5.27914,-1.761488 0.93216,-0.880416 -0.73312,-2.39774 0.29524,-3.522963 1.02372,-1.125223 4.5971,-2.057377 5.86496,-3.233698 1.27252,-1.175644 1.0277,-3.085087 1.76149,-3.81819 0.73179,-0.732465 1.68717,-0.659495 2.64189,-0.585171"
       style="fill:none;stroke:#32419f;stroke-width:1.70442426;stroke-linecap:butt;stroke-linejoin:round;stroke-miterlimit:10;stroke-dasharray:none;stroke-opacity:1"
       id="path180"
       inkscape:connector-curvature="0" />
    <path
       d="m 118.67885,119.66653 c 2.21065,-0.30055 4.42129,-0.60176 5.59096,-0.0737 1.17034,0.52281 0.0915,2.50588 1.43771,3.22772 1.34085,0.72716 5.03433,0.42595 6.62663,1.11926 1.59031,0.688 1.98838,2.57422 2.91988,3.02338 0.93812,0.44848 1.81853,0.0677 2.69894,-0.31847"
       style="fill:none;stroke:#f1455d;stroke-width:1.27848411;stroke-linecap:butt;stroke-linejoin:round;stroke-miterlimit:10;stroke-dasharray:none;stroke-opacity:1"
       id="path182"
       inkscape:connector-curvature="0" />
    <path
       d="m 104.69448,96.835599 c -2.7162,-0.233541 -5.437704,-0.466406 -7.790327,0.295246 -2.346652,0.755672 -4.455121,1.9605 -6.31878,4.262055 -1.858343,2.30685 -4.483646,6.23319 -4.847223,9.56309 -0.368882,3.33519 0.733119,7.75052 2.642555,10.45012 1.909432,2.69299 6.103151,4.60772 8.818684,5.73294 2.722171,1.1312 5.023701,1.0569 7.495091,1.03433 2.47735,-0.0286 5.19421,-0.17058 7.35311,-1.1763 2.15358,-1.0058 4.2103,-2.6253 5.58631,-4.8585 1.36872,-2.2332 2.44816,-5.51732 2.64123,-8.53474 0.1997,-3.01142 0.46641,-5.93263 -1.47155,-9.55711 -1.93133,-3.63176 -6.03481,-7.921704 -10.13698,-12.217585"
       style="fill:none;stroke:#c8c7c7;stroke-width:3.40951204;stroke-linecap:butt;stroke-linejoin:round;stroke-miterlimit:10;stroke-dasharray:none;stroke-opacity:1"
       id="path184"
       inkscape:connector-curvature="0" />
    <path
       d="m 109.6326,105.92166 c -0.99983,1.78404 -2.00564,3.56874 -2.51185,5.78404 -0.50556,2.22191 -0.52812,5.4211 -0.51684,7.52958 0.005,2.10781 -0.1652,3.88653 0.57389,5.12521 0.7444,1.23869 2.65384,2.06801 3.86995,2.30685 1.21015,0.23287 2.47139,-0.19903 3.40885,-0.89766 0.93813,-0.69331 1.82451,-2.0627 2.20534,-3.29008 0.38082,-1.23272 0.36357,-2.76133 0.0796,-4.09155 -0.28462,-1.33488 -1.62547,-2.53973 -1.79001,-3.90314 -0.1705,-1.36407 0.0962,-3.04593 0.79548,-4.28461 0.69863,-1.23867 2.9378,-1.94924 3.3916,-3.14811 0.4558,-1.20483 0.0803,-3.239 -0.6754,-4.04575 -0.75568,-0.80677 -2.57422,-0.90895 -3.8527,-0.80147 -1.28445,0.10814 -2.90396,0.63693 -3.84142,1.46026 -0.93747,0.82402 -1.35213,2.1536 -1.77276,3.47785"
       style="fill:#fcd656;fill-opacity:1;fill-rule:evenodd;stroke:none;stroke-width:0.66345823"
       id="path186"
       inkscape:connector-curvature="0" />
    <path
       d="m 109.6326,105.92166 c -0.99983,1.78404 -2.00564,3.56874 -2.51185,5.78404 -0.50556,2.22191 -0.52812,5.4211 -0.51684,7.52958 0.005,2.10781 -0.1652,3.88653 0.57389,5.12521 0.7444,1.23869 2.65384,2.06801 3.86995,2.30685 1.21015,0.23287 2.47139,-0.19903 3.40885,-0.89766 0.93813,-0.69331 1.82451,-2.0627 2.20534,-3.29008 0.38082,-1.23272 0.36357,-2.76133 0.0796,-4.09155 -0.28462,-1.33488 -1.62547,-2.53973 -1.79001,-3.90314 -0.1705,-1.36407 0.0962,-3.04593 0.79548,-4.28461 0.69863,-1.23867 2.9378,-1.94924 3.3916,-3.14811 0.4558,-1.20483 0.0803,-3.239 -0.6754,-4.04575 -0.75568,-0.80677 -2.57422,-0.90895 -3.8527,-0.80147 -1.28445,0.10814 -2.90396,0.63693 -3.84142,1.46026 -0.93747,0.82402 -1.35213,2.1536 -1.77276,3.47785"
       style="fill:none;stroke:#fab91f;stroke-width:0.56792027;stroke-linecap:butt;stroke-linejoin:round;stroke-miterlimit:10;stroke-dasharray:none;stroke-opacity:1"
       id="path188"
       inkscape:connector-curvature="0" />
    <path
       d="m 110.27483,114.7178 c -1.49411,0.96002 -5.27914,2.68766 -6.89267,3.98871 -1.6142,1.3017 -2.61403,2.41498 -2.78454,3.82417 -0.1705,1.40918 0.54006,3.93231 1.76149,4.61965 1.22142,0.69331 4.15391,0.6137 5.56907,-0.47703 1.41449,-1.08541 1.78403,-4.75632 2.93248,-6.05737 1.14712,-1.30103 2.61336,-1.46026 3.95421,-1.75019 1.34682,-0.29524 3.17664,0.68801 4.10813,0 0.92619,-0.69332 1.46625,-2.78986 1.46625,-4.14794 0,-1.35281 -0.12541,-3.69349 -1.46625,-3.98341 -1.34682,-0.29525 -5.10862,1.53989 -6.59676,2.2332 -1.49477,0.68735 -0.56261,0.79548 -2.05141,1.75021"
       style="fill:#f57b90;fill-opacity:1;fill-rule:evenodd;stroke:none;stroke-width:0.66345823"
       id="path190"
       inkscape:connector-curvature="0" />
    <path
       d="m 110.27483,114.7178 c -1.49411,0.96002 -5.27914,2.68766 -6.89267,3.98871 -1.6142,1.3017 -2.61403,2.41498 -2.78454,3.82417 -0.1705,1.40918 0.54006,3.93231 1.76149,4.61965 1.22142,0.69331 4.15391,0.6137 5.56907,-0.47703 1.41449,-1.08541 1.78403,-4.75632 2.93248,-6.05737 1.14712,-1.30103 2.61336,-1.46026 3.95421,-1.75019 1.34682,-0.29524 3.17664,0.68801 4.10813,0 0.92619,-0.69332 1.46625,-2.78986 1.46625,-4.14794 0,-1.35281 -0.12541,-3.69349 -1.46625,-3.98341 -1.34682,-0.29525 -5.10862,1.53989 -6.59676,2.2332 -1.49477,0.68735 -0.56261,0.79548 -2.05141,1.75021 z"
       style="fill:none;stroke:#ee2431;stroke-width:0.56792027;stroke-linecap:butt;stroke-linejoin:round;stroke-miterlimit:10;stroke-dasharray:none;stroke-opacity:1"
       id="path192"
       inkscape:connector-curvature="0" />
    <path
       d="m 112.43438,112.72344 c -1.32426,-1.3926 -4.85917,-4.15989 -6.22855,-5.96118 -1.3634,-1.80128 -2.1423,-3.25558 -1.98241,-4.84656 0.16454,-1.58566 1.5107,-4.205665 2.94841,-4.682697 1.44369,-0.482993 4.48365,0.272678 5.6938,1.795982 1.21612,1.521975 0.71653,5.642055 1.59694,7.335875 0.88639,1.69315 2.37518,2.20467 3.70476,2.83496 1.33554,0.62496 3.48315,-0.0339 4.28394,0.93746 0.80146,0.97196 0.85255,3.40419 0.52944,4.89301 -0.32973,1.49409 -1.01708,4.04045 -2.48929,4.05173 -1.47222,0.0169 -4.95537,-2.85884 -6.34067,-3.96084 -1.38729,-1.10267 -0.39277,-1.0058 -1.71637,-2.39774"
       style="fill:#32419f;fill-opacity:1;fill-rule:evenodd;stroke:none;stroke-width:0.66345823"
       id="path194"
       inkscape:connector-curvature="0" />
    <path
       d="m 112.43438,112.72344 c -1.32426,-1.3926 -4.85917,-4.15989 -6.22855,-5.96118 -1.3634,-1.80128 -2.1423,-3.25558 -1.98241,-4.84656 0.16454,-1.58566 1.5107,-4.205665 2.94841,-4.682697 1.44369,-0.482993 4.48365,0.272678 5.6938,1.795982 1.21612,1.521975 0.71653,5.642055 1.59694,7.335875 0.88639,1.69315 2.37518,2.20467 3.70476,2.83496 1.33554,0.62496 3.48315,-0.0339 4.28394,0.93746 0.80146,0.97196 0.85255,3.40419 0.52944,4.89301 -0.32973,1.49409 -1.01708,4.04045 -2.48929,4.05173 -1.47222,0.0169 -4.95537,-2.85884 -6.34067,-3.96084 -1.38729,-1.10267 -0.39277,-1.0058 -1.71637,-2.39774 z"
       style="fill:none;stroke:#32419f;stroke-width:0.56792027;stroke-linecap:butt;stroke-linejoin:round;stroke-miterlimit:10;stroke-dasharray:none;stroke-opacity:1"
       id="path196"
       inkscape:connector-curvature="0" />
    <path
       d="m 109.71752,119.95115 c -0.79482,-1.93795 -1.58566,-3.87527 -1.82385,-6.21063 -0.24415,-2.33007 0.11942,-5.62015 0.38083,-7.78503 0.26671,-2.16485 0.30652,-4.01191 1.19887,-5.21078 0.89766,-1.192915 2.91457,-1.846415 4.16519,-1.960535 1.24465,-0.1134 2.46077,0.46045 3.31862,1.273185 0.85785,0.81803 1.58566,2.31281 1.81787,3.61386 0.23354,1.307 0.0345,2.87543 -0.41466,4.21627 -0.44916,1.33554 -1.93729,2.43755 -2.27301,3.81821 -0.32907,1.38661 -0.26671,3.13682 0.28397,4.48364 0.55133,1.34683 2.72216,2.31281 3.02934,3.59131 0.31249,1.28378 -0.31248,3.33586 -1.171,4.08557 -0.85188,0.74971 -2.69364,0.66477 -3.96682,0.42063 -1.27251,-0.24415 -2.84093,-0.95471 -3.68086,-1.89814 -0.84193,-0.94278 -1.09736,-2.35263 -1.3581,-3.76181"
       style="fill:#30b55b;fill-opacity:1;fill-rule:evenodd;stroke:none;stroke-width:0.66345823"
       id="path198"
       inkscape:connector-curvature="0" />
    <path
       d="m 109.71752,119.95115 c -0.79482,-1.93795 -1.58566,-3.87527 -1.82385,-6.21063 -0.24415,-2.33007 0.11942,-5.62015 0.38083,-7.78503 0.26671,-2.16485 0.30652,-4.01191 1.19887,-5.21078 0.89766,-1.192915 2.91457,-1.846415 4.16519,-1.960535 1.24465,-0.1134 2.46077,0.46045 3.31862,1.273185 0.85785,0.81803 1.58566,2.31281 1.81787,3.61386 0.23354,1.307 0.0345,2.87543 -0.41466,4.21627 -0.44916,1.33554 -1.93729,2.43755 -2.27301,3.81821 -0.32907,1.38661 -0.26671,3.13682 0.28397,4.48364 0.55133,1.34683 2.72216,2.31281 3.02934,3.59131 0.31249,1.28378 -0.31248,3.33586 -1.171,4.08557 -0.85188,0.74971 -2.69364,0.66477 -3.96682,0.42063 -1.27251,-0.24415 -2.84093,-0.95471 -3.68086,-1.89814 -0.84193,-0.94278 -1.09736,-2.35263 -1.3581,-3.76181"
       style="fill:none;stroke:#30b55b;stroke-width:0.56792027;stroke-linecap:butt;stroke-linejoin:round;stroke-miterlimit:10;stroke-dasharray:none;stroke-opacity:1"
       id="path200"
       inkscape:connector-curvature="0" />
    <path
       d="m 98.364424,119.82643 c 0.71587,-1.97181 1.431742,-3.93829 1.579693,-6.28496 0.141993,-2.34664 -0.346987,-5.62545 -0.698622,-7.78501 -0.352958,-2.15889 -0.465747,-4.01193 -1.409185,-5.17033 -0.937467,-1.165705 -2.983572,-1.744895 -4.239498,-1.813235 -1.249957,-0.0683 -2.442852,0.55664 -3.261558,1.403885 -0.824015,0.84591 -1.494111,2.37517 -1.675896,3.6875 -0.181786,1.3183 0.07961,2.88074 0.58517,4.20499 0.500247,1.32428 2.034163,2.36987 2.420957,3.74457 0.386133,1.37535 0.391442,3.13086 -0.102835,4.50023 -0.500247,1.37005 -2.625305,2.42097 -2.886705,3.71669 -0.261402,1.28976 0.443853,3.32393 1.330231,4.04577 0.886384,0.72184 2.721509,0.56262 3.988711,0.26672 1.261237,-0.29525 2.795816,-1.0622 3.60258,-2.03947 0.800796,-0.97793 1.005804,-2.3984 1.210146,-3.81887"
       style="fill:#75cfa2;fill-opacity:1;fill-rule:evenodd;stroke:none;stroke-width:0.66345823"
       id="path202"
       inkscape:connector-curvature="0" />
    <path
       d="m 98.364424,119.82643 c 0.71587,-1.97181 1.431742,-3.93829 1.579693,-6.28496 0.141993,-2.34664 -0.346987,-5.62545 -0.698622,-7.78501 -0.352958,-2.15889 -0.465747,-4.01193 -1.409185,-5.17033 -0.937467,-1.165705 -2.983572,-1.744895 -4.239498,-1.813235 -1.249957,-0.0683 -2.442852,0.55664 -3.261558,1.403885 -0.824015,0.84591 -1.494111,2.37517 -1.675896,3.6875 -0.181786,1.3183 0.07961,2.88074 0.58517,4.20499 0.500247,1.32428 2.034163,2.36987 2.420957,3.74457 0.386133,1.37535 0.391442,3.13086 -0.102835,4.50023 -0.500247,1.37005 -2.625305,2.42097 -2.886705,3.71669 -0.261402,1.28976 0.443853,3.32393 1.330231,4.04577 0.886384,0.72184 2.721509,0.56262 3.988711,0.26672 1.261237,-0.29525 2.795816,-1.0622 3.60258,-2.03947 0.800796,-0.97793 1.005804,-2.3984 1.210146,-3.81887"
       style="fill:none;stroke:#30b55b;stroke-width:0.56792027;stroke-linecap:butt;stroke-linejoin:round;stroke-miterlimit:10;stroke-dasharray:none;stroke-opacity:1"
       id="path204"
       inkscape:connector-curvature="0" />
    <path
       d="m 95.142671,112.6206 c 1.369377,-1.34682 5.000479,-3.9834 6.426259,-5.73891 1.4324,-1.75021 2.25642,-3.17664 2.15358,-4.77292 -0.10217,-1.59097 -1.35743,-4.256086 -2.7779,-4.784874 -1.427097,-0.534072 -4.489621,0.119422 -5.756824,1.596949 -1.267206,1.477535 -0.914248,5.614195 -1.851714,7.272835 -0.943438,1.66528 -2.455456,2.11974 -3.807588,2.70491 -1.352125,0.57987 -3.471875,-0.15854 -4.30717,0.78488 -0.835292,0.94344 -0.977275,3.36905 -0.704593,4.87509 0.272682,1.50008 0.875104,4.06834 2.346652,4.13136 1.472216,0.0677 5.051571,-2.68236 6.478008,-3.73394 1.426437,-1.05092 0.42594,-0.98855 1.80129,-2.33538"
       style="fill:#aba7db;fill-opacity:1;fill-rule:evenodd;stroke:none;stroke-width:0.66345823"
       id="path206"
       inkscape:connector-curvature="0" />
    <path
       d="m 95.142671,112.6206 c 1.369377,-1.34682 5.000479,-3.9834 6.426259,-5.73891 1.4324,-1.75021 2.25642,-3.17664 2.15358,-4.77292 -0.10217,-1.59097 -1.35743,-4.256086 -2.7779,-4.784874 -1.427097,-0.534072 -4.489621,0.119422 -5.756824,1.596949 -1.267206,1.477535 -0.914248,5.614195 -1.851714,7.272835 -0.943438,1.66528 -2.455456,2.11974 -3.807588,2.70491 -1.352125,0.57987 -3.471875,-0.15854 -4.30717,0.78488 -0.835292,0.94344 -0.977275,3.36905 -0.704593,4.87509 0.272682,1.50008 0.875104,4.06834 2.346652,4.13136 1.472216,0.0677 5.051571,-2.68236 6.478008,-3.73394 1.426437,-1.05092 0.42594,-0.98855 1.80129,-2.33538 z"
       style="fill:none;stroke:#32419f;stroke-width:0.56792027;stroke-linecap:butt;stroke-linejoin:round;stroke-miterlimit:10;stroke-dasharray:none;stroke-opacity:1"
       id="path208"
       inkscape:connector-curvature="0" />
    <path
       d="m 91.551372,117.89443 c -2.209982,-0.3012 -4.420622,-0.60241 -5.591628,-0.0803 -1.170341,0.52877 -0.09089,2.50588 -1.437713,3.2337 -1.340852,0.72118 -5.03432,0.42593 -6.625293,1.11394 -1.590973,0.69332 -1.983077,2.57356 -2.920544,3.02868 -0.937466,0.4485 -1.818539,0.0617 -2.698948,-0.31845"
       style="fill:none;stroke:#ee2431;stroke-width:1.70442426;stroke-linecap:butt;stroke-linejoin:round;stroke-miterlimit:10;stroke-dasharray:none;stroke-opacity:1"
       id="path210"
       inkscape:connector-curvature="0" />
    <path
       d="m 104.51269,96.824315 c 2.64255,-0.233541 5.28445,-0.466406 7.57404,0.295246 2.28495,0.755672 4.33039,1.954544 6.14296,4.256089 1.80726,2.30087 4.35295,6.21593 4.71122,9.54583 0.3576,3.32991 -0.71654,7.73393 -2.56958,10.42757 -1.85702,2.68769 -5.93132,4.59711 -8.57387,5.72233 -2.64189,1.13053 -4.88106,1.05623 -7.28477,1.02837 -2.40371,-0.0226 -5.045597,-0.17057 -7.142128,-1.17101 -2.091885,-1.00513 -4.091544,-2.61933 -5.427086,-4.84656 -1.335542,-2.2279 -2.381155,-5.5067 -2.568911,-8.51814 -0.193068,-3.01144 -0.454468,-5.9207 1.426437,-9.5465 1.881566,-3.61916 5.870277,-7.903779 9.859648,-12.188395"
       style="fill:none;stroke:#231f20;stroke-width:3.40951204;stroke-linecap:butt;stroke-linejoin:round;stroke-miterlimit:10;stroke-dasharray:none;stroke-opacity:1"
       id="path212"
       inkscape:connector-curvature="0" />
    <path
       d="m 99.955397,114.08153 c 1.494113,0.95406 5.279133,2.6817 6.892663,3.98275 1.61354,1.3017 2.61403,2.42096 2.78454,3.82483 0.17052,1.40918 -0.54006,3.93165 -1.76148,4.62498 -1.22209,0.6933 -4.15392,0.60771 -5.56907,-0.47704 -1.4145,-1.09139 -1.78404,-4.75632 -2.931823,-6.05737 -1.147786,-1.3017 -2.614025,-1.46094 -3.954876,-1.75617 -1.34682,-0.28994 -3.176638,0.69331 -4.108134,0 -0.926186,-0.68734 -1.460933,-2.78984 -1.460933,-4.14198 0,-1.35809 0.12008,-3.69347 1.460933,-3.98937 1.346157,-0.28993 5.107965,1.54519 6.596765,2.2332 1.494771,0.69331 0.562614,0.79548 2.051415,1.75617"
       style="fill:#ee2431;fill-opacity:1;fill-rule:evenodd;stroke:none;stroke-width:0.66345823"
       id="path214"
       inkscape:connector-curvature="0" />
    <path
       d="m 99.955397,114.08153 c 1.494113,0.95406 5.279133,2.6817 6.892663,3.98275 1.61354,1.3017 2.61403,2.42096 2.78454,3.82483 0.17052,1.40918 -0.54006,3.93165 -1.76148,4.62498 -1.22209,0.6933 -4.15392,0.60771 -5.56907,-0.47704 -1.4145,-1.09139 -1.78404,-4.75632 -2.931823,-6.05737 -1.147786,-1.3017 -2.614025,-1.46094 -3.954876,-1.75617 -1.34682,-0.28994 -3.176638,0.69331 -4.108134,0 -0.926186,-0.68734 -1.460933,-2.78984 -1.460933,-4.14198 0,-1.35809 0.12008,-3.69347 1.460933,-3.98937 1.346157,-0.28993 5.107965,1.54519 6.596765,2.2332 1.494771,0.69331 0.562614,0.79548 2.051415,1.75617 z"
       style="fill:none;stroke:#ee2431;stroke-width:0.56792027;stroke-linecap:butt;stroke-linejoin:round;stroke-miterlimit:10;stroke-dasharray:none;stroke-opacity:1"
       id="path216"
       inkscape:connector-curvature="0" />
    <path
       d="m 98.938314,105.53486 c 1.426436,1.47155 2.846896,2.94378 3.898486,4.96068 1.05091,2.01758 1.88621,5.10863 2.41432,7.14811 0.52347,2.04013 1.14248,3.72265 0.73909,5.10863 -0.40338,1.38131 -2.03947,2.67107 -3.15341,3.20516 -1.11395,0.5394 -2.44352,0.43788 -3.529604,0 -1.078783,-0.43789 -2.283621,-1.5286 -2.965659,-2.6253 -0.682032,-1.09139 -1.05158,-2.57422 -1.113281,-3.93829 -0.06304,-1.3581 0.926187,-2.86947 0.744401,-4.22755 -0.187766,-1.36341 -0.869794,-2.92055 -1.858349,-3.9436 -0.989215,-1.01708 -3.341838,-1.14183 -4.085573,-2.18742 -0.739096,-1.04562 -0.892353,-3.10831 -0.369548,-4.08028 0.528778,-0.97661 2.255757,-1.53391 3.528273,-1.74953 1.26787,-0.22226 2.966983,-0.12544 4.080269,0.43722 1.113281,0.55664 1.858344,1.73294 2.596772,2.91522"
       style="fill:#f4b51e;fill-opacity:1;fill-rule:evenodd;stroke:none;stroke-width:0.66345823"
       id="path218"
       inkscape:connector-curvature="0" />
    <g
       transform="matrix(0.66345824,0,0,-0.66345824,-169.38809,385.24687)"
       id="g220">
      <g
         id="g222"
         clip-path="url(#clipPath226)">
        <path
           d="m 404.436,421.597 c 2.15,-2.218 4.291,-4.437 5.876,-7.477 1.584,-3.041 2.843,-7.7 3.639,-10.774 0.789,-3.075 1.722,-5.611 1.114,-7.7 -0.608,-2.082 -3.074,-4.026 -4.753,-4.831 -1.679,-0.813 -3.683,-0.66 -5.32,0 -1.626,0.66 -3.442,2.304 -4.47,3.957 -1.028,1.645 -1.585,3.88 -1.678,5.936 -0.095,2.047 1.396,4.325 1.122,6.372 -0.283,2.055 -1.311,4.402 -2.801,5.944 -1.491,1.533 -5.037,1.721 -6.158,3.297 -1.114,1.576 -1.345,4.685 -0.557,6.15 0.797,1.472 3.4,2.312 5.318,2.637 1.911,0.335 4.472,0.189 6.15,-0.659 1.678,-0.839 2.801,-2.612 3.914,-4.394"
           style="fill:none;stroke:#f4b51e;stroke-width:0.85600001;stroke-linecap:butt;stroke-linejoin:round;stroke-miterlimit:10;stroke-dasharray:none;stroke-opacity:1"
           id="path228"
           inkscape:connector-curvature="0" />
        <path
           d="m 411.81,530.694 c -1.139,0.043 -2.27,0.094 -4.153,0 -1.876,-0.103 -5.045,-0.103 -7.126,-0.591 -2.073,-0.497 -3.606,-1.234 -5.345,-2.364 -1.73,-1.13 -3.314,-2.312 -5.044,-4.428 -1.73,-2.116 -4.154,-5.61 -5.345,-8.265 -1.182,-2.655 -1.773,-4.77 -1.773,-7.674 0,-2.903 0.54,-6.834 1.773,-9.738 1.242,-2.903 3.169,-5.558 5.644,-7.674 2.476,-2.115 4.899,-3.1 9.198,-5.019 4.309,-1.918 11.477,-5.413 16.625,-6.491 5.147,-1.08 9.943,-0.789 14.252,0 4.299,0.787 8.059,2.166 11.57,4.718 3.513,2.561 7.074,6.689 9.498,10.629 2.424,3.931 4.258,7.923 5.054,12.984 0.788,5.071 0.24,11.246 -0.299,17.412"
           style="fill:none;stroke:#c8c7c7;stroke-width:5.13899994;stroke-linecap:butt;stroke-linejoin:round;stroke-miterlimit:10;stroke-dasharray:none;stroke-opacity:1"
           id="path230"
           inkscape:connector-curvature="0" />
      </g>
    </g>
    <path
       d="m 110.27483,48.905394 c -1.26721,-1.426446 -4.68269,-4.279316 -5.98374,-6.114441 -1.3017,-1.835789 -2.02819,-3.307341 -1.81853,-4.892342 0.20501,-1.579693 1.6195,-4.159882 3.05721,-4.608381 1.44369,-0.443189 4.42593,0.391441 5.58566,1.943269 1.15906,1.551165 0.54005,5.653327 1.36407,7.370358 0.82401,1.71504 2.28428,2.261066 3.57936,2.92585 1.30103,0.658816 3.44998,0.05108 4.21096,1.045611 0.7663,0.988553 0.75037,3.420789 0.38016,4.903621 -0.36821,1.482832 -1.12456,4.005957 -2.58483,3.983407 -1.46027,-0.02257 -4.81936,-2.98291 -6.15954,-4.119417 -1.34152,-1.136507 -0.35761,-1.017085 -1.63078,-2.437535"
       style="fill:#32419f;fill-opacity:1;fill-rule:evenodd;stroke:none;stroke-width:0.66345823"
       id="path232"
       inkscape:connector-curvature="0" />
    <path
       d="m 110.27483,48.905394 c -1.26721,-1.426446 -4.68269,-4.279316 -5.98374,-6.114441 -1.3017,-1.835789 -2.02819,-3.307341 -1.81853,-4.892342 0.20501,-1.579693 1.6195,-4.159882 3.05721,-4.608381 1.44369,-0.443189 4.42593,0.391441 5.58566,1.943269 1.15906,1.551165 0.54005,5.653327 1.36407,7.370358 0.82401,1.71504 2.28428,2.261066 3.57936,2.92585 1.30103,0.658816 3.44998,0.05108 4.21096,1.045611 0.7663,0.988553 0.75037,3.420789 0.38016,4.903621 -0.36821,1.482832 -1.12456,4.005957 -2.58483,3.983407 -1.46027,-0.02257 -4.81936,-2.98291 -6.15954,-4.119417 -1.34152,-1.136507 -0.35761,-1.017085 -1.63078,-2.437535 z"
       style="fill:none;stroke:#32419f;stroke-width:0.56792027;stroke-linecap:butt;stroke-linejoin:round;stroke-miterlimit:10;stroke-dasharray:none;stroke-opacity:1"
       id="path234"
       inkscape:connector-curvature="0" />
    <path
       d="m 108.76878,56.354686 c -0.96003,-1.841081 -1.92072,-3.688161 -2.37518,-5.983724 -0.45447,-2.295564 -0.40936,-5.596934 -0.3523,-7.779048 0.0571,-2.182114 -0.0737,-4.017239 0.69331,-5.295723 0.76696,-1.278483 2.69895,-2.131028 3.91507,-2.37518 1.21612,-0.238845 2.46607,0.209653 3.38696,0.937467 0.9149,0.721842 1.77275,2.130363 2.12505,3.403541 0.35163,1.272511 0.30121,2.852205 -0.012,4.233527 -0.31713,1.375348 -1.68187,2.619332 -1.88024,4.028517 -0.19373,1.409183 0.0279,3.142803 0.69862,4.426604 0.67076,1.278479 2.89202,2.022867 3.31862,3.267531 0.42594,1.238665 0.006,3.341159 -0.76696,4.176458 -0.77293,0.829319 -2.59213,0.931496 -3.86995,0.818054 -1.27848,-0.119423 -2.88074,-0.664798 -3.79565,-1.517343 -0.9149,-0.857848 -1.30701,-2.22722 -1.69314,-3.602572"
       style="fill:#30b55b;fill-opacity:1;fill-rule:evenodd;stroke:none;stroke-width:0.66345823"
       id="path236"
       inkscape:connector-curvature="0" />
    <path
       d="m 108.76878,56.354686 c -0.96003,-1.841081 -1.92072,-3.688161 -2.37518,-5.983724 -0.45447,-2.295564 -0.40936,-5.596934 -0.3523,-7.779048 0.0571,-2.182114 -0.0737,-4.017239 0.69331,-5.295723 0.76696,-1.278483 2.69895,-2.131028 3.91507,-2.37518 1.21612,-0.238845 2.46607,0.209653 3.38696,0.937467 0.9149,0.721842 1.77275,2.130363 2.12505,3.403541 0.35163,1.272511 0.30121,2.852205 -0.012,4.233527 -0.31713,1.375348 -1.68187,2.619332 -1.88024,4.028517 -0.19373,1.409183 0.0279,3.142803 0.69862,4.426604 0.67076,1.278479 2.89202,2.022867 3.31862,3.267531 0.42594,1.238665 0.006,3.341159 -0.76696,4.176458 -0.77293,0.829319 -2.59213,0.931496 -3.86995,0.818054 -1.27848,-0.119423 -2.88074,-0.664798 -3.79565,-1.517343 -0.9149,-0.857848 -1.30701,-2.22722 -1.69314,-3.602572"
       style="fill:none;stroke:#30b55b;stroke-width:0.56792027;stroke-linecap:butt;stroke-linejoin:round;stroke-miterlimit:10;stroke-dasharray:none;stroke-opacity:1"
       id="path238"
       inkscape:connector-curvature="0" />
    <path
       d="m 96.125915,56.825756 c 0.960023,-1.857687 1.920712,-3.716033 2.369208,-6.02288 0.449162,-2.301538 0.392105,-5.619494 0.323769,-7.807579 -0.06236,-2.182114 0.06236,-4.028517 -0.715873,-5.307665 -0.778236,-1.277821 -2.722165,-2.125057 -3.949565,-2.357931 -1.2274,-0.232874 -2.487969,0.227567 -3.40885,0.960687 -0.926186,0.732459 -1.7847,2.153587 -2.136335,3.432071 -0.346987,1.278483 -0.289931,2.863484 0.03383,4.244806 0.323768,1.380655 1.699118,2.619331 1.90346,4.028517 0.205008,1.414496 -0.01655,3.154077 -0.688003,4.449144 -0.670095,1.289763 -2.908605,2.045453 -3.329235,3.29606 -0.426602,1.243988 0.0053,3.357766 0.789516,4.187761 0.778899,0.829319 2.614024,0.920212 3.898478,0.795486 1.289763,-0.125441 2.903294,-0.687347 3.824177,-1.551176 0.920215,-0.857848 1.307009,-2.239162 1.693142,-3.619818"
       style="fill:#75cfa2;fill-opacity:1;fill-rule:evenodd;stroke:none;stroke-width:0.66345823"
       id="path240"
       inkscape:connector-curvature="0" />
    <path
       d="m 96.125915,56.825756 c 0.960023,-1.857687 1.920712,-3.716033 2.369208,-6.02288 0.449162,-2.301538 0.392105,-5.619494 0.323769,-7.807579 -0.06236,-2.182114 0.06236,-4.028517 -0.715873,-5.307665 -0.778236,-1.277821 -2.722165,-2.125057 -3.949565,-2.357931 -1.2274,-0.232874 -2.487969,0.227567 -3.40885,0.960687 -0.926186,0.732459 -1.7847,2.153587 -2.136335,3.432071 -0.346987,1.278483 -0.289931,2.863484 0.03383,4.244806 0.323768,1.380655 1.699118,2.619331 1.90346,4.028517 0.205008,1.414496 -0.01655,3.154077 -0.688003,4.449144 -0.670095,1.289763 -2.908605,2.045453 -3.329235,3.29606 -0.426602,1.243988 0.0053,3.357766 0.789516,4.187761 0.778899,0.829319 2.614024,0.920212 3.898478,0.795486 1.289763,-0.125441 2.903294,-0.687347 3.824177,-1.551176 0.920215,-0.857848 1.307009,-2.239162 1.693142,-3.619818"
       style="fill:none;stroke:#30b55b;stroke-width:0.56792027;stroke-linecap:butt;stroke-linejoin:round;stroke-miterlimit:10;stroke-dasharray:none;stroke-opacity:1"
       id="path242"
       inkscape:connector-curvature="0" />
    <path
       d="m 94.653701,49.518417 c 1.182282,-1.511357 4.432564,-4.585822 5.620159,-6.50587 1.19289,-1.91474 1.82384,-3.43804 1.51732,-5.000485 -0.30718,-1.568414 -1.886871,-4.051738 -3.364391,-4.398063 -1.47155,-0.346989 -4.414652,0.687343 -5.483483,2.312815 -1.062199,1.624809 -0.181786,5.676547 -0.902968,7.449309 -0.716535,1.767453 -2.148277,2.409017 -3.409512,3.159387 -1.261897,0.743737 -3.460595,0.277989 -4.165187,1.324264 -0.704593,1.039639 -0.528779,3.465909 -0.06834,4.920212 0.460442,1.454961 1.386629,3.927006 2.846902,3.807584 1.460269,-0.125441 4.654158,-3.307345 5.926669,-4.528764 1.272518,-1.222097 0.295243,-1.034331 1.482831,-2.540389"
       style="fill:#aba7db;fill-opacity:1;fill-rule:evenodd;stroke:none;stroke-width:0.66345823"
       id="path244"
       inkscape:connector-curvature="0" />
    <g
       transform="matrix(0.66345824,0,0,-0.66345824,-169.38809,385.24687)"
       id="g246">
      <g
         id="g248"
         clip-path="url(#clipPath252)">
        <path
           d="m 397.978,506.028 c 1.782,2.278 6.681,6.912 8.471,9.806 1.798,2.886 2.749,5.182 2.287,7.537 -0.463,2.364 -2.844,6.107 -5.071,6.629 -2.218,0.523 -6.654,-1.036 -8.265,-3.486 -1.601,-2.449 -0.274,-8.556 -1.361,-11.228 -1.08,-2.664 -3.238,-3.631 -5.139,-4.762 -1.902,-1.121 -5.216,-0.419 -6.278,-1.996 -1.062,-1.567 -0.797,-5.224 -0.103,-7.416 0.694,-2.193 2.09,-5.919 4.291,-5.739 2.201,0.189 7.015,4.985 8.933,6.826 1.918,1.842 0.445,1.559 2.235,3.829 z"
           style="fill:none;stroke:#32419f;stroke-width:0.85600001;stroke-linecap:butt;stroke-linejoin:round;stroke-miterlimit:10;stroke-dasharray:none;stroke-opacity:1"
           id="path254"
           inkscape:connector-curvature="0" />
        <path
           d="m 411.63,530.694 c 1.131,0.043 2.261,0.094 4.137,0 1.868,-0.103 5.018,-0.103 7.092,-0.591 2.072,-0.497 3.596,-1.234 5.318,-2.364 1.723,-1.13 3.307,-2.312 5.027,-4.428 1.723,-2.116 4.138,-5.61 5.32,-8.265 1.181,-2.655 1.772,-4.77 1.772,-7.674 0,-2.903 -0.539,-6.834 -1.772,-9.738 -1.234,-2.903 -3.153,-5.558 -5.618,-7.674 -2.458,-2.115 -4.874,-3.1 -9.157,-5.019 -4.291,-1.918 -11.433,-5.413 -16.555,-6.491 -5.121,-1.08 -9.901,-0.789 -14.183,0 -4.291,0.787 -8.034,2.166 -11.528,4.718 -3.495,2.561 -7.049,6.689 -9.456,10.629 -2.415,3.931 -4.239,7.923 -5.027,12.984 -0.788,5.071 -0.249,11.246 0.3,17.412"
           style="fill:none;stroke:#231f20;stroke-width:5.13899994;stroke-linecap:butt;stroke-linejoin:round;stroke-miterlimit:10;stroke-dasharray:none;stroke-opacity:1"
           id="path256"
           inkscape:connector-curvature="0" />
      </g>
    </g>
    <text
       y="30.746925"
       x="108.78868"
       style="font-variant:normal;font-weight:bold;font-size:4.56857347px;font-family:Helvetica;-inkscape-font-specification:Helvetica-Bold;writing-mode:lr-tb;fill:#231f20;fill-opacity:1;fill-rule:nonzero;stroke:none;stroke-width:0.66345823"
       id="text266">
      <tspan
         style="stroke-width:0.66345823"
         x="108.78868 112.0648"
         y="30.746925"
         sodipodi:role="line"
         id="tspan258">H3</tspan>
      <tspan
         style="stroke-width:0.66345823"
         x="91.235764 94.511887"
         y="31.038857"
         sodipodi:role="line"
         id="tspan260">H3</tspan>
      <tspan
         style="stroke-width:0.66345823"
         x="122.8937 126.16982"
         y="33.903351"
         sodipodi:role="line"
         id="tspan262">H4</tspan>
      <tspan
         style="stroke-width:0.66345823"
         x="79.709251 82.985382"
         y="35.392712"
         sodipodi:role="line"
         id="tspan264">H4</tspan>
    </text>
    <path
       d="m 56.417276,80.839625 c 1.488802,0.954703 5.279138,2.681683 6.88736,3.983388 1.613531,1.301047 2.614027,2.420309 2.783872,3.824191 0.176482,1.409185 -0.534084,3.931651 -1.755511,4.625618 -1.221427,0.687347 -4.153912,0.607738 -5.568405,-0.47769 -1.420464,-1.090713 -1.784702,-4.755667 -2.931822,-6.057372 -1.147782,-1.301047 -2.614025,-1.460941 -3.960845,-1.756169 -1.341513,-0.289265 -3.176638,0.693967 -4.102826,0 -0.926189,-0.687346 -1.466243,-2.78984 -1.466243,-4.141966 0,-1.358107 0.119422,-3.693484 1.466243,-3.989388 1.340849,-0.289266 5.107964,1.545872 6.597428,2.233877 1.488802,0.693309 0.562613,0.794809 2.050749,1.755511"
       style="fill:#ee2431;fill-opacity:1;fill-rule:evenodd;stroke:none;stroke-width:0.66345823"
       id="path268"
       inkscape:connector-curvature="0" />
    <path
       d="m 56.417276,80.839625 c 1.488802,0.954703 5.279138,2.681683 6.88736,3.983388 1.613531,1.301047 2.614027,2.420309 2.783872,3.824191 0.176482,1.409185 -0.534084,3.931651 -1.755511,4.625618 -1.221427,0.687347 -4.153912,0.607738 -5.568405,-0.47769 -1.420464,-1.090713 -1.784702,-4.755667 -2.931822,-6.057372 -1.147782,-1.301047 -2.614025,-1.460941 -3.960845,-1.756169 -1.341513,-0.289265 -3.176638,0.693967 -4.102826,0 -0.926189,-0.687346 -1.466243,-2.78984 -1.466243,-4.141966 0,-1.358107 0.119422,-3.693484 1.466243,-3.989388 1.340849,-0.289266 5.107964,1.545872 6.597428,2.233877 1.488802,0.693309 0.562613,0.794809 2.050749,1.755511 z"
       style="fill:none;stroke:#ee2431;stroke-width:0.56792027;stroke-linecap:butt;stroke-linejoin:round;stroke-miterlimit:10;stroke-dasharray:none;stroke-opacity:1"
       id="path270"
       inkscape:connector-curvature="0" />
    <path
       d="m 55.826799,72.29362 c 1.420464,1.471548 2.840929,2.943097 3.891847,4.960001 1.057551,2.017582 1.892182,5.108631 2.41565,7.148762 0.528114,2.04015 1.147783,3.722013 0.744401,5.107972 -0.403383,1.380656 -2.046106,2.671077 -3.160051,3.205168 -1.107976,0.534091 -2.442854,0.437876 -3.522301,0 C 55.110928,92.278305 53.906087,91.186915 53.224052,90.090222 52.547988,88.99949 52.173135,87.516 52.11077,86.15259 c -0.06302,-1.358088 0.931495,-2.86945 0.743737,-4.227556 -0.187089,-1.364068 -0.86316,-2.921206 -1.857684,-3.943594 -0.988553,-1.017084 -3.335205,-1.142469 -4.079606,-2.188083 -0.7444,-1.044956 -0.898322,-3.107636 -0.369545,-4.079604 0.522805,-0.977271 2.255759,-1.533911 3.522963,-1.750207 1.267206,-0.221599 2.97163,-0.124688 4.085577,0.437876 1.113282,0.556641 1.852374,1.732962 2.596775,2.914586"
       style="fill:#f4b51e;fill-opacity:1;fill-rule:evenodd;stroke:none;stroke-width:0.66345823"
       id="path272"
       inkscape:connector-curvature="0" />
    <path
       d="m 55.826799,72.29362 c 1.420464,1.471548 2.840929,2.943097 3.891847,4.960001 1.057551,2.017582 1.892182,5.108631 2.41565,7.148762 0.528114,2.04015 1.147783,3.722013 0.744401,5.107972 -0.403383,1.380656 -2.046106,2.671077 -3.160051,3.205168 -1.107976,0.534091 -2.442854,0.437876 -3.522301,0 C 55.110928,92.278305 53.906087,91.186915 53.224052,90.090222 52.547988,88.99949 52.173135,87.516 52.11077,86.15259 c -0.06302,-1.358088 0.931495,-2.86945 0.743737,-4.227556 -0.187089,-1.364068 -0.86316,-2.921206 -1.857684,-3.943594 -0.988553,-1.017084 -3.335205,-1.142469 -4.079606,-2.188083 -0.7444,-1.044956 -0.898322,-3.107636 -0.369545,-4.079604 0.522805,-0.977271 2.255759,-1.533911 3.522963,-1.750207 1.267206,-0.221599 2.97163,-0.124688 4.085577,0.437876 1.113282,0.556641 1.852374,1.732962 2.596775,2.914586"
       style="fill:none;stroke:#f4b51e;stroke-width:0.56792027;stroke-linecap:butt;stroke-linejoin:round;stroke-miterlimit:10;stroke-dasharray:none;stroke-opacity:1"
       id="path274"
       inkscape:connector-curvature="0" />
    <text
       y="82.413475"
       x="34.501194"
       style="font-variant:normal;font-weight:bold;font-size:4.56857347px;font-family:Helvetica;-inkscape-font-specification:Helvetica-Bold;writing-mode:lr-tb;fill:#231f20;fill-opacity:1;fill-rule:nonzero;stroke:none;stroke-width:0.66345823"
       id="text280">
      <tspan
         style="stroke-width:0.66345823"
         x="34.501194 37.777317 40.295059"
         y="82.413475"
         sodipodi:role="line"
         id="tspan276">H2B</tspan>
      <tspan
         style="stroke-width:0.66345823"
         x="35.359169 38.635296 41.153038"
         y="70.696915"
         sodipodi:role="line"
         id="tspan278">H2A</tspan>
    </text>
    <path
       d="m 147.55653,69.696171 c -1.21081,1.654011 -2.42096,3.302042 -3.18792,5.443672 -0.76696,2.142308 -1.17631,5.318946 -1.42046,7.410175 -0.24416,2.096532 -0.63095,3.840759 -0.0405,5.15971 0.58583,1.317634 2.38181,2.375191 3.55746,2.750027 1.17631,0.380835 2.48332,0.10212 3.4951,-0.47769 1.01641,-0.57919 2.06269,-1.829816 2.58549,-3.00546 0.52811,-1.176302 0.69331,-2.693644 0.56792,-4.051732 -0.12472,-1.358106 -1.30701,-2.716194 -1.30701,-4.090888 0,-1.375352 0.4611,-3.006136 1.30104,-4.153909 0.84193,-1.147791 3.15408,-1.585667 3.75053,-2.722174 0.59114,-1.136507 0.46641,-3.205168 -0.18709,-4.09685 -0.65351,-0.892358 -2.44351,-1.210154 -3.73394,-1.255929 -1.28379,-0.04514 -2.95438,0.28462 -3.98208,0.988555 -1.02902,0.70525 -1.60358,1.971787 -2.17681,3.244962"
       style="fill:#fcd656;fill-opacity:1;fill-rule:evenodd;stroke:none;stroke-width:0.66345823"
       id="path282"
       inkscape:connector-curvature="0" />
    <path
       d="m 147.55653,69.696171 c -1.21081,1.654011 -2.42096,3.302042 -3.18792,5.443672 -0.76696,2.142308 -1.17631,5.318946 -1.42046,7.410175 -0.24416,2.096532 -0.63095,3.840759 -0.0405,5.15971 0.58583,1.317634 2.38181,2.375191 3.55746,2.750027 1.17631,0.380835 2.48332,0.10212 3.4951,-0.47769 1.01641,-0.57919 2.06269,-1.829816 2.58549,-3.00546 0.52811,-1.176302 0.69331,-2.693644 0.56792,-4.051732 -0.12472,-1.358106 -1.30701,-2.716194 -1.30701,-4.090888 0,-1.375352 0.4611,-3.006136 1.30104,-4.153909 0.84193,-1.147791 3.15408,-1.585667 3.75053,-2.722174 0.59114,-1.136507 0.46641,-3.205168 -0.18709,-4.09685 -0.65351,-0.892358 -2.44351,-1.210154 -3.73394,-1.255929 -1.28379,-0.04514 -2.95438,0.28462 -3.98208,0.988555 -1.02902,0.70525 -1.60358,1.971787 -2.17681,3.244962"
       style="fill:none;stroke:#fab91f;stroke-width:0.56792027;stroke-linecap:butt;stroke-linejoin:round;stroke-miterlimit:10;stroke-dasharray:none;stroke-opacity:1"
       id="path284"
       inkscape:connector-curvature="0" />
    <path
       d="m 148.31818,76.129056 c -1.37004,1.124565 -4.92087,3.290099 -6.36986,4.772932 -1.44368,1.48349 -2.30751,2.71089 -2.30751,4.131359 -0.005,1.414489 0.99983,3.835437 2.29557,4.380812 1.29042,0.539395 4.19372,0.113405 5.47154,-1.136507 1.27914,-1.249949 1.2055,-4.937452 2.19405,-6.363902 0.98325,-1.432393 2.42096,-1.76213 3.71669,-2.210632 1.30105,-0.449161 3.23834,0.306511 4.07961,-0.488974 0.83596,-0.795486 1.11992,-2.943097 0.96002,-4.289919 -0.15924,-1.340842 -0.5573,-3.64769 -1.92601,-3.779054 -1.36872,-0.129955 -4.88704,2.131023 -6.28495,2.99551 -1.39724,0.863152 -0.46574,0.857191 -1.82915,1.988375"
       style="fill:#f57b90;fill-opacity:1;fill-rule:evenodd;stroke:none;stroke-width:0.66345823"
       id="path286"
       inkscape:connector-curvature="0" />
    <path
       d="m 148.31818,76.129056 c -1.37004,1.124565 -4.92087,3.290099 -6.36986,4.772932 -1.44368,1.48349 -2.30751,2.71089 -2.30751,4.131359 -0.005,1.414489 0.99983,3.835437 2.29557,4.380812 1.29042,0.539395 4.19372,0.113405 5.47154,-1.136507 1.27914,-1.249949 1.2055,-4.937452 2.19405,-6.363902 0.98325,-1.432393 2.42096,-1.76213 3.71669,-2.210632 1.30105,-0.449161 3.23834,0.306511 4.07961,-0.488974 0.83596,-0.795486 1.11992,-2.943097 0.96002,-4.289919 -0.15924,-1.340842 -0.5573,-3.64769 -1.92601,-3.779054 -1.36872,-0.129955 -4.88704,2.131023 -6.28495,2.99551 -1.39724,0.863152 -0.46574,0.857191 -1.82915,1.988375 z"
       style="fill:none;stroke:#ee2431;stroke-width:0.56792027;stroke-linecap:butt;stroke-linejoin:round;stroke-miterlimit:10;stroke-dasharray:none;stroke-opacity:1"
       id="path288"
       inkscape:connector-curvature="0" />
    <text
       y="75.322105"
       x="161.00058"
       style="font-variant:normal;font-weight:bold;font-size:4.56857347px;font-family:Helvetica;-inkscape-font-specification:Helvetica-Bold;writing-mode:lr-tb;fill:#231f20;fill-opacity:1;fill-rule:nonzero;stroke:none;stroke-width:0.66345823"
       id="text294">
      <tspan
         style="stroke-width:0.66345823"
         x="161.00058 164.2758 166.79262"
         y="75.322105"
         sodipodi:role="line"
         id="tspan290">H2B</tspan>
      <tspan
         style="stroke-width:0.66345823"
         x="160.13164 163.40729 165.92459"
         y="68.349533"
         sodipodi:role="line"
         id="tspan292">H2A</tspan>
    </text>
    <path
       d="m 104.40455,72.725516 -0.0564,13.068807 h -0.85254 l 0.0564,-13.068807 z m 1.22209,12.506204 -1.72168,3.4042 -1.68784,-3.414825 3.40952,0.01128"
       style="fill:#231f20;fill-opacity:1;fill-rule:nonzero;stroke:none;stroke-width:0.66345823"
       id="path296"
       inkscape:connector-curvature="0" />
    <path
       d="m 137.34458,77.243014 c -11.3803,-2.210651 -17.42108,-4.177793 -23.70005,7.30136 l -0.73379,-0.431915 c 6.49128,-11.806239 12.87441,-10.046741 24.61098,-7.69944 z m -22.30281,7.438028 -3.17597,2.107816 0.21562,-3.801622 2.96035,1.693806"
       style="fill:#b2b1b1;fill-opacity:1;fill-rule:nonzero;stroke:none;stroke-width:0.66345823"
       id="path298"
       inkscape:connector-curvature="0" />
    <path
       d="m 70.651773,76.992227 c 11.779702,-2.363907 18.138284,-4.107475 24.61563,7.757158 l -0.733125,0.425934 C 88.251331,73.642417 82.260964,75.589681 70.828253,77.828185 Z m 25.450919,6.631935 0.204348,3.806907 -3.170667,-2.11974 2.966319,-1.687167"
       style="fill:#231f20;fill-opacity:1;fill-rule:nonzero;stroke:none;stroke-width:0.66345823"
       id="path300"
       inkscape:connector-curvature="0" />
    <text
       y="21.982384"
       x="89.840973"
       style="font-variant:normal;font-weight:bold;font-size:5.6595645px;font-family:Helvetica;-inkscape-font-specification:Helvetica-Bold;writing-mode:lr-tb;fill:#231f20;fill-opacity:1;fill-rule:nonzero;stroke:none;stroke-width:0.66345823"
       id="text310">
      <tspan
         style="stroke-width:0.66345823"
         x="89.840973 93.395187 96.541893 98.426537 100.62811 103.77482 108.80618 111.9529"
         y="21.982384"
         sodipodi:role="line"
         id="tspan302">Tetramer</tspan>
      <tspan
         style="stroke-width:0.66345823"
         x="34.609287 38.702854 42.168201 45.633553 48.787628"
         y="47.347984"
         sodipodi:role="line"
         id="tspan304">Upper</tspan>
      <tspan
         style="stroke-width:0.66345823"
         x="29.904495 33.990696 37.137417 41.019875 42.593235 46.67944 49.826157 53.912365"
         y="54.166615"
         sodipodi:role="line"
         id="tspan306">H2A/H2B</tspan>
      <tspan
         style="stroke-width:0.66345823"
         x="35.086391 38.546646 40.122269 45.155884 48.304867"
         y="60.985275"
         sodipodi:role="line"
         id="tspan308">dimer</tspan>
    </text>
    <text
       y="146.20857"
       x="94.244812"
       style="font-variant:normal;font-weight:bold;font-size:6.27326345px;font-family:Helvetica;-inkscape-font-specification:Helvetica-Bold;writing-mode:lr-tb;fill:#231f20;fill-opacity:1;fill-rule:nonzero;stroke:none;stroke-width:0.66345823"
       id="text316">
      <tspan
         style="stroke-width:0.66345823"
         x="94.244812 99.129181 102.62088 104.71363 108.20534 113.78603 117.27773"
         y="146.20857"
         sodipodi:role="line"
         id="tspan312">Octamer</tspan>
      <tspan
         style="stroke-width:0.66345823"
         x="86.88063 90.542336 92.135735 95.621796 99.107841 102.5939 104.29395 108.12504 111.95612 113.72581 118.22311 122.77812"
         y="153.7095"
         sodipodi:role="line"
         id="tspan314">+ 146 bp DNA</tspan>
    </text>
    <g
       transform="matrix(0.66345824,0,0,-0.66345824,-169.38809,385.24687)"
       id="g318">
      <g
         id="g320"
         clip-path="url(#clipPath324)">
        <path
           d="m 395.546,526.077 c -3.298,0.669 -6.586,1.328 -7.991,2.656 -1.413,1.327 1.105,3.614 -0.445,5.31 -1.559,1.696 -6.963,3.1 -8.882,4.873 -1.927,1.773 -1.559,4.65 -2.664,5.756 -1.113,1.104 -2.552,0.993 -3.999,0.882"
           style="fill:none;stroke:#32419f;stroke-width:2.56900001;stroke-linecap:butt;stroke-linejoin:round;stroke-miterlimit:10;stroke-dasharray:none;stroke-opacity:1"
           id="path326"
           inkscape:connector-curvature="0" />
      </g>
    </g>
    <path
       d="m 116.05355,41.267652 c 2.21064,0.30121 4.41465,0.603084 5.58632,0.07431 1.16967,-0.522806 0.0962,-2.505883 1.43771,-3.227725 1.34615,-0.727149 5.03365,-0.426603 6.62462,-1.119254 1.59098,-0.688005 1.98906,-2.574216 2.92652,-3.023378 0.93813,-0.448499 1.81854,-0.06767 2.69895,0.318459 m -18.42158,71.045766 c 2.20998,0.30121 4.41465,0.60308 5.58566,0.0743 1.16967,-0.52281 0.0962,-2.50656 1.43771,-3.22772 1.34682,-0.72716 5.03432,-0.42661 6.62529,-1.11926 1.59164,-0.688 1.98838,-2.574225 2.92651,-3.023386 0.93747,-0.448502 1.81788,-0.0677 2.69961,0.318454"
       style="fill:none;stroke:#30b55b;stroke-width:1.70442426;stroke-linecap:butt;stroke-linejoin:round;stroke-miterlimit:10;stroke-dasharray:none;stroke-opacity:1"
       id="path328"
       inkscape:connector-curvature="0" />
    <g
       transform="matrix(0.66345824,0,0,-0.66345824,-169.38809,385.24687)"
       id="g330">
      <g
         id="g332"
         clip-path="url(#clipPath336)">
        <path
           d="m 400.367,394.395 c -3.28,-0.668 -6.559,-1.336 -7.964,-2.672 -1.396,-1.336 1.105,-3.631 -0.437,-5.336 -1.551,-1.713 -6.929,-3.117 -8.847,-4.899 -1.911,-1.781 -1.542,-4.676 -2.647,-5.79 -1.105,-1.113 -2.543,-1.002 -3.982,-0.89"
           style="fill:none;stroke:#c88d27;stroke-width:2.56900001;stroke-linecap:butt;stroke-linejoin:round;stroke-miterlimit:10;stroke-dasharray:none;stroke-opacity:1"
           id="path338"
           inkscape:connector-curvature="0" />
        <path
           d="m 492.755,462.391 c 3.332,0.453 6.654,0.907 8.42,0.111 1.764,-0.788 0.146,-3.777 2.167,-4.865 2.029,-1.096 7.588,-0.642 9.984,-1.687 2.401,-1.036 2.998,-3.88 4.412,-4.557 1.414,-0.676 2.741,-0.102 4.068,0.48"
           style="fill:none;stroke:#f2576e;stroke-width:2.56900001;stroke-linecap:butt;stroke-linejoin:round;stroke-miterlimit:10;stroke-dasharray:none;stroke-opacity:1"
           id="path340"
           inkscape:connector-curvature="0" />
        <path
           d="m 328.527,452.661 c -3.314,0.454 -6.629,0.9 -8.385,0.112 -1.755,-0.797 -0.145,-3.778 -2.166,-4.874 -2.013,-1.096 -7.554,-0.651 -9.944,-1.695 -2.398,-1.046 -2.989,-3.881 -4.402,-4.566 -1.405,-0.685 -2.724,-0.102 -4.043,0.472"
           style="fill:none;stroke:#ee2431;stroke-width:2.56900001;stroke-linecap:butt;stroke-linejoin:round;stroke-miterlimit:10;stroke-dasharray:none;stroke-opacity:1"
           id="path342"
           inkscape:connector-curvature="0" />
      </g>
    </g>
    <path
       d="m 152.27836,87.425107 c 2.17681,0.44318 4.35295,0.887037 5.27848,1.767453 0.93282,0.881075 -0.73246,2.398398 0.2959,3.522963 1.02305,1.125223 4.5971,2.057377 5.86431,3.227717 1.27251,1.176321 1.02835,3.085745 1.76214,3.818865 0.7318,0.733135 1.68718,0.664125 2.64123,0.590485"
       style="fill:none;stroke:#e7b450;stroke-width:1.70442426;stroke-linecap:butt;stroke-linejoin:round;stroke-miterlimit:10;stroke-dasharray:none;stroke-opacity:1"
       id="path344"
       inkscape:connector-curvature="0" />
    <path
       d="m 54.61665,91.902792 c -2.188085,0.443838 -4.375506,0.887037 -5.307665,1.773415 -0.93216,0.886378 0.738429,2.409024 -0.295239,3.540209 -1.029023,1.136507 -4.614353,2.067999 -5.892836,3.249634 -1.272513,1.18228 -1.028361,3.10299 -1.767453,3.84141 -0.732458,0.73313 -1.693146,0.6648 -2.647862,0.59116"
       style="fill:none;stroke:#c88d27;stroke-width:1.70442426;stroke-linecap:butt;stroke-linejoin:round;stroke-miterlimit:10;stroke-dasharray:none;stroke-opacity:1"
       id="path346"
       inkscape:connector-curvature="0" />
    <text
       y="41.813477"
       x="155.04538"
       style="font-variant:normal;font-weight:bold;font-size:5.6595645px;font-family:Helvetica;-inkscape-font-specification:Helvetica-Bold;writing-mode:lr-tb;fill:#231f20;fill-opacity:1;fill-rule:nonzero;stroke:none;stroke-width:0.66345823"
       id="text462">
      <tspan
         style="stroke-width:0.66345823"
         x="155.04538 158.51468 161.98401 166.47826 169.62498"
         y="41.813477"
         sodipodi:role="line"
         id="tspan456">Lower</tspan>
      <tspan
         style="stroke-width:0.66345823"
         x="150.54489 154.6311 157.77782 161.66084 163.23419 167.3204 170.46712 174.55333"
         y="48.632122"
         sodipodi:role="line"
         id="tspan458">H2A/H2B</tspan>
      <tspan
         style="stroke-width:0.66345823"
         x="155.72736 159.18761 160.76323 165.79686 168.94583"
         y="55.450764"
         sodipodi:role="line"
         id="tspan460">dimer</tspan>
    </text>
    <path
       d="m 93.892052,98.153892 c -2.176144,-0.443857 -4.352287,-0.881075 -5.278474,-1.76215 -0.932161,-0.880416 0.733121,-2.39774 -0.29524,-3.522963 -1.023054,-1.124565 -4.5971,-2.056718 -5.864306,-3.233039 -1.273179,-1.176302 -1.028363,-3.085727 -1.761482,-3.818849 -0.73312,-0.733123 -1.687838,-0.658818 -2.636583,-0.585171"
       style="fill:none;stroke:#32419f;stroke-width:1.27848411;stroke-linecap:butt;stroke-linejoin:round;stroke-miterlimit:10;stroke-dasharray:none;stroke-opacity:1"
       id="path468"
       inkscape:connector-curvature="0" />
  </g>
</svg>
