\boolfalse {citerequest}\boolfalse {citetracker}\boolfalse {pagetracker}\boolfalse {backtracker}\relax 
\defcounter {refsection}{0}\relax 
\select@language {english}
\addvspace {10\p@ }
\addvspace {10\p@ }
\addvspace {10\p@ }
\contentsline {table}{\numberline {3.1}{\ignorespaces CHIPseq assays}}{54}{table.caption.190}
\contentsline {table}{\numberline {3.2}{\ignorespaces ATACseq assays}}{54}{table.caption.191}
\contentsline {table}{\numberline {3.3}{\ignorespaces The genomes used}}{54}{table.caption.192}
\addvspace {10\p@ }
\addvspace {10\p@ }
\addvspace {10\p@ }
\addvspace {10\p@ }
\addvspace {10\p@ }
\contentsline {table}{\numberline {8.1}{\ignorespaces M1957 dataset}}{100}{table.caption.277}
\addvspace {10\p@ }
\contentsline {table}{\numberline {9.1}{\ignorespaces M1957 dataset}}{110}{table.caption.294}
\addvspace {10\p@ }
\addvspace {10\p@ }
\addvspace {10\p@ }
\addvspace {10\p@ }
