\boolfalse {citerequest}\boolfalse {citetracker}\boolfalse {pagetracker}\boolfalse {backtracker}\relax 
\defcounter {refsection}{0}\relax 
\select@language {english}
\contentsline {figure}{\numberline {1}{\ignorespaces Transcription Regulation}}{5}{figure.caption.14}
\addvspace {10\p@ }
\contentsline {figure}{\numberline {1.1}{\ignorespaces Beads on a string}}{11}{figure.caption.35}
\contentsline {figure}{\numberline {1.2}{\ignorespaces CHIPseq simple model}}{12}{figure.caption.39}
\contentsline {figure}{\numberline {1.3}{\ignorespaces CHIPseq on a genome browser}}{12}{figure.caption.40}
\contentsline {figure}{\numberline {1.4}{\ignorespaces A PWM}}{14}{figure.caption.47}
\contentsline {figure}{\numberline {1.5}{\ignorespaces Nimrod Seq Layer 1 neuron}}{24}{figure.caption.79}
\contentsline {figure}{\numberline {1.6}{\ignorespaces Nimrod Seq Layer 2}}{25}{figure.caption.82}
\contentsline {figure}{\numberline {1.7}{\ignorespaces Nimrod Seq Layer 1 \& 2}}{26}{figure.caption.83}
\contentsline {figure}{\numberline {1.8}{\ignorespaces Nimrod ATAC layers}}{27}{figure.caption.85}
\contentsline {figure}{\numberline {1.9}{\ignorespaces Nimrod zipper Layer}}{28}{figure.caption.88}
\contentsline {figure}{\numberline {1.10}{\ignorespaces Nimrod Max Pool}}{28}{figure.caption.89}
\contentsline {figure}{\numberline {1.11}{\ignorespaces Nimrod Max Pool}}{29}{figure.caption.90}
\contentsline {figure}{\numberline {1.12}{\ignorespaces Nimrod Max Pool}}{30}{figure.caption.92}
\addvspace {10\p@ }
\contentsline {figure}{\numberline {2.1}{\ignorespaces DNA Methylation simple model}}{36}{figure.caption.112}
\contentsline {figure}{\numberline {2.2}{\ignorespaces Histone modifications simple model}}{38}{figure.caption.122}
\contentsline {figure}{\numberline {2.3}{\ignorespaces ATACseq protocol}}{43}{figure.caption.146}
\contentsline {figure}{\numberline {2.4}{\ignorespaces ATACseq protocol}}{43}{figure.caption.148}
\contentsline {figure}{\numberline {2.5}{\ignorespaces ATACseq protocol}}{44}{figure.caption.149}
\addvspace {10\p@ }
\addvspace {10\p@ }
\contentsline {figure}{\numberline {4.1}{\ignorespaces Effective genome sizes}}{65}{figure.caption.210}
\contentsline {figure}{\numberline {4.2}{\ignorespaces Intergenic distance sizes}}{67}{figure.caption.213}
\contentsline {figure}{\numberline {4.3}{\ignorespaces GREAT region sizes}}{68}{figure.caption.216}
\contentsline {figure}{\numberline {4.4}{\ignorespaces CHIPseq peak widths}}{70}{figure.caption.219}
\contentsline {figure}{\numberline {4.5}{\ignorespaces H3k4me3 peak numbers}}{71}{figure.caption.221}
\contentsline {figure}{\numberline {4.6}{\ignorespaces H3k27ac peak numbers}}{72}{figure.caption.222}
\contentsline {figure}{\numberline {4.7}{\ignorespaces CHIPseq genome coverage}}{73}{figure.caption.223}
\contentsline {figure}{\numberline {4.8}{\ignorespaces ATACseq peak numbers}}{74}{figure.caption.225}
\contentsline {figure}{\numberline {4.9}{\ignorespaces ATACseq peak - TSS distances}}{75}{figure.caption.227}
\contentsline {figure}{\numberline {4.10}{\ignorespaces ATACseq peak - TSS distances normalized}}{75}{figure.caption.228}
\contentsline {figure}{\numberline {4.11}{\ignorespaces CRE count distributions 2}}{76}{figure.caption.230}
\contentsline {figure}{\numberline {4.12}{\ignorespaces Downsampling}}{77}{figure.caption.232}
\addvspace {10\p@ }
\contentsline {figure}{\numberline {5.1}{\ignorespaces Human-Amphioxus NACC}}{80}{figure.caption.236}
\contentsline {figure}{\numberline {5.2}{\ignorespaces Human-Chordates NACC}}{81}{figure.caption.237}
\contentsline {figure}{\numberline {5.3}{\ignorespaces Phylotypic period: RNA}}{83}{figure.caption.243}
\contentsline {figure}{\numberline {5.4}{\ignorespaces CIS Phylotypic}}{84}{figure.caption.244}
\contentsline {figure}{\numberline {5.5}{\ignorespaces CIS Phylotypic}}{84}{figure.caption.245}
\contentsline {figure}{\numberline {5.6}{\ignorespaces WGCNA module annotation}}{85}{figure.caption.249}
\contentsline {figure}{\numberline {5.7}{\ignorespaces Module-module homology comparisons}}{87}{figure.caption.253}
\contentsline {figure}{\numberline {5.8}{\ignorespaces Module-module Cis-Regulatory comparisons}}{89}{figure.caption.255}
\contentsline {figure}{\numberline {5.9}{\ignorespaces Module-module comparisons}}{90}{figure.caption.256}
\addvspace {10\p@ }
\contentsline {figure}{\numberline {6.1}{\ignorespaces GREAT sizes homology groups}}{92}{figure.caption.259}
\contentsline {figure}{\numberline {6.2}{\ignorespaces CRE counts homology groups}}{93}{figure.caption.260}
\contentsline {figure}{\numberline {6.3}{\ignorespaces CRE counts HousekeepingTransdev}}{93}{figure.caption.262}
\contentsline {figure}{\numberline {6.4}{\ignorespaces CRE counts homology groups MINXMAN}}{94}{figure.caption.265}
\contentsline {figure}{\numberline {6.5}{\ignorespaces Gene Fate }}{95}{figure.caption.267}
\contentsline {figure}{\numberline {6.6}{\ignorespaces Gene Fate }}{95}{figure.caption.268}
\contentsline {figure}{\numberline {6.7}{\ignorespaces Gene Fate }}{97}{figure.caption.270}
\addvspace {10\p@ }
\contentsline {figure}{\numberline {7.1}{\ignorespaces An dfasfasd}}{103}{figure.caption.275}
\addvspace {10\p@ }
\contentsline {figure}{\numberline {8.1}{\ignorespaces TODO}}{110}{figure.caption.286}
\contentsline {figure}{\numberline {8.2}{\ignorespaces TODO}}{111}{figure.caption.287}
\contentsline {figure}{\numberline {8.3}{\ignorespaces TODO}}{112}{figure.caption.288}
\contentsline {figure}{\numberline {8.4}{\ignorespaces TODO}}{113}{figure.caption.294}
\contentsline {figure}{\numberline {8.5}{\ignorespaces TODO}}{114}{figure.caption.295}
\addvspace {10\p@ }
\addvspace {10\p@ }
