\boolfalse {citerequest}\boolfalse {citetracker}\boolfalse {pagetracker}\boolfalse {backtracker}\relax 
\defcounter {refsection}{0}\relax 
\select@language {english}
\contentsline {figure}{\numberline {1}{\ignorespaces Transcription Regulation}}{5}{figure.caption.14}
\addvspace {10\p@ }
\contentsline {figure}{\numberline {1.1}{\ignorespaces Beads on a string}}{9}{figure.caption.19}
\contentsline {figure}{\numberline {1.2}{\ignorespaces ChIP-seq simple model}}{10}{figure.caption.23}
\contentsline {figure}{\numberline {1.3}{\ignorespaces ChIP-seq on a genome browser}}{11}{figure.caption.24}
\contentsline {figure}{\numberline {1.4}{\ignorespaces A PWM}}{12}{figure.caption.27}
\contentsline {figure}{\numberline {1.5}{\ignorespaces An iconic NN }}{13}{figure.caption.30}
\addvspace {10\p@ }
\contentsline {figure}{\numberline {2.1}{\ignorespaces ATAC-seq protocol}}{25}{figure.caption.51}
\contentsline {figure}{\numberline {2.2}{\ignorespaces ATAC-seq protocol}}{25}{figure.caption.52}
\contentsline {figure}{\numberline {2.3}{\ignorespaces ATAC-seq protocol}}{26}{figure.caption.53}
\contentsline {figure}{\numberline {2.4}{\ignorespaces Histone modifications simple model}}{29}{figure.caption.56}
\contentsline {figure}{\numberline {2.5}{\ignorespaces Vertebrates on the tree of life}}{32}{figure.caption.61}
\contentsline {figure}{\numberline {2.6}{\ignorespaces Tunicate Illustrations}}{33}{figure.caption.63}
\addvspace {10\p@ }
\addvspace {10\p@ }
\contentsline {figure}{\numberline {4.1}{\ignorespaces Effective genome sizes}}{42}{figure.caption.76}
\contentsline {figure}{\numberline {4.2}{\ignorespaces Intergenic distance sizes}}{43}{figure.caption.79}
\contentsline {figure}{\numberline {4.3}{\ignorespaces GREAT region sizes}}{44}{figure.caption.81}
\contentsline {figure}{\numberline {4.4}{\ignorespaces ChIP-seq peak widths}}{46}{figure.caption.84}
\contentsline {figure}{\numberline {4.5}{\ignorespaces H3K4me3 peak numbers}}{47}{figure.caption.86}
\contentsline {figure}{\numberline {4.6}{\ignorespaces H3K27ac peak numbers}}{48}{figure.caption.87}
\contentsline {figure}{\numberline {4.7}{\ignorespaces ChIP-seq genome coverage}}{49}{figure.caption.88}
\contentsline {figure}{\numberline {4.8}{\ignorespaces ATAC-seq peak counts}}{50}{figure.caption.90}
\contentsline {figure}{\numberline {4.9}{\ignorespaces ATAC-seq peak - TSS distances}}{51}{figure.caption.92}
\contentsline {figure}{\numberline {4.10}{\ignorespaces ATAC-seq peak - TSS distances normalized}}{52}{figure.caption.93}
\contentsline {figure}{\numberline {4.11}{\ignorespaces CRE count distributions 2}}{53}{figure.caption.95}
\contentsline {figure}{\numberline {4.12}{\ignorespaces Matched genomic sizes}}{54}{figure.caption.97}
\contentsline {figure}{\numberline {4.13}{\ignorespaces Matched genomic sizes}}{55}{figure.caption.98}
\contentsline {figure}{\numberline {4.14}{\ignorespaces Downsampling}}{56}{figure.caption.100}
\addvspace {10\p@ }
\contentsline {figure}{\numberline {5.1}{\ignorespaces Human-Amphioxus NACC}}{58}{figure.caption.103}
\contentsline {figure}{\numberline {5.2}{\ignorespaces Human-Chordates NACC}}{59}{figure.caption.104}
\contentsline {figure}{\numberline {5.3}{\ignorespaces Phylotypic period: RNA}}{60}{figure.caption.106}
\contentsline {figure}{\numberline {5.4}{\ignorespaces CIS Phylotypic}}{61}{figure.caption.107}
\contentsline {figure}{\numberline {5.5}{\ignorespaces CIS Phylotypic}}{62}{figure.caption.108}
\contentsline {figure}{\numberline {5.6}{\ignorespaces WGCNA module annotation}}{63}{figure.caption.111}
\contentsline {figure}{\numberline {5.7}{\ignorespaces Module-module homology comparisons}}{64}{figure.caption.113}
\contentsline {figure}{\numberline {5.8}{\ignorespaces Module-module Cis-Regulatory comparisons}}{66}{figure.caption.115}
\contentsline {figure}{\numberline {5.9}{\ignorespaces Module-module comparisons}}{67}{figure.caption.116}
\contentsline {figure}{\numberline {5.10}{\ignorespaces Module-module comparisons}}{67}{figure.caption.117}
\addvspace {10\p@ }
\contentsline {figure}{\numberline {6.1}{\ignorespaces Homology groups - Landscape sizes and CRE counts}}{70}{figure.caption.120}
\contentsline {figure}{\numberline {6.2}{\ignorespaces CRE counts HousekeepingTransdev}}{71}{figure.caption.121}
\contentsline {figure}{\numberline {6.3}{\ignorespaces CRE counts homology groups MINXMAN}}{72}{figure.caption.124}
\contentsline {figure}{\numberline {6.4}{\ignorespaces Gene Fate }}{73}{figure.caption.126}
\contentsline {figure}{\numberline {6.5}{\ignorespaces Gene Fate - Schematics }}{74}{figure.caption.127}
\contentsline {figure}{\numberline {6.6}{\ignorespaces Gene Fate - Distributions}}{75}{figure.caption.128}
\contentsline {figure}{\numberline {6.7}{\ignorespaces CRE counts by WGD fate}}{76}{figure.caption.129}
\contentsline {figure}{\numberline {6.8}{\ignorespaces CRE counts by domains lost}}{77}{figure.caption.130}
\contentsline {figure}{\numberline {6.9}{\ignorespaces ROC curve examples }}{84}{figure.caption.139}
\addvspace {10\p@ }
\contentsline {figure}{\numberline {7.1}{\ignorespaces Nimrod Seq Layer 1 neuron}}{87}{figure.caption.146}
\contentsline {figure}{\numberline {7.2}{\ignorespaces Nimrod Seq Layer 2}}{89}{figure.caption.150}
\contentsline {figure}{\numberline {7.3}{\ignorespaces Nimrod Seq Layer 1 \& 2}}{90}{figure.caption.151}
\contentsline {figure}{\numberline {7.4}{\ignorespaces Nimrod ATAC layers}}{91}{figure.caption.153}
\contentsline {figure}{\numberline {7.5}{\ignorespaces Nimrod zipper Layer}}{92}{figure.caption.155}
\contentsline {figure}{\numberline {7.6}{\ignorespaces Nimrod Max Pool}}{93}{figure.caption.157}
\contentsline {figure}{\numberline {7.7}{\ignorespaces Nimrod Max Pool}}{94}{figure.caption.158}
\contentsline {figure}{\numberline {7.8}{\ignorespaces Nimrod Max Pool}}{95}{figure.caption.159}
\addvspace {10\p@ }
\contentsline {figure}{\numberline {8.1}{\ignorespaces NN training progress}}{98}{figure.caption.162}
\contentsline {figure}{\numberline {8.2}{\ignorespaces NN batch size}}{99}{figure.caption.164}
\contentsline {figure}{\numberline {8.3}{\ignorespaces NN learning rate}}{100}{figure.caption.166}
\addvspace {10\p@ }
\contentsline {figure}{\numberline {9.1}{\ignorespaces Comparisons to other tools}}{102}{figure.caption.168}
\contentsline {figure}{\numberline {9.2}{\ignorespaces Cross species nimrod}}{104}{figure.caption.170}
\contentsline {figure}{\numberline {9.3}{\ignorespaces Cross species comparisons}}{105}{figure.caption.171}
\addvspace {10\p@ }
\contentsline {figure}{\numberline {10.1}{\ignorespaces WGD effects on different genes}}{115}{figure.caption.179}
\addvspace {10\p@ }
\contentsline {figure}{\numberline {11.1}{\ignorespaces NN features}}{120}{figure.caption.182}
\contentsline {figure}{\numberline {11.2}{\ignorespaces NN high order features}}{120}{figure.caption.183}
\addvspace {10\p@ }
\addvspace {10\p@ }
\addvspace {10\p@ }
