\boolfalse {citerequest}\boolfalse {citetracker}\boolfalse {pagetracker}\boolfalse {backtracker}\relax 
\defcounter {refsection}{0}\relax 
\select@language {english}
\contentsline {figure}{\numberline {1}{\ignorespaces Transcription Regulation}}{5}{figure.caption.15}
\addvspace {10\p@ }
\contentsline {figure}{\numberline {1.1}{\ignorespaces Beads on a string}}{10}{figure.caption.36}
\contentsline {figure}{\numberline {1.2}{\ignorespaces CHIPseq simple model}}{12}{figure.caption.40}
\contentsline {figure}{\numberline {1.3}{\ignorespaces CHIPseq on a genome browser}}{12}{figure.caption.41}
\contentsline {figure}{\numberline {1.4}{\ignorespaces A PWM}}{13}{figure.caption.48}
\contentsline {figure}{\numberline {1.5}{\ignorespaces An iconic NN }}{15}{figure.caption.57}
\contentsline {figure}{\numberline {1.6}{\ignorespaces Nimrod Seq Layer 1 neuron}}{23}{figure.caption.82}
\contentsline {figure}{\numberline {1.7}{\ignorespaces Nimrod Seq Layer 2}}{24}{figure.caption.85}
\contentsline {figure}{\numberline {1.8}{\ignorespaces Nimrod Seq Layer 1 \& 2}}{25}{figure.caption.86}
\contentsline {figure}{\numberline {1.9}{\ignorespaces Nimrod ATAC layers}}{26}{figure.caption.88}
\contentsline {figure}{\numberline {1.10}{\ignorespaces Nimrod zipper Layer}}{27}{figure.caption.91}
\contentsline {figure}{\numberline {1.11}{\ignorespaces Nimrod Max Pool}}{27}{figure.caption.92}
\contentsline {figure}{\numberline {1.12}{\ignorespaces Nimrod Max Pool}}{28}{figure.caption.93}
\contentsline {figure}{\numberline {1.13}{\ignorespaces Nimrod Max Pool}}{29}{figure.caption.95}
\addvspace {10\p@ }
\contentsline {figure}{\numberline {2.1}{\ignorespaces Gene Body Methylation}}{33}{figure.caption.113}
\contentsline {figure}{\numberline {2.2}{\ignorespaces DNA Methylation simple model}}{34}{figure.caption.117}
\contentsline {figure}{\numberline {2.3}{\ignorespaces Histone modifications simple model}}{36}{figure.caption.127}
\contentsline {figure}{\numberline {2.4}{\ignorespaces ATACseq protocol}}{41}{figure.caption.151}
\contentsline {figure}{\numberline {2.5}{\ignorespaces ATACseq protocol}}{41}{figure.caption.153}
\contentsline {figure}{\numberline {2.6}{\ignorespaces ATACseq protocol}}{42}{figure.caption.154}
\addvspace {10\p@ }
\addvspace {10\p@ }
\contentsline {figure}{\numberline {4.1}{\ignorespaces Effective genome sizes}}{58}{figure.caption.197}
\contentsline {figure}{\numberline {4.2}{\ignorespaces Intergenic distance sizes}}{59}{figure.caption.200}
\contentsline {figure}{\numberline {4.3}{\ignorespaces GREAT region sizes}}{60}{figure.caption.203}
\contentsline {figure}{\numberline {4.4}{\ignorespaces CHIPseq peak widths}}{62}{figure.caption.206}
\contentsline {figure}{\numberline {4.5}{\ignorespaces H3k4me3 peak numbers}}{63}{figure.caption.208}
\contentsline {figure}{\numberline {4.6}{\ignorespaces H3k27ac peak numbers}}{64}{figure.caption.209}
\contentsline {figure}{\numberline {4.7}{\ignorespaces CHIPseq genome coverage}}{65}{figure.caption.210}
\contentsline {figure}{\numberline {4.8}{\ignorespaces ATACseq peak numbers}}{66}{figure.caption.212}
\contentsline {figure}{\numberline {4.9}{\ignorespaces ATACseq peak - TSS distances}}{67}{figure.caption.214}
\contentsline {figure}{\numberline {4.10}{\ignorespaces ATACseq peak - TSS distances normalized}}{67}{figure.caption.215}
\contentsline {figure}{\numberline {4.11}{\ignorespaces CRE count distributions 2}}{68}{figure.caption.217}
\contentsline {figure}{\numberline {4.12}{\ignorespaces Downsampling}}{69}{figure.caption.219}
\addvspace {10\p@ }
\contentsline {figure}{\numberline {5.1}{\ignorespaces Human-Amphioxus NACC}}{72}{figure.caption.223}
\contentsline {figure}{\numberline {5.2}{\ignorespaces Human-Chordates NACC}}{73}{figure.caption.224}
\contentsline {figure}{\numberline {5.3}{\ignorespaces Phylotypic period: RNA}}{74}{figure.caption.230}
\contentsline {figure}{\numberline {5.4}{\ignorespaces CIS Phylotypic}}{75}{figure.caption.231}
\contentsline {figure}{\numberline {5.5}{\ignorespaces CIS Phylotypic}}{76}{figure.caption.232}
\contentsline {figure}{\numberline {5.6}{\ignorespaces WGCNA module annotation}}{77}{figure.caption.236}
\contentsline {figure}{\numberline {5.7}{\ignorespaces Module-module homology comparisons}}{78}{figure.caption.240}
\contentsline {figure}{\numberline {5.8}{\ignorespaces Module-module Cis-Regulatory comparisons}}{80}{figure.caption.242}
\contentsline {figure}{\numberline {5.9}{\ignorespaces Module-module comparisons}}{81}{figure.caption.243}
\addvspace {10\p@ }
\contentsline {figure}{\numberline {6.1}{\ignorespaces GREAT sizes homology groups}}{84}{figure.caption.246}
\contentsline {figure}{\numberline {6.2}{\ignorespaces CRE counts homology groups}}{85}{figure.caption.247}
\contentsline {figure}{\numberline {6.3}{\ignorespaces CRE counts HousekeepingTransdev}}{85}{figure.caption.249}
\contentsline {figure}{\numberline {6.4}{\ignorespaces CRE counts homology groups MINXMAN}}{86}{figure.caption.252}
\contentsline {figure}{\numberline {6.5}{\ignorespaces Gene Fate }}{87}{figure.caption.254}
\contentsline {figure}{\numberline {6.6}{\ignorespaces Gene Fate }}{87}{figure.caption.255}
\contentsline {figure}{\numberline {6.7}{\ignorespaces Gene Fate }}{88}{figure.caption.257}
\addvspace {10\p@ }
\contentsline {figure}{\numberline {7.1}{\ignorespaces An dfasfasd}}{95}{figure.caption.262}
\contentsline {figure}{\numberline {7.2}{\ignorespaces Nimrod training loss }}{97}{figure.caption.272}
\contentsline {figure}{\numberline {7.3}{\ignorespaces Nimrod training example}}{98}{figure.caption.274}
\addvspace {10\p@ }
\contentsline {figure}{\numberline {8.1}{\ignorespaces TODO}}{101}{figure.caption.279}
\contentsline {figure}{\numberline {8.2}{\ignorespaces TODO}}{102}{figure.caption.280}
\contentsline {figure}{\numberline {8.3}{\ignorespaces TODO}}{103}{figure.caption.281}
\contentsline {figure}{\numberline {8.4}{\ignorespaces TODO}}{104}{figure.caption.287}
\contentsline {figure}{\numberline {8.5}{\ignorespaces TODO}}{105}{figure.caption.288}
\contentsline {figure}{\numberline {8.6}{\ignorespaces TODO}}{106}{figure.caption.290}
\contentsline {figure}{\numberline {8.7}{\ignorespaces TODO}}{106}{figure.caption.291}
\contentsline {figure}{\numberline {8.8}{\ignorespaces TODO}}{107}{figure.caption.292}
\addvspace {10\p@ }
\addvspace {10\p@ }
\contentsline {figure}{\numberline {10.1}{\ignorespaces A hypothesis}}{118}{figure.caption.313}
\addvspace {10\p@ }
\addvspace {10\p@ }
\addvspace {10\p@ }
