<?xml version="1.0" encoding="UTF-8" standalone="no"?>
<!-- Created with Inkscape (http://www.inkscape.org/) -->

<svg
   xmlns:dc="http://purl.org/dc/elements/1.1/"
   xmlns:cc="http://creativecommons.org/ns#"
   xmlns:rdf="http://www.w3.org/1999/02/22-rdf-syntax-ns#"
   xmlns:svg="http://www.w3.org/2000/svg"
   xmlns="http://www.w3.org/2000/svg"
   xmlns:sodipodi="http://sodipodi.sourceforge.net/DTD/sodipodi-0.dtd"
   xmlns:inkscape="http://www.inkscape.org/namespaces/inkscape"
   width="5.6958528in"
   height="3.3991957in"
   viewBox="0 0 144.67466 86.339573"
   version="1.1"
   id="svg8"
   inkscape:version="0.92.1 r15371"
   sodipodi:docname="tree.svg">
  <defs
     id="defs2" />
  <sodipodi:namedview
     id="base"
     pagecolor="#ffffff"
     bordercolor="#666666"
     borderopacity="1.0"
     inkscape:pageopacity="0.0"
     inkscape:pageshadow="2"
     inkscape:zoom="0.9899495"
     inkscape:cx="258.52458"
     inkscape:cy="79.982816"
     inkscape:document-units="mm"
     inkscape:current-layer="layer1"
     showgrid="false"
     units="in"
     inkscape:window-width="1585"
     inkscape:window-height="1020"
     inkscape:window-x="333"
     inkscape:window-y="0"
     inkscape:window-maximized="0"
     fit-margin-top="0"
     fit-margin-left="0"
     fit-margin-right="0"
     fit-margin-bottom="0" />
  <metadata
     id="metadata5">
    <rdf:RDF>
      <cc:Work
         rdf:about="">
        <dc:format>image/svg+xml</dc:format>
        <dc:type
           rdf:resource="http://purl.org/dc/dcmitype/StillImage" />
        <dc:title />
      </cc:Work>
    </rdf:RDF>
  </metadata>
  <g
     inkscape:label="Layer 1"
     inkscape:groupmode="layer"
     id="layer1"
     transform="translate(-1.5058257,-142.43084)">
    <path
       style="fill:none;fill-rule:evenodd;stroke:#000000;stroke-width:0.3200675px;stroke-linecap:butt;stroke-linejoin:miter;stroke-opacity:1"
       d="m 21.242654,221.46642 h 26.93436"
       id="path4504"
       inkscape:connector-curvature="0"
       sodipodi:nodetypes="cc" />
    <flowRoot
       xml:space="preserve"
       id="flowRoot4506"
       style="font-style:normal;font-variant:normal;font-weight:normal;font-stretch:normal;font-size:13.33333397px;line-height:125%;font-family:'Crimson Text';-inkscape-font-specification:'Crimson Text';letter-spacing:0px;word-spacing:0px;fill:#000000;fill-opacity:1;stroke:none;stroke-width:1px;stroke-linecap:butt;stroke-linejoin:miter;stroke-opacity:1"
       transform="matrix(0.3200675,0,0,0.3200675,12.293586,152.0112)"><flowRegion
         id="flowRegion4508"
         style="font-size:13.33333397px"><rect
           id="rect4510"
           width="129.29953"
           height="16.162455"
           x="41.416256"
           y="202.73793"
           style="font-size:13.33333397px" /></flowRegion><flowPara
         id="flowPara4512"
         style="font-size:12px">Protostomia</flowPara></flowRoot>    <path
       style="fill:none;fill-rule:evenodd;stroke:#000000;stroke-width:0.3200675px;stroke-linecap:butt;stroke-linejoin:miter;stroke-opacity:1"
       d="M 1.5058257,204.69626 H 21.228163"
       id="path4504-3"
       inkscape:connector-curvature="0"
       sodipodi:nodetypes="cc" />
    <path
       style="fill:none;fill-rule:evenodd;stroke:#000000;stroke-width:0.3200675px;stroke-linecap:butt;stroke-linejoin:miter;stroke-opacity:1"
       d="M 21.365158,179.86422 H 50.407522"
       id="path4504-5"
       inkscape:connector-curvature="0"
       sodipodi:nodetypes="cc" />
    <flowRoot
       xml:space="preserve"
       id="flowRoot4506-62"
       style="font-style:normal;font-variant:normal;font-weight:normal;font-stretch:normal;font-size:13.33333397px;line-height:125%;font-family:'Crimson Text';-inkscape-font-specification:'Crimson Text';letter-spacing:0px;word-spacing:0px;fill:#000000;fill-opacity:1;stroke:none;stroke-width:1px;stroke-linecap:butt;stroke-linejoin:miter;stroke-opacity:1"
       transform="matrix(0.3200675,0,0,0.3200675,10.720361,110.40899)"><flowRegion
         id="flowRegion4508-9"
         style="font-size:13.33333397px"><rect
           id="rect4510-1"
           width="129.29953"
           height="16.162455"
           x="41.416256"
           y="202.73793"
           style="font-size:13.33333397px" /></flowRegion><flowPara
         id="flowPara4512-2"
         style="font-size:12px">Deuterostomia</flowPara></flowRoot>    <path
       style="fill:none;fill-rule:evenodd;stroke:#000000;stroke-width:0.3200675px;stroke-linecap:butt;stroke-linejoin:miter;stroke-opacity:1"
       d="m 48.272928,214.67483 h 4.849754"
       id="path4504-7"
       inkscape:connector-curvature="0"
       sodipodi:nodetypes="cc" />
    <flowRoot
       xml:space="preserve"
       id="flowRoot4506-0"
       style="font-style:normal;font-variant:normal;font-weight:normal;font-stretch:normal;font-size:13.33333397px;line-height:125%;font-family:'Crimson Text';-inkscape-font-specification:'Crimson Text';letter-spacing:0px;word-spacing:0px;fill:#000000;fill-opacity:1;stroke:none;stroke-width:1px;stroke-linecap:butt;stroke-linejoin:miter;stroke-opacity:1"
       transform="matrix(0.3200675,0,0,0.3200675,40.512018,147.14002)"><flowRegion
         id="flowRegion4508-93"
         style="font-size:13.33333397px"><rect
           id="rect4510-6"
           width="129.29953"
           height="16.162455"
           x="41.416256"
           y="202.73793"
           style="font-size:13.33333397px" /></flowRegion><flowPara
         id="flowPara4512-0"
         style="font-size:12px">Ecdysozoa</flowPara></flowRoot>    <flowRoot
       xml:space="preserve"
       id="flowRoot4506-2"
       style="font-style:normal;font-variant:normal;font-weight:normal;font-stretch:normal;font-size:13.33333397px;line-height:125%;font-family:'Crimson Text';-inkscape-font-specification:'Crimson Text';letter-spacing:0px;word-spacing:0px;fill:#000000;fill-opacity:1;stroke:none;stroke-width:1px;stroke-linecap:butt;stroke-linejoin:miter;stroke-opacity:1"
       transform="matrix(0.3200675,0,0,0.3200675,40.467008,159.88194)"><flowRegion
         id="flowRegion4508-6"
         style="font-size:13.33333397px"><rect
           id="rect4510-18"
           width="129.29953"
           height="16.162455"
           x="41.416256"
           y="202.73793"
           style="font-size:13.33333397px" /></flowRegion><flowPara
         id="flowPara4512-7"
         style="font-size:12px">Spiralia</flowPara></flowRoot>    <path
       style="fill:none;fill-rule:evenodd;stroke:#000000;stroke-width:0.3200675px;stroke-linecap:butt;stroke-linejoin:miter;stroke-opacity:1"
       d="m 48.272928,227.86746 h 4.849754"
       id="path4504-9"
       inkscape:connector-curvature="0"
       sodipodi:nodetypes="cc" />
    <path
       style="fill:none;fill-rule:evenodd;stroke:#000000;stroke-width:0.3200675px;stroke-linecap:butt;stroke-linejoin:miter;stroke-opacity:1"
       d="M 50.330253,153.28473 H 76.478515"
       id="path4504-5-9"
       inkscape:connector-curvature="0"
       sodipodi:nodetypes="cc" />
    <flowRoot
       xml:space="preserve"
       id="flowRoot4506-62-2"
       style="font-style:normal;font-variant:normal;font-weight:normal;font-stretch:normal;font-size:13.33333397px;line-height:125%;font-family:'Crimson Text';-inkscape-font-specification:'Crimson Text';letter-spacing:0px;word-spacing:0px;fill:#000000;fill-opacity:1;stroke:none;stroke-width:1px;stroke-linecap:butt;stroke-linejoin:miter;stroke-opacity:1"
       transform="matrix(0.3200675,0,0,0.3200675,39.822451,83.829488)"><flowRegion
         id="flowRegion4508-9-2"
         style="font-size:13.33333397px"><rect
           id="rect4510-1-8"
           width="129.29953"
           height="16.162455"
           x="41.416256"
           y="202.73793"
           style="font-size:13.33333397px" /></flowRegion><flowPara
         id="flowPara4512-2-9"
         style="font-size:12px">Chordata</flowPara></flowRoot>    <path
       style="fill:none;fill-rule:evenodd;stroke:#000000;stroke-width:0.3200675px;stroke-linecap:butt;stroke-linejoin:miter;stroke-opacity:1"
       d="M 50.437076,192.47107 H 77.99985"
       id="path4504-5-7"
       inkscape:connector-curvature="0"
       sodipodi:nodetypes="cc" />
    <flowRoot
       xml:space="preserve"
       id="flowRoot4506-62-3"
       style="font-style:normal;font-variant:normal;font-weight:normal;font-stretch:normal;font-size:13.33333397px;line-height:125%;font-family:'Crimson Text';-inkscape-font-specification:'Crimson Text';letter-spacing:0px;word-spacing:0px;fill:#000000;fill-opacity:1;stroke:none;stroke-width:1px;stroke-linecap:butt;stroke-linejoin:miter;stroke-opacity:1"
       transform="matrix(0.3200675,0,0,0.3200675,39.91247,123.01584)"><flowRegion
         id="flowRegion4508-9-6"
         style="font-size:13.33333397px"><rect
           id="rect4510-1-1"
           width="129.29953"
           height="16.162455"
           x="41.416256"
           y="202.73793"
           style="font-size:13.33333397px" /></flowRegion><flowPara
         id="flowPara4512-2-2"
         style="font-size:12px">Ambulacraria</flowPara></flowRoot>    <g
       id="g4800"
       transform="matrix(1.209704,0,0,1.209704,-0.3157776,-60.77676)">
      <path
         sodipodi:nodetypes="cc"
         inkscape:connector-curvature="0"
         id="path4504-5-7-9"
         d="m 64.771977,218.29248 h 7.258875"
         style="fill:none;fill-rule:evenodd;stroke:#000000;stroke-width:0.26458332px;stroke-linecap:butt;stroke-linejoin:miter;stroke-opacity:1" />
      <flowRoot
         transform="matrix(0.26458333,0,0,0.26458333,61.569061,162.46493)"
         style="font-style:normal;font-variant:normal;font-weight:normal;font-stretch:normal;font-size:13.33333397px;line-height:125%;font-family:'Crimson Text';-inkscape-font-specification:'Crimson Text';letter-spacing:0px;word-spacing:0px;fill:#000000;fill-opacity:1;stroke:none;stroke-width:1px;stroke-linecap:butt;stroke-linejoin:miter;stroke-opacity:1"
         id="flowRoot4506-62-3-3"
         xml:space="preserve"><flowRegion
           style="font-size:13.33333397px"
           id="flowRegion4508-9-6-1"><rect
             style="font-size:13.33333397px"
             y="202.73793"
             x="41.416256"
             height="16.162455"
             width="129.29953"
             id="rect4510-1-1-9" /></flowRegion><flowPara
           style="font-size:12px"
           id="flowPara4512-2-2-4">Hemichordata</flowPara></flowRoot>    </g>
    <g
       id="g4807"
       transform="matrix(1.209704,0,0,1.209704,-0.3157776,-47.333925)">
      <path
         sodipodi:nodetypes="cc"
         inkscape:connector-curvature="0"
         id="path4504-5-7-7"
         d="m 64.771977,194.23822 h 6.724336"
         style="fill:none;fill-rule:evenodd;stroke:#000000;stroke-width:0.26458332px;stroke-linecap:butt;stroke-linejoin:miter;stroke-opacity:1" />
      <flowRoot
         transform="matrix(0.26458333,0,0,0.26458333,61.034522,138.41067)"
         style="font-style:normal;font-variant:normal;font-weight:normal;font-stretch:normal;font-size:13.33333397px;line-height:125%;font-family:'Crimson Text';-inkscape-font-specification:'Crimson Text';letter-spacing:0px;word-spacing:0px;fill:#000000;fill-opacity:1;stroke:none;stroke-width:1px;stroke-linecap:butt;stroke-linejoin:miter;stroke-opacity:1"
         id="flowRoot4506-62-3-8"
         xml:space="preserve"><flowRegion
           style="font-size:13.33333397px"
           id="flowRegion4508-9-6-4"><rect
             style="font-size:13.33333397px"
             y="202.73793"
             x="41.416256"
             height="16.162455"
             width="129.29953"
             id="rect4510-1-1-5" /></flowRegion><flowPara
           style="font-size:12px"
           id="flowPara4512-2-2-0">Echinodermata</flowPara></flowRoot>    </g>
    <g
       id="g4793"
       transform="matrix(1.209704,0,0,1.209704,-0.3157776,-47.97406)">
      <path
         sodipodi:nodetypes="cc"
         inkscape:connector-curvature="0"
         id="path4504-5-9-3"
         d="M 63.361917,158.82502 H 83.407453"
         style="fill:none;fill-rule:evenodd;stroke:#000000;stroke-width:0.26458332px;stroke-linecap:butt;stroke-linejoin:miter;stroke-opacity:1" />
      <flowRoot
         transform="matrix(0.26458333,0,0,0.26458333,73.096852,102.99746)"
         style="font-style:normal;font-variant:normal;font-weight:normal;font-stretch:normal;font-size:13.33333397px;line-height:125%;font-family:'Crimson Text';-inkscape-font-specification:'Crimson Text';letter-spacing:0px;word-spacing:0px;fill:#000000;fill-opacity:1;stroke:none;stroke-width:1px;stroke-linecap:butt;stroke-linejoin:miter;stroke-opacity:1"
         id="flowRoot4506-62-2-6"
         xml:space="preserve"><flowRegion
           style="font-size:13.33333397px"
           id="flowRegion4508-9-2-1"><rect
             style="font-size:13.33333397px"
             y="202.73793"
             x="41.416256"
             height="16.162455"
             width="129.29953"
             id="rect4510-1-8-0" /></flowRegion><flowPara
           style="font-size:12px"
           id="flowPara4512-2-9-6">Cephalochordata</flowPara></flowRoot>    </g>
    <path
       style="fill:none;fill-rule:evenodd;stroke:#000000;stroke-width:0.3200675px;stroke-linecap:butt;stroke-linejoin:miter;stroke-opacity:1"
       d="M 76.338721,161.79745 H 103.91605"
       id="path4504-5-9-32"
       inkscape:connector-curvature="0"
       sodipodi:nodetypes="cc" />
    <flowRoot
       xml:space="preserve"
       id="flowRoot4506-62-2-0"
       style="font-style:normal;font-variant:normal;font-weight:normal;font-stretch:normal;font-size:13.33333397px;line-height:125%;font-family:'Crimson Text';-inkscape-font-specification:'Crimson Text';letter-spacing:0px;word-spacing:0px;fill:#000000;fill-opacity:1;stroke:none;stroke-width:1px;stroke-linecap:butt;stroke-linejoin:miter;stroke-opacity:1"
       transform="matrix(0.3200675,0,0,0.3200675,65.962559,92.342211)"><flowRegion
         id="flowRegion4508-9-2-6"
         style="font-size:13.33333397px"><rect
           id="rect4510-1-8-1"
           width="129.29953"
           height="16.162455"
           x="41.416256"
           y="202.73793"
           style="font-size:13.33333397px" /></flowRegion><flowPara
         id="flowPara4512-2-9-5"
         style="font-size:12px">Olfactores</flowPara></flowRoot>    <g
       id="g4786"
       transform="matrix(1.209704,0,0,1.209704,-0.3157776,-45.939451)">
      <path
         sodipodi:nodetypes="cc"
         inkscape:connector-curvature="0"
         id="path4504-5-9-5"
         d="m 86.138292,166.97674 h 5.069752"
         style="fill:none;fill-rule:evenodd;stroke:#000000;stroke-width:0.26458332px;stroke-linecap:butt;stroke-linejoin:miter;stroke-opacity:1" />
      <flowRoot
         transform="matrix(0.26458333,0,0,0.26458333,80.74627,111.14918)"
         style="font-style:normal;font-variant:normal;font-weight:normal;font-stretch:normal;font-size:13.33333397px;line-height:125%;font-family:'Crimson Text';-inkscape-font-specification:'Crimson Text';letter-spacing:0px;word-spacing:0px;fill:#000000;fill-opacity:1;stroke:none;stroke-width:1px;stroke-linecap:butt;stroke-linejoin:miter;stroke-opacity:1"
         id="flowRoot4506-62-2-4"
         xml:space="preserve"><flowRegion
           style="font-size:13.33333397px"
           id="flowRegion4508-9-2-7"><rect
             style="font-size:13.33333397px"
             y="202.73793"
             x="41.416256"
             height="16.162455"
             width="129.29953"
             id="rect4510-1-8-6" /></flowRegion><flowPara
           style="font-size:12px"
           id="flowPara4512-2-9-56">Urochordata (tunicates)</flowPara></flowRoot>    </g>
    <g
       id="g4779"
       transform="matrix(1.209704,0,0,1.209704,-0.3157776,-50.398938)">
      <path
         sodipodi:nodetypes="cc"
         inkscape:connector-curvature="0"
         id="path4504-5-9-9"
         d="m 86.138293,180.34021 h 5.069751"
         style="fill:none;fill-rule:evenodd;stroke:#000000;stroke-width:0.26458332px;stroke-linecap:butt;stroke-linejoin:miter;stroke-opacity:1" />
      <flowRoot
         transform="matrix(0.26458333,0,0,0.26458333,80.795879,124.51265)"
         style="font-style:normal;font-variant:normal;font-weight:normal;font-stretch:normal;font-size:13.33333397px;line-height:125%;font-family:'Crimson Text';-inkscape-font-specification:'Crimson Text';letter-spacing:0px;word-spacing:0px;fill:#000000;fill-opacity:1;stroke:none;stroke-width:1px;stroke-linecap:butt;stroke-linejoin:miter;stroke-opacity:1"
         id="flowRoot4506-62-2-3"
         xml:space="preserve"><flowRegion
           style="font-size:13.33333397px"
           id="flowRegion4508-9-2-74"><rect
             style="font-size:13.33333397px"
             y="202.73793"
             x="41.416256"
             height="16.162455"
             width="129.29953"
             id="rect4510-1-8-5" /></flowRegion><flowPara
           style="font-size:12px"
           id="flowPara4512-2-9-2">Vertebrata</flowPara></flowRoot>    </g>
    <path
       style="fill:none;fill-rule:evenodd;stroke:#000000;stroke-width:0.3200675px;stroke-linecap:butt;stroke-linejoin:miter;stroke-opacity:1"
       d="m 48.272927,214.67483 v 13.19263"
       id="path4845"
       inkscape:connector-curvature="0" />
    <path
       style="fill:none;fill-rule:evenodd;stroke:#000000;stroke-width:0.3200675px;stroke-linecap:butt;stroke-linejoin:miter;stroke-opacity:1"
       d="m 21.365158,179.86422 v 41.56163"
       id="path4847"
       inkscape:connector-curvature="0" />
    <path
       style="fill:none;fill-rule:evenodd;stroke:#000000;stroke-width:0.3200675px;stroke-linecap:butt;stroke-linejoin:miter;stroke-opacity:1"
       d="m 50.444992,153.12587 v 39.49999"
       id="path4847-5"
       inkscape:connector-curvature="0"
       sodipodi:nodetypes="cc" />
    <path
       style="fill:none;fill-rule:evenodd;stroke:#000000;stroke-width:0.3200675px;stroke-linecap:butt;stroke-linejoin:miter;stroke-opacity:1"
       d="M 78.077784,187.47098 V 203.4531"
       id="path4847-4"
       inkscape:connector-curvature="0"
       sodipodi:nodetypes="cc" />
    <path
       style="fill:none;fill-rule:evenodd;stroke:#000000;stroke-width:0.3200675px;stroke-linecap:butt;stroke-linejoin:miter;stroke-opacity:1"
       d="m 76.472011,143.98733 v 17.96746"
       id="path4847-4-7"
       inkscape:connector-curvature="0"
       sodipodi:nodetypes="cc" />
    <path
       style="fill:none;fill-rule:evenodd;stroke:#000000;stroke-width:0.3200675px;stroke-linecap:butt;stroke-linejoin:miter;stroke-opacity:1"
       d="m 103.93478,155.8951 0.003,12.02147"
       id="path4847-4-4"
       inkscape:connector-curvature="0"
       sodipodi:nodetypes="cc" />
  </g>
</svg>
