BL05661	25
BL03311	17
BL23619	7
BL22645	25
BL18115	6
BL07443	17
BL24307	17
BL14422	6
BL20076	17
BL06687	26
BL21459	17
BL21625	15
BL04678	17
BL12139	5
BL11575	26
BL02530	25
BL11411	15
BL22075	26
BL08018	26
BL10928	22
BL03134	17
BL06627	26
BL24528	26
BL11722	26
BL05635	26
BL14290	20
BL10072	24
BL21573	26
BL15409	26
BL14048	26
BL95489	15
BL15928	26
BL18207	26
BL12761	26
BL22735	26
BL21013	25
BL14328	26
BL20968	26
BL24691	15
BL22578	26
BL95023	25
BL06545	26
BL23589	26
BL23568	26
BL22683	26
BL22525	17
BL25043	5
BL10273	26
BL13310	26
BL03940	26
BL95256	20
BL15158	26
BL03798	26
BL23908	26
BL00597	25
BL07126	26
BL12464	26
BL95820	25
BL23391	26
BL11929	26
BL17849	26
BL24317	26
BL03302	26
BL08110	26
BL10461	26
BL07716	26
BL13500	15
BL03545	26
BL16565	26
BL10970	24
BL16392	15
BL16223	10
BL16094	17
BL02527	26
BL14839	22
BL11134	26
BL16513	4
BL29981	19
BL18947	26
BL20899	26
BL04801	26
BL21614	26
BL21063	26
BL16569	6
BL18693	26
BL12817	26
BL01498	20
BL03532	15
BL22056	26
BL95257	26
BL19543	26
BL12513	26
BL24086	26
BL23057	15
BL95280	26
BL15135	26
BL10475	15
BL13061	17
BL06883	26
BL24346	17
BL13189	15
BL12361	17
BL17428	26
BL13009	10
BL13605	6
BL19124	8
BL08005	15
BL15375	26
BL15961	15
BL11198	25
BL04915	15
BL17825	18
BL04632	6
BL17215	17
BL08474	15
BL11591	26
BL12324	17
BL11086	8
BL00591	14
BL24908	23
BL06718	26
BL01645	2
BL08150	9
BL95571	23
BL05385	9
BL21967	1
BL20040	23
BL14693	26
BL10323	26
BL05933	15
BL21783	26
BL17279	25
BL03904	17
BL06050	14
BL05126	18
BL16921	26
BL55836	15
BL16400	7
BL19538	26
BL04380	26
BL14472	18
BL17794	15
BL02953	25
BL06666	7
BL14829	25
BL05733	20
BL43180	26
BL14206	17
BL02842	15
BL16979	17
BL15345	15
BL24287	22
BL95002	15
BL14299	5
BL95502	25
BL17847	20
BL97253	17
BL13105	10
BL03352	26
BL10677	15
BL21325	20
BL21452	17
BL21577	17
BL16626	6
BL02125	20
BL00796	15
BL06080	20
BL23000	18
BL89661	18
BL53309	19
BL21113	26
BL16973	17
BL23661	25
BL03933	13
BL74986	9
BL07377	22
BL23878	20
BL17897	2
BL05262	17
BL10153	15
BL22464	26
BL13209	17
BL13099	6
BL12254	5
BL01467	26
BL09976	19
BL17409	17
BL12164	18
BL95282	25
BL96887	6
BL10577	24
BL08877	19
BL05403	15
BL08950	6
BL00664	22
BL22724	17
BL01758	3
BL09884	7
BL06778	15
BL02326	15
BL22720	17
BL08089	9
BL18905	9
BL00586	26
BL02967	26
BL12696	17
BL95919	10
BL02730	26
BL21505	17
BL20537	25
BL00236	17
BL24937	17
BL07502	11
BL20495	26
BL17871	15
BL02873	7
BL96092	21
BL24426	23
BL17360	15
BL13490	26
BL18948	10
BL22023	20
BL13662	1
BL14032	5
BL02714	6
BL04076	17
BL24956	20
BL95260	25
BL18316	24
BL16301	17
BL16311	15
BL08481	20
BL02924	10
BL13993	2
BL12327	15
BL15619	19
BL12845	15
BL13564	26
BL01416	7
BL19094	26
BL03365	6
BL14736	24
BL00687	26
BL19961	25
BL18741	26
BL95093	25
BL24731	26
BL10941	17
BL11085	17
BL19499	18
BL19373	15
BL11860	26
BL13771	25
BL23794	19
BL19489	23
BL03503	20
BL14132	15
BL13853	15
BL04603	2
BL14528	18
BL17881	15
BL95506	24
BL11533	15
BL01295	6
BL23617	5
BL12752	9
BL07701	15
BL22638	6
BL23011	17
BL12081	15
BL22427	5
BL00611	15
BL08258	23
BL95821	26
BL05205	22
BL21539	22
BL22213	17
BL95486	6
BL01972	6
BL20729	18
BL07042	2
BL15923	14
BL09565	17
BL13047	15
BL10122	11
BL18300	7
BL18894	15
BL07759	7
BL18198	17
BL01189	20
BL21685	17
BL08871	10
BL24418	7
BL24734	6
BL15489	15
BL09798	6
BL03410	10
BL17656	5
BL16098	26
BL26454	5
BL14894	17
BL20705	19
BL23951	9
BL95900	5
BL08608	26
BL20566	28
BL23731	25
BL07808	11
BL18685	14
BL05065	21
BL00504	19
BL13346	2
BL01959	15
BL04998	20
BL15150	15
BL30240	17
BL24735	17
BL15631	26
BL24348	15
BL08840	22
BL20967	7
BL03969	15
BL05435	17
BL65416	25
BL02719	15
BL03196	26
BL11388	15
BL09783	25
BL95696	26
BL16437	17
BL30223	19
BL01119	23
BL02083	20
BL09343	6
BL21082	17
BL13028	17
BL23858	10
BL15930	22
BL24068	13
BL00959	9
BL14559	2
BL97455	6
BL09682	25
BL09908	25
BL15093	9
BL09017	25
BL22412	15
BL21461	8
BL05196	6
BL00992	8
BL16046	15
BL22797	15
BL96046	26
BL01604	15
BL16766	1
BL05867	21
BL00451	24
BL15784	15
BL23743	26
BL05870	25
BL24793	18
BL16615	17
BL14110	4
BL05116	19
BL16884	6
BL17069	17
BL10230	17
BL23705	1
BL15714	17
BL24064	9
BL24712	10
BL11166	17
BL09527	26
BL21340	1
BL01484	7
BL05482	10
BL97415	15
BL20665	15
BL95807	21
BL15560	2
BL07665	1
BL24096	17
BL02550	26
BL12742	3
BL03400	25
BL17684	16
BL11925	1
BL23412	5
BL15487	19
BL24115	23
BL96156	6
BL06938	11
BL24606	2
BL54329	25
BL95570	14
BL02426	2
BL11380	7
BL08577	25
BL04064	18
BL03372	22
BL10943	17
BL14306	18
BL07943	6
BL06303	17
BL04891	7
BL06273	15
BL03088	5
BL19025	22
BL18955	7
BL02701	9
BL42175	14
BL14711	4
BL13607	28
BL11677	15
BL23032	6
BL03842	15
BL24897	28
BL27896	15
BL01080	15
BL18709	17
BL17986	22
BL16888	18
BL08815	26
BL05614	26
BL18716	26
BL18898	25
BL18122	6
BL19530	17
BL04952	8
BL16278	25
BL12697	18
BL20033	26
BL95940	2
BL22769	17
BL23919	1
BL06046	22
BL22035	17
BL05130	27
BL19996	20
BL20998	26
BL01652	2
BL05974	27
BL16530	18
BL02650	14
BL00471	10
BL18524	6
BL02767	26
BL17499	23
BL10352	6
BL16399	14
BL03696	10
BL13655	19
BL21002	7
BL04287	7
BL15862	6
BL17018	25
BL06973	2
BL07260	25
BL13698	7
BL09615	19
BL23337	1
BL02073	11
BL18089	26
BL03377	9
BL22709	4
BL18209	26
BL07408	15
BL07818	17
BL17376	17
BL09925	9
BL95920	5
BL00412	18
BL10691	22
BL23804	15
BL18343	4
BL09448	17
BL04766	22
BL19029	15
BL95095	1
BL04266	20
BL14784	18
BL05776	20
BL10791	19
BL15830	2
BL21590	19
BL21630	16
BL20459	4
BL24819	6
BL09044	1
BL05047	19
BL01154	15
BL07706	7
BL12460	22
BL11212	3
BL09246	15
BL19784	26
BL21067	15
BL95417	7
BL96585	6
BL95385	22
BL09526	17
BL05273	8
BL17341	1
BL01675	6
BL02211	22
BL95705	5
BL05148	9
BL08965	17
BL13495	17
BL04529	2
BL12852	1
BL22585	15
BL09687	19
BL19282	17
BL08218	25
BL08692	2
BL03899	4
BL01211	23
BL15312	15
BL18789	2
BL11090	7
BL20607	17
BL12368	9
BL19992	6
BL17652	17
BL11930	26
BL22999	15
BL06089	1
BL00608	1
BL15101	1
BL23557	25
BL18422	26
BL22571	18
BL01071	2
BL24564	17
BL05503	5
BL10246	6
BL03613	6
BL05173	25
BL17835	17
BL08086	26
BL05751	9
BL14046	22
BL02865	15
BL16771	2
BL04935	19
BL95707	24
BL07365	18
BL17126	6
BL19027	15
BL03225	15
BL10690	15
BL17102	15
BL22562	17
BL18606	6
BL17457	2
BL23651	17
BL19510	23
BL95999	22
BL18702	14
BL13517	2
BL19339	6
BL13987	18
BL96142	5
BL12371	18
BL16724	6
BL15815	2
BL17529	19
BL05557	7
BL21823	17
BL05425	6
BL78456	17
BL17334	14
BL23656	17
BL17429	20
BL21409	20
BL03564	23
BL07606	26
BL16372	26
BL11117	26
BL08184	2
BL20390	18
BL05648	18
BL03022	13
BL05207	18
BL10935	1
BL03126	4
BL23703	18
BL20795	7
BL15855	25
BL15368	4
BL01194	17
BL95816	6
BL16902	17
BL31493	6
BL18478	25
BL21041	23
BL15039	15
BL11050	2
BL02895	15
BL13489	19
BL95094	15
BL16332	7
BL14016	22
BL08644	20
BL03756	27
BL06871	10
BL14925	7
BL24082	17
BL16323	14
BL17005	17
BL16189	4
BL15822	9
BL21037	9
BL15594	25
BL04953	23
BL11484	1
BL06781	19
BL16602	9
BL96128	24
BL17490	4
BL09457	8
BL21611	15
BL00386	19
BL20264	18
BL19979	28
BL20127	5
BL10454	25
BL07092	18
BL01591	2
BL21171	11
BL16612	15
BL08399	22
BL06761	2
BL04849	22
BL05139	28
BL09088	21
BL00148	8
BL12966	19
BL06000	18
BL71337	7
BL95245	6
BL03903	6
BL00705	1
BL16801	2
BL12628	17
BL04905	1
BL14426	26
BL09078	26
BL06234	18
BL02961	18
BL20532	3
BL10940	15
BL26194	4
BL02659	23
BL16745	2
BL03104	22
BL14062	19
BL01631	15
BL23692	24
BL24904	23
BL00631	20
BL95966	5
BL10645	19
BL11705	18
BL15029	7
BL24365	4
BL01422	22
BL00024	20
BL08478	12
BL10304	18
BL08721	22
BL17944	9
BL22726	17
BL12826	9
BL09120	3
BL14146	26
BL95011	18
BL04211	1
BL10201	25
BL08302	22
BL12975	9
BL05404	17
BL22919	15
BL01658	26
BL03355	15
BL13296	15
BL13410	3
BL22903	1
BL23594	3
BL07413	7
BL10762	17
BL07422	5
BL21279	7
BL12801	26
BL20604	25
BL03810	13
BL95593	5
BL14641	18
BL15912	15
BL06826	6
BL07036	26
BL27630	17
BL10678	6
BL10893	2
BL04376	14
BL24013	5
BL04387	28
BL13340	26
BL04872	1
BL13833	10
BL24617	15
BL22318	17
BL16806	15
BL19004	9
BL05407	26
BL20634	15
BL95128	11
BL07865	2
BL00620	2
BL20703	2
BL18171	16
BL20923	25
BL18668	15
BL18595	18
BL17021	22
BL13431	2
BL30305	9
BL14523	14
BL01962	12
BL22573	17
BL14482	14
BL17642	19
BL07688	5
BL24288	5
BL04098	1
BL68987	2
BL19627	1
BL14152	2
BL04795	17
BL11803	6
BL12557	22
BL21167	18
BL95123	20
BL05170	19
BL20115	18
BL20200	18
BL19414	1
BL07222	17
BL13504	17
BL17220	17
BL08318	1
BL07933	25
BL18009	28
BL12524	20
BL10771	21
BL05799	27
BL23039	15
BL13038	24
BL10321	23
BL06716	28
BL95955	24
BL06774	14
BL11302	18
BL16830	11
BL13243	23
BL88341	20
BL06611	22
BL11269	8
BL18678	14
BL95131	23
BL23642	14
BL04780	7
BL19532	2
BL82672	4
BL17995	5
BL20846	18
BL09570	23
BL08136	23
BL23708	18
BL21996	21
BL19495	18
BL04874	2
BL21396	25
BL13949	26
BL96250	18
BL16826	19
BL17232	17
BL20382	2
BL24436	28
BL24909	15
BL05966	7
BL95126	6
BL11694	22
BL01784	15
BL95143	14
BL13285	22
BL12865	26
BL96011	2
BL17451	15
BL00788	14
BL14311	14
BL95124	11
BL17281	15
BL52428	6
BL02103	7
BL19801	25
BL10346	4
BL05455	3
BL19311	26
BL07639	19
BL12165	22
BL08896	26
BL14453	4
BL13705	11
BL14910	18
BL01259	18
BL07336	23
BL23877	1
BL00682	4
BL02255	8
BL16813	18
BL12559	2
BL13513	19
BL23306	9
BL07219	19
BL02224	21
BL15687	15
BL10091	2
BL12192	26
BL10987	26
BL20669	2
BL23346	11
BL22643	2
BL24087	4
BL08818	7
BL22961	9
BL74021	26
BL16916	7
BL08057	17
BL09279	25
BL21386	2
BL24257	5
BL02046	15
BL23141	6
BL22569	1
BL15563	25
BL09601	15
BL15344	26
BL12585	14
BL97118	6
BL06139	8
BL20685	19
BL04060	19
BL16022	21
BL00251	5
BL23760	25
BL21829	6
BL01965	19
BL01383	15
BL15785	4
BL00870	9
BL12001	22
BL24919	15
BL09234	2
BL09050	18
BL02220	18
BL09581	9
BL12042	26
BL10427	8
BL15241	26
BL11633	6
BL13893	1
BL12611	14
BL18039	17
BL02762	1
BL06291	9
BL21183	17
BL08452	26
BL15112	1
BL09538	19
BL13792	25
BL08402	17
BL02959	25
BL19676	2
BL19614	17
BL26043	25
BL18717	20
BL03342	15
BL00594	2
BL11720	18
BL05549	19
BL21569	22
BL15805	25
BL13801	23
BL06657	17
BL21713	14
BL07871	19
BL23917	22
BL17985	10
BL20618	26
BL00633	19
BL15503	19
BL14725	23
BL21413	14
BL04699	16
BL17072	12
BL18399	24
BL01000	22
BL12129	17
BL07773	23
BL04493	6
BL07385	7
BL10497	11
BL95547	9
BL12877	12
BL03894	16
BL13100	25
BL19257	18
BL11654	19
BL02544	11
BL11242	7
BL11229	17
BL12443	17
BL18204	7
BL23884	15
BL21129	25
BL03897	20
BL20585	3
BL23454	4
BL12945	7
BL24662	14
BL10895	21
BL19549	8
BL00446	1
BL24557	25
BL96855	14
BL12312	27
BL14277	2
BL10205	26
BL11384	2
BL13314	13
BL16889	15
BL05843	8
BL13791	2
BL05609	11
BL04297	1
BL11457	15
BL19304	26
BL04873	17
BL02633	2
BL06005	6
BL04741	25
BL18297	21
BL13989	14
BL00969	2
BL22432	2
BL16668	15
BL05073	9
BL23595	4
BL23118	4
BL00489	17
BL15119	9
BL77531	19
BL18081	22
BL95073	23
BL17562	1
BL01136	1
BL10214	23
BL95233	25
BL10926	9
BL06329	4
BL17939	27
BL10590	15
BL13300	11
BL24276	26
BL02683	10
BL08578	12
BL07056	17
BL12795	4
BL17824	17
BL16433	18
BL12455	25
BL72045	22
BL02526	17
BL14563	2
BL04056	18
BL15952	15
BL09847	19
BL00561	2
BL11834	1
BL14475	22
BL08574	25
BL22881	15
BL05107	11
BL22256	17
BL20499	10
BL11181	9
BL14519	18
BL11597	1
BL24698	1
BL10985	15
BL22437	15
BL20548	7
BL03783	9
BL04904	1
BL39291	7
BL11260	1
BL17325	19
BL16759	2
BL24782	14
BL13298	12
BL18848	15
BL03854	2
BL04659	17
BL23937	17
BL21953	17
BL06975	18
BL19274	26
BL20172	27
BL13067	4
BL19255	11
BL24074	26
BL21997	17
BL30941	18
BL00920	7
BL00154	24
BL23483	6
BL97252	20
BL20500	10
BL23146	19
BL29904	17
BL00690	2
BL13384	4
BL20978	3
BL10501	17
BL11261	1
BL22102	15
BL04692	25
BL02122	20
BL13731	2
BL01647	22
BL20942	21
BL32240	24
BL22723	4
BL13199	10
BL24736	7
BL18756	17
BL09740	20
BL16718	2
BL29415	4
BL06660	15
BL14596	8
BL15517	23
BL10055	27
BL18544	26
BL24940	9
BL96106	5
BL14843	1
BL65236	22
BL18677	23
BL75791	26
BL19900	17
BL02185	19
BL13628	22
BL24663	13
BL06546	15
BL20329	15
BL09252	14
BL21269	23
BL00280	15
BL13341	28
BL02049	3
BL09369	15
BL13277	2
BL05349	17
BL06658	15
BL01753	18
BL07940	27
BL15623	19
BL07611	17
BL18274	15
BL02728	27
BL18400	25
BL00485	18
BL14174	2
BL02579	1
BL04808	17
BL11703	17
BL03697	26
BL01388	21
BL05220	17
BL15729	17
BL23441	27
BL95901	5
BL11420	27
BL10206	22
BL09992	19
BL19011	25
BL02209	2
BL05035	26
BL23251	17
BL11653	19
BL05773	17
BL14286	25
BL20039	26
BL10071	27
BL08975	17
BL05347	20
BL14672	7
BL16121	15
BL13567	27
BL21811	13
BL14597	12
BL15171	21
BL07945	26
BL18641	22
BL23028	1
BL95100	21
BL10993	17
BL22853	25
BL01471	5
BL14887	17
BL17426	17
BL02847	6
BL03893	1
BL03829	9
BL13997	9
BL16319	20
BL02846	2
BL07949	5
BL14756	1
BL01614	9
BL24092	28
BL19607	22
BL02392	17
BL11329	8
BL10534	20
BL16215	20
BL10415	27
BL19660	11
BL22083	2
BL22553	15
BL20034	11
BL13988	25
BL04396	26
BL07649	19
BL24110	4
BL16168	5
BL01193	21
BL12864	1
BL01325	25
BL01070	15
BL24905	21
BL07341	17
BL13627	10
BL07898	19
BL17486	28
BL04394	5
BL23304	22
BL87339	24
BL18854	19
BL13114	17
BL95391	5
BL03657	2
BL22009	23
BL00982	26
BL15951	2
BL11839	26
BL01087	17
BL01925	17
BL15080	24
BL18960	2
BL19834	6
BL03439	14
BL22002	15
BL03817	18
BL15847	10
BL12207	9
BL11374	18
BL18912	5
BL17318	28
BL18640	25
BL00874	2
BL21134	14
BL23892	25
BL95824	26
BL23305	17
BL14881	16
BL11228	9
BL20359	28
BL18688	13
BL00405	26
BL08415	22
BL24885	15
BL00424	19
BL97205	24
BL18944	9
BL20602	26
BL11577	18
BL10633	21
BL26124	8
BL21076	9
BL06386	1
BL09437	22
BL09932	9
BL21510	23
BL07580	5
BL05112	19
BL14561	17
BL13506	17
BL03962	19
BL11642	11
BL95616	6
BL18240	4
BL08395	5
BL24196	26
BL09934	25
BL04178	9
BL02032	15
BL16682	15
BL96523	10
BL19194	7
BL09112	6
BL05828	28
BL14213	14
BL03449	14
BL95481	10
BL17219	26
BL00063	9
BL04081	18
BL96415	11
BL23367	1
BL17430	3
BL18726	4
BL05926	18
BL47269	14
BL23866	26
BL13362	6
BL11527	18
BL20082	7
BL16165	15
BL22193	10
BL06874	28
BL96080	9
BL24258	25
BL07509	5
BL19028	18
BL07224	2
BL19775	1
BL07757	7
BL10446	15
BL00749	22
BL12088	5
BL00095	5
BL08053	17
BL16704	18
BL22540	9
BL24581	8
BL13659	25
BL11536	2
BL19087	2
BL18849	1
BL12401	4
BL17044	17
BL01730	15
BL04042	17
BL16271	14
BL16840	9
BL62336	25
BL08684	22
BL02064	3
BL01141	23
BL06219	18
BL95908	2
BL21944	2
BL95129	10
BL19705	28
BL01317	21
BL04114	2
BL17039	2
BL19490	20
BL18692	19
BL22803	12
BL16638	20
BL95604	10
BL20699	4
BL14075	17
BL07508	14
BL16570	2
BL30010	15
BL12162	21
BL04533	19
BL18546	10
BL12819	1
BL03337	19
BL17509	16
BL31291	26
BL17633	5
BL22940	21
BL23244	20
BL21824	4
BL13877	21
BL50431	1
BL00176	20
BL13235	4
BL12076	19
BL03793	13
BL24193	1
BL19047	17
BL08447	18
BL01616	1
BL00527	16
BL07961	17
BL03710	6
BL08526	4
BL23437	12
BL17160	19
BL06685	3
BL54023	7
BL09648	16
BL03483	17
BL35436	4
BL10006	10
BL13586	18
BL01468	7
BL06060	2
BL12873	15
BL03069	2
BL28148	26
BL13821	26
BL01834	23
BL18324	7
BL22666	16
BL00998	18
BL95051	8
BL23442	17
BL16263	4
BL03846	10
BL26003	7
BL05821	22
BL06294	23
BL09500	7
BL04372	2
BL04295	2
BL08093	3
BL95526	24
BL06593	7
BL09644	4
BL11621	1
BL24542	19
BL23314	3
BL11455	18
BL23712	2
BL02739	25
BL15514	21
BL03883	22
BL08071	17
BL07538	18
BL12565	9
BL12188	15
BL02600	1
BL25248	25
BL01304	17
BL18423	2
BL22998	21
BL06690	17
BL05217	27
BL19859	22
BL95281	14
BL02204	5
BL10636	15
BL09621	19
BL21093	27
BL15849	22
BL03415	18
BL26169	2
BL10282	20
BL00763	19
BL03262	26
BL12915	19
BL95701	21
BL11218	8
BL14888	18
BL13538	3
BL18376	21
BL96886	26
BL23425	10
BL03457	18
BL07243	3
BL08367	2
BL08547	6
BL16634	16
BL06897	18
BL13471	18
BL07558	17
BL09998	4
BL22550	27
BL23189	2
BL21469	17
BL04237	22
BL12329	25
BL38388	26
BL23107	22
BL10431	25
BL09865	11
BL15518	22
BL96063	18
BL08976	17
BL96155	6
BL96794	1
BL11342	13
BL00505	25
BL14961	17
BL13248	10
BL26910	7
BL19062	24
BL95383	1
BL03848	20
BL02603	15
BL96495	28
BL21548	21
BL21562	20
BL08768	26
BL17674	18
BL18810	18
BL16013	25
BL16020	6
BL02435	12
BL24071	22
BL16984	12
BL96105	5
BL15281	27
BL21977	2
BL14106	2
BL08403	2
BL13534	25
BL16157	12
BL16941	2
BL03427	17
BL05605	19
BL17628	20
BL13065	25
BL03109	15
BL04373	26
BL16517	26
BL00962	7
BL11866	21
BL12568	14
BL12277	18
BL19397	25
BL24996	9
BL12074	19
BL01472	19
BL24961	22
BL17795	19
BL24552	25
BL10046	11
BL22442	4
BL09584	26
BL23598	1
BL03795	18
BL21812	4
BL16504	6
BL17485	18
BL16447	28
BL01605	2
BL23071	1
BL95792	21
BL05868	8
BL18005	25
BL16432	8
BL06926	22
BL03951	28
BL08388	25
BL11800	13
BL23349	4
BL17676	15
BL06136	27
BL22200	14
BL02775	22
BL95188	8
BL13880	7
BL07514	23
BL05989	9
BL12768	22
BL08531	19
BL05676	17
BL75757	1
BL13342	24
BL05366	26
BL85417	14
BL17829	25
BL01250	20
BL00755	9
BL15225	24
BL08387	26
BL04345	23
BL00132	3
BL18638	14
BL18647	5
BL07584	11
BL05048	23
BL10808	6
BL21835	10
BL17989	27
BL97274	11
BL04617	19
BL95020	14
BL96374	10
BL09435	18
BL18000	16
BL24647	4
BL15050	6
BL23315	1
BL15673	16
BL12509	21
BL07735	9
BL08171	3
BL02241	18
BL13719	26
BL09659	21
BL95358	1
BL22935	23
BL10374	1
BL12514	1
BL07470	14
BL02648	17
BL19811	6
BL15756	19
BL01281	24
BL06762	25
BL24339	15
BL24475	2
BL10960	9
BL18035	16
BL22745	8
BL22732	1
BL11297	4
BL19757	8
BL20723	8
BL10428	28
BL23143	3
BL17999	20
BL02429	15
BL17182	25
BL17631	6
BL17750	24
BL09062	22
BL02567	22
BL06132	15
BL07204	2
BL06138	15
BL17256	28
BL19677	26
BL95089	23
BL10442	19
BL00908	6
BL21936	1
BL14679	8
BL23341	1
BL08761	22
BL17831	1
BL08132	15
BL06678	5
BL01931	7
BL02709	18
BL22480	4
BL22232	11
BL18452	5
BL13991	2
BL03116	17
BL07936	28
BL04662	7
BL11762	22
BL28087	14
BL10845	18
BL00106	7
BL35311	2
BL15393	4
BL00254	10
BL12642	17
BL80961	14
BL14749	25
BL20556	1
BL05470	15
BL11902	20
BL05564	4
BL09887	19
BL02036	9
BL03122	12
BL03203	20
BL11914	19
BL23096	8
BL11844	25
BL05804	2
BL03611	21
BL12403	10
BL18276	1
BL96062	25
BL15924	25
BL04618	4
BL16702	23
BL08654	9
BL08495	15
BL07315	22
BL15096	22
BL16558	9
BL17936	2
BL11448	25
BL03872	5
BL09485	18
BL10232	19
BL02232	17
BL12122	25
BL21663	11
BL95355	25
BL07483	16
BL18718	18
BL04636	28
BL06836	18
BL01547	20
BL15569	4
BL08496	5
BL21242	1
BL10401	1
BL11582	2
BL19884	15
BL23690	23
BL10303	26
BL10329	26
BL24757	28
BL15244	13
BL13045	7
BL09594	26
BL11739	13
BL23255	20
BL23953	28
BL21658	14
BL23104	16
BL22942	22
BL15001	26
BL24849	1
BL13365	27
BL18375	21
BL97365	2
BL10412	3
BL20305	21
BL14099	25
BL19327	22
BL16996	23
BL19139	19
BL02698	1
BL19350	16
BL05489	18
BL24015	7
BL03515	27
BL07792	6
BL13263	14
BL01576	23
BL00079	28
BL14795	7
BL14991	27
BL14419	13
BL16900	9
BL02972	14
BL12447	7
BL01254	2
BL08808	15
BL07220	7
BL02034	1
BL05315	3
BL07541	7
BL23224	11
BL08720	2
BL14510	17
BL14588	16
BL11510	17
BL14393	12
BL07000	7
BL18317	6
BL17882	21
BL19528	3
BL05277	2
BL06667	13
BL20639	17
BL10128	18
BL24550	20
BL00233	23
BL17629	11
BL05005	19
BL05007	7
BL54525	9
BL06276	19
BL18530	9
BL10437	10
BL04475	22
BL13896	25
BL95492	24
BL25443	2
BL20314	2
BL13715	5
BL13181	25
BL21168	10
BL05212	14
BL10900	7
BL28172	24
BL19336	27
BL06607	25
BL08506	21
BL24259	6
BL19684	6
BL20137	4
BL21667	6
BL06976	26
BL05929	18
BL20787	16
BL08228	1
BL00359	17
BL18597	4
BL07662	17
BL04054	1
BL56556	23
BL19990	9
BL45820	14
BL04096	9
BL04580	21
BL22861	10
BL18097	9
BL12433	1
BL23110	25
BL20675	2
BL02141	18
BL05806	9
BL11652	19
BL03028	2
BL03115	13
BL05678	25
BL01075	2
BL20011	25
BL21315	17
BL20037	20
BL11354	12
BL20841	14
BL11340	18
BL95227	10
BL05812	17
BL06321	21
BL24503	18
BL17288	2
BL16552	25
BL03040	28
BL17546	21
BL18618	17
BL19401	9
BL00000	19
BL22835	17
BL18247	20
BL12284	2
BL04195	18
BL17132	11
BL12767	23
BL09606	22
BL20409	18
BL16257	15
BL12958	27
BL09073	17
BL96076	9
BL01184	14
BL95890	17
BL05764	25
BL12423	19
BL16093	17
BL10451	4
BL26443	17
BL21066	18
BL07356	20
BL09568	21
BL06262	4
BL14235	6
BL21694	1
BL01048	9
BL08850	15
BL19999	6
BL22546	19
BL07089	12
BL23138	17
BL18610	26
BL01642	24
BL07187	28
BL21206	4
BL03972	2
BL15341	21
BL09309	25
BL04292	24
BL21790	2
BL12495	5
BL95706	6
BL15957	18
BL03103	24
BL04987	9
BL08473	7
BL15950	21
BL24838	22
BL08542	11
BL19846	6
BL20768	9
BL95562	21
BL15797	15
BL15839	2
BL31123	21
BL22846	2
BL05239	28
BL75093	14
BL24063	7
BL21234	10
BL24294	17
BL21536	28
BL08180	4
BL95623	26
BL78227	16
BL13063	2
BL95664	1
BL27475	15
BL04555	24
BL24189	9
BL20023	4
BL30961	20
BL08148	15
BL11445	16
BL24435	6
BL17626	4
BL06669	1
BL17269	25
BL01885	11
BL27895	21
BL11333	16
BL11806	15
BL12232	7
BL95480	6
BL95591	23
BL17144	4
BL04139	27
BL18261	7
BL15501	24
BL16326	15
BL18076	16
BL17873	7
BL20219	3
BL13844	18
BL22534	2
BL20912	13
BL95071	25
BL01029	13
BL23684	28
BL09579	19
BL01480	16
BL18130	9
BL05002	17
BL24215	14
BL30209	13
BL19216	25
BL15280	14
BL10931	3
BL08379	9
BL08245	7
BL21647	18
BL12307	1
BL15211	15
BL11123	7
BL24376	6
BL16027	6
BL14364	14
BL10358	27
BL16940	2
BL06155	2
BL62256	14
BL05814	2
BL11833	8
BL00748	1
BL00739	7
BL17816	6
BL18239	3
BL01928	18
BL03389	18
BL04307	22
BL01356	4
BL12799	17
BL01662	2
BL10838	7
BL06025	6
BL08937	17
BL11209	5
BL00570	10
BL14854	16
BL21825	26
BL04536	25
BL23258	25
BL02826	18
BL08409	11
BL06591	25
BL24568	19
BL15064	3
BL03451	9
BL12351	26
BL13826	8
BL23992	8
BL11268	18
BL22079	27
BL08412	6
BL12751	27
BL17001	16
BL08885	2
BL13894	15
BL00177	1
BL11745	1
BL15791	6
BL11414	21
BL02106	2
BL18916	2
BL18470	19
BL04865	20
BL19366	26
BL95610	1
BL10174	10
BL22902	22
BL04070	27
BL10086	3
BL11387	27
BL00740	17
BL11331	25
BL14120	18
BL02686	3
BL10058	6
BL41455	14
BL17728	23
BL15754	6
BL33136	11
BL17777	13
BL15941	15
BL08398	21
BL21635	12
BL19983	15
BL10619	2
BL15954	1
BL13268	20
BL04341	27
BL03995	8
BL95985	23
BL20736	9
BL12619	7
BL03304	14
BL14979	4
BL24738	3
BL11974	27
BL14055	3
BL15878	10
BL03614	22
BL05579	1
BL16876	22
BL17497	28
BL09738	24
BL16899	16
BL07471	1
BL05749	23
BL05728	8
BL17640	19
BL23623	27
BL04080	7
BL11624	17
BL20217	1
BL28206	17
BL21371	22
BL19940	18
BL14096	13
BL17678	22
BL95491	18
BL20894	2
BL21081	23
BL20517	9
BL14112	17
BL11737	2
BL21132	9
BL02144	20
BL54331	24
BL23463	3
BL02004	5
BL11592	15
BL16699	16
BL03847	21
BL02539	2
BL24286	6
BL04870	1
BL41389	19
BL01567	26
BL17938	18
BL15618	15
BL07199	21
BL04089	4
BL97464	18
BL03358	25
BL21277	12
BL00662	9
BL22802	25
BL08530	11
BL15678	20
BL00200	17
BL12976	4
BL07515	28
BL21715	24
BL28203	13
BL10757	21
BL20985	6
BL03605	1
BL00872	26
BL08137	6
BL19006	25
BL24230	1
BL02001	14
BL19017	22
BL03841	10
BL09405	9
BL11733	10
BL95563	9
BL09913	4
BL13436	17
BL18875	15
BL09292	6
BL10233	15
BL11147	25
BL01012	1
BL11429	22
BL14405	18
BL06942	24
BL04697	2
BL07842	15
BL13895	16
BL17766	9
BL66322	14
BL05289	6
BL07500	19
BL32010	4
BL15125	15
BL16791	23
BL02385	6
BL18857	2
BL02176	20
BL95942	24
BL24233	25
BL06677	15
BL16754	25
BL15478	20
BL12807	19
BL03317	2
BL11556	19
BL06374	19
BL19187	14
BL01905	2
BL05454	2
BL16701	19
BL15627	21
BL22471	18
BL18489	6
BL02202	7
BL23838	2
BL02480	6
BL13106	19
BL17252	14
BL04392	26
BL17975	14
BL10311	18
BL07937	19
BL86571	14
BL01105	23
BL09152	9
BL21470	20
BL95208	5
BL05270	6
BL18824	3
BL00202	22
BL90151	14
BL02788	2
BL51603	1
BL95784	5
BL23298	19
BL03889	13
BL13654	19
BL24125	9
BL02476	7
BL09936	19
BL12159	25
BL21057	25
BL14720	9
BL11054	16
BL18341	17
BL23909	19
BL15467	1
BL23095	17
BL17627	13
BL14841	4
BL08522	23
BL03356	19
BL12644	2
BL16083	26
BL09498	17
BL05515	11
BL23181	3
BL00834	4
BL17994	4
BL00375	17
BL06884	1
BL19145	19
BL13153	10
BL07391	25
BL01946	15
BL24805	12
BL02524	18
BL29164	13
BL21320	18
BL01002	13
BL14484	25
BL23469	24
BL18257	22
BL23026	2
BL95290	5
BL15145	1
BL16107	10
BL05353	13
BL13107	2
BL22144	21
BL22910	5
BL24750	3
BL17615	24
BL20662	2
BL19403	9
BL10734	3
BL21156	4
BL22687	7
BL19246	16
BL02506	4
BL09583	22
BL24549	6
BL14917	19
BL23126	18
BL22319	21
BL05744	2
BL07469	1
BL46630	2
BL04053	12
BL03205	17
BL04855	10
BL03541	2
BL08105	18
BL07763	18
BL21681	18
BL16883	17
BL96783	19
BL14200	20
BL23409	1
BL00967	19
BL05513	26
BL24573	27
BL02348	17
BL17581	7
BL16080	17
BL19193	17
BL17675	21
BL19810	1
BL08172	14
BL03140	20
BL16373	22
BL11709	25
BL01676	2
BL03794	26
BL11256	4
BL24006	3
BL10154	25
BL22171	2
BL06566	9
BL17625	10
BL01234	14
BL17073	26
BL06383	26
BL17399	14
BL11402	27
BL21349	3
BL03839	8
BL04947	27
BL10389	2
BL13131	26
BL20489	13
BL00537	1
BL13978	9
BL09861	11
BL24831	22
BL07462	9
BL83102	7
BL12694	18
BL06431	26
BL11073	18
BL12689	13
BL08553	2
BL05907	20
BL04025	18
BL08509	16
BL21732	22
BL16119	21
BL05250	26
BL11953	28
BL07407	26
BL03321	27
BL17934	4
BL04643	21
BL15914	3
BL96154	20
BL30596	9
BL07557	22
BL21860	17
BL13000	21
BL03512	18
BL95813	20
BL04797	2
BL96077	18
BL20681	23
BL17345	25
BL18332	15
BL20682	15
BL19655	3
BL05234	26
BL00780	13
BL12144	14
BL13049	9
BL00060	17
BL01754	1
BL05696	17
BL22142	21
BL06041	14
BL03900	24
BL08377	22
BL16631	23
BL04496	2
BL01977	25
BL60302	10
BL22041	18
BL01386	18
BL22855	1
BL11531	25
BL08099	26
BL03458	17
BL04265	4
BL22387	17
BL02384	11
BL12016	7
BL02234	9
BL17378	11
BL21657	2
BL14724	2
BL95837	6
BL24776	6
BL09874	4
BL03160	23
BL10505	28
BL11515	7
BL00743	20
BL23714	17
BL15100	1
BL30503	27
BL95511	5
BL03249	21
BL09202	23
BL19687	13
BL11797	19
BL01627	10
BL07206	18
BL80947	20
BL06295	18
BL08407	9
BL01469	16
BL20009	15
BL24508	23
BL13077	2
BL23988	9
BL14440	13
BL03136	3
BL95493	21
BL24860	6
BL00627	13
BL18243	23
BL21465	6
BL18190	25
BL17840	26
BL21437	13
BL04120	28
BL08491	15
BL13066	17
BL21722	3
BL22673	19
BL20268	9
BL10617	8
BL03672	3
BL17013	16
BL24103	12
BL12276	9
BL23374	20
BL95512	15
BL22036	26
BL10803	4
BL12107	12
BL19507	20
BL07382	15
BL18223	13
BL16337	4
BL15606	17
BL03819	20
BL08634	1
BL22741	25
BL22463	19
BL00621	24
BL96198	6
BL18569	7
BL21567	12
BL20800	27
BL17299	9
BL06664	15
BL06362	19
BL25086	13
BL10554	24
BL18747	14
BL15151	21
BL24043	18
BL13440	19
BL24138	26
BL97233	19
BL03558	27
BL05759	28
BL21596	18
BL23272	1
BL03411	26
BL11042	22
BL95169	5
BL15550	9
BL01271	19
BL21209	10
BL95251	14
BL24590	26
BL13962	7
BL20764	24
BL13813	15
BL13064	4
BL16416	9
BL11697	26
BL04742	18
BL07111	4
BL00919	6
BL07728	7
BL20191	14
BL16376	1
BL95911	2
BL01390	1
BL16261	4
BL04654	2
BL02002	17
BL03329	20
BL69173	7
BL21487	16
BL22699	17
BL05517	25
BL10162	5
BL95371	9
BL18691	21
BL16472	4
BL14966	4
BL08096	13
BL22927	26
BL13276	2
BL23947	2
BL21671	23
BL00046	21
BL04890	10
BL24944	25
BL12263	16
BL08779	26
BL21612	15
BL14182	8
BL06208	10
BL21289	17
BL04168	17
BL03788	3
BL00531	24
BL22989	3
BL24728	2
BL77390	15
BL02888	22
BL95896	23
BL15650	22
BL00362	13
BL95127	6
BL12936	13
BL19938	19
BL25934	23
BL01848	13
BL15139	9
BL00730	8
BL03191	28
BL17644	13
BL17043	13
BL95144	4
BL09127	9
BL13196	19
BL97334	1
BL24495	19
BL18083	11
BL22285	8
BL14474	19
BL15475	25
BL20865	3
BL04308	15
BL02608	9
BL17560	26
BL96530	14
BL22435	10
BL08308	25
BL00091	2
BL05950	9
BL12595	27
BL24093	10
BL14699	11
BL34809	18
BL16721	4
BL06330	4
BL24884	19
BL06337	19
BL18042	25
BL12419	6
BL09327	1
BL11099	9
BL00227	14
BL07478	26
BL06022	15
BL24420	12
BL24254	15
BL17712	17
BL02016	16
BL07436	25
BL02492	24
BL19442	7
BL17841	23
BL18151	28
BL01620	7
BL21271	1
BL05671	22
BL13967	14
BL21601	17
BL13385	20
BL00061	4
BL12832	24
BL08241	21
BL16169	13
BL16412	1
BL08272	19
BL96770	5
BL19064	15
BL15126	1
BL12445	23
BL17752	25
BL96590	24
BL19813	5
BL10850	27
BL96145	17
BL22996	17
BL04328	18
BL24699	1
BL20218	14
BL18212	27
BL13650	21
BL18637	21
BL01174	18
BL16058	4
BL22030	26
BL07339	21
BL15301	3
BL03273	3
BL10024	17
BL22990	28
BL24592	4
BL19140	16
BL11459	1
BL00764	28
BL23347	12
BL13108	7
BL13973	14
BL23901	3
BL01414	13
BL07084	26
BL14135	17
BL95074	2
BL24787	17
BL18642	15
BL00322	6
BL27672	14
BL04378	5
BL08034	19
BL06534	26
BL17476	22
BL17508	10
BL12709	6
BL01006	26
BL13866	11
BL11226	19
BL11829	17
BL10338	27
BL05201	2
BL95953	8
BL01533	3
BL14857	7
BL18205	12
BL21385	12
BL13218	24
BL23798	7
BL09604	14
BL25107	14
BL03271	6
BL01366	4
BL17461	27
BL21528	24
BL04912	7
BL13101	3
BL02854	28
BL05318	21
BL09667	9
BL95037	25
BL12596	19
BL04145	26
BL96061	24
BL11400	13
BL95024	9
BL19332	16
BL05958	9
BL16053	25
BL20128	1
BL22352	9
BL15291	22
BL18373	13
BL17809	2
BL03073	2
BL11286	17
BL96722	4
BL16605	23
BL22566	8
BL13560	3
BL11393	6
BL13476	24
BL04514	17
BL09248	18
BL22470	25
BL09830	8
BL16274	23
BL16703	17
BL16038	3
BL05320	19
BL05963	8
BL22891	12
BL05766	15
BL23570	13
BL02155	22
BL07081	8
BL34205	14
BL12593	21
BL11698	11
BL10078	28
BL05514	14
BL22486	2
BL21942	21
BL11076	7
BL14498	15
BL11640	1
BL95605	5
BL01692	8
BL16345	24
BL22012	28
BL11379	24
BL03396	6
BL23620	28
BL15233	20
BL11602	14
BL18037	21
BL03500	27
BL15654	10
BL19298	2
BL08669	26
BL07999	18
BL12128	22
BL03583	27
BL08693	21
BL21716	6
BL01435	27
BL18019	10
BL19431	16
BL24801	15
BL17983	26
BL96878	23
BL95822	27
BL00004	6
BL08030	4
BL05044	14
BL03720	1
BL19916	2
BL22390	19
BL20269	17
BL08770	16
BL21291	9
BL22539	17
BL12015	20
BL20090	16
BL04791	27
BL11786	14
BL18906	22
BL02062	3
BL04769	5
BL12462	14
BL02252	3
BL19313	10
BL15129	21
BL11915	19
BL20763	22
BL04598	22
BL95814	8
BL95264	5
BL05339	24
BL11952	6
BL13703	4
BL08408	21
BL15955	22
BL17370	15
BL38251	1
BL01654	28
BL23091	27
BL02215	27
BL23106	12
BL16720	9
BL95753	10
BL19005	6
BL04115	17
BL11862	15
BL29476	8
BL14342	15
BL01651	22
BL96510	20
BL01755	16
BL11098	19
BL24705	23
BL04951	4
BL01363	15
BL12308	6
BL04768	1
BL07248	26
BL24901	19
BL11748	24
BL14410	14
BL04148	22
BL11516	22
BL08758	24
BL95559	26
BL89488	13
BL13879	23
BL21924	3
BL19825	2
BL14315	19
BL18946	19
BL16088	20
BL23943	22
BL15848	27
BL21049	8
BL14706	16
BL02295	14
BL20404	13
BL19854	10
BL16466	15
BL18496	19
BL24510	14
BL63649	5
BL13887	8
BL02950	21
BL05610	18
BL05254	6
BL20838	19
BL41831	7
BL07440	6
BL21225	27
BL19567	1
BL95958	22
BL08143	27
BL95484	24
BL03947	7
BL22250	10
BL05330	1
BL00831	12
BL00420	2
BL23787	11
BL00729	13
BL09185	3
BL07417	27
BL11438	2
BL07379	7
BL08812	7
BL02104	16
BL95015	21
BL23386	7
BL12898	8
BL02089	7
BL15351	17
BL16452	21
BL22462	17
BL49444	19
BL16919	25
BL15217	25
BL07209	15
BL95751	5
BL23334	14
BL03590	9
BL17735	18
BL07555	5
BL24602	14
BL24375	21
BL05308	20
BL10383	18
BL01185	22
BL23045	26
BL09311	4
BL40668	1
BL10381	2
BL95172	17
BL17389	2
BL09987	25
BL12863	1
BL06426	5
BL05021	18
BL06828	2
BL10584	14
BL22665	19
BL00538	9
BL01126	7
BL05621	1
BL15075	12
BL03592	26
BL15459	21
BL08249	6
BL15163	16
BL11546	27
BL09438	26
BL95199	23
BL07093	4
BL21120	15
BL21312	24
BL16163	20
BL20081	17
BL23586	18
BL11489	2
BL16095	5
BL07588	10
BL19556	1
BL07074	25
BL22445	21
BL22479	17
BL15940	15
BL35064	3
BL10073	1
BL12844	17
BL09881	16
BL08731	18
BL24326	3
BL18513	9
BL13220	10
BL02314	9
BL02462	11
BL16462	21
BL08138	15
BL15460	10
BL10083	22
BL06413	7
BL22790	4
BL28977	10
BL00665	12
BL22139	6
BL16057	19
BL20535	28
BL68203	2
BL18385	21
BL16964	24
BL21267	19
BL14681	27
BL14779	25
BL18128	22
BL23197	27
BL01104	17
BL13404	25
BL23364	10
BL18335	18
BL05977	1
BL05132	23
BL21170	18
BL07002	15
BL20874	28
BL24140	27
BL13452	28
BL01328	3
BL96181	4
BL08893	6
BL07947	22
BL05119	15
BL23542	18
BL10308	1
BL12937	26
BL10213	2
BL21110	17
BL18466	9
BL06872	7
BL15327	13
BL12523	13
BL09377	22
BL04059	17
BL24695	10
BL01044	27
BL12651	1
BL13393	9
BL13193	7
BL14428	10
BL06659	3
BL95541	20
BL15679	18
BL23033	13
BL07329	19
BL09854	2
BL02003	15
BL12215	17
BL02388	26
BL15823	20
BL08040	24
BL23960	22
BL06336	1
BL12928	18
BL20159	25
BL01152	15
BL08615	23
BL22719	16
BL03921	15
BL40278	20
BL05797	6
BL05599	9
BL07870	7
BL23379	11
BL20707	17
BL02534	16
BL08127	4
BL08510	10
BL16577	27
BL21556	18
BL00372	7
BL17928	27
BL08384	21
BL22516	6
BL06266	27
BL09188	16
BL03252	14
BL00455	21
BL05775	12
BL23864	14
BL03835	3
BL00262	12
BL15964	19
BL05294	13
BL96025	25
BL95398	23
BL09486	25
BL06123	18
BL62905	17
BL15426	1
BL18406	26
BL21355	20
BL15379	23
BL05598	2
BL14950	15
BL08356	4
BL09213	19
BL22543	9
BL11951	20
BL00259	6
BL06698	9
BL08155	10
BL03470	11
BL22195	2
BL01041	28
BL45091	17
BL10271	13
BL28361	22
BL01491	16
BL04991	16
BL19710	6
BL11428	21
BL00165	22
BL11840	3
BL06186	17
BL31763	7
BL04157	1
BL14363	27
BL00094	9
BL09624	24
BL06451	3
BL58215	14
BL08614	15
BL26222	8
BL16198	4
BL15448	21
BL02861	13
BL22153	13
BL14912	16
BL22078	22
BL23964	6
BL24156	22
BL04779	26
BL00815	15
BL95812	25
BL20740	25
BL09610	16
BL00260	7
BL08979	12
BL10094	24
BL04922	15
BL04831	27
BL10417	3
BL07011	27
BL17118	3
BL02225	15
BL18549	16
BL04839	6
BL23021	19
BL08657	26
BL22977	23
BL27990	4
BL95412	8
BL10905	13
BL22198	17
BL10249	13
BL16523	17
BL18545	19
BL95138	7
BL07333	15
BL15910	24
BL24684	5
BL06108	25
BL23795	22
BL19778	6
BL16047	15
BL01638	8
BL23885	15
BL05679	23
BL24918	24
BL21463	13
BL17468	2
BL09507	16
BL08476	19
BL09030	21
BL18737	1
BL05612	22
BL02602	2
BL19170	22
BL04414	27
BL06767	21
BL17792	1
BL05209	9
BL06274	27
BL03274	4
BL16661	2
BL25386	27
BL10932	9
BL14454	25
BL05851	27
BL01640	2
BL67934	1
BL01285	19
BL14760	1
BL23362	4
BL15685	18
BL03146	1
BL11419	24
BL22044	22
BL10710	12
BL15913	15
BL07942	9
BL19789	8
BL01643	11
BL03475	27
BL95209	8
BL10143	19
BL10839	18
BL24723	20
BL12006	19
BL01157	12
BL09726	1
BL22021	26
BL04895	14
BL08563	23
BL15734	6
BL21343	17
BL02919	20
BL12777	11
BL00864	3
BL12661	16
BL03208	27
BL06816	15
BL04241	7
BL24121	25
BL03167	9
BL04361	1
BL07197	18
BL04556	12
BL20254	7
BL03388	1
BL07686	23
BL09640	19
BL13241	20
BL19594	4
BL23461	27
BL02499	20
BL11036	7
BL01267	1
BL09743	10
BL17855	26
BL06779	18
BL05571	2
BL13154	28
BL08848	6
BL15819	19
BL03762	26
BL06483	13
BL12646	26
BL11062	2
BL13977	13
BL13899	6
BL95793	21
BL07122	8
BL22851	6
BL13928	2
BL14728	26
BL15210	18
BL14308	6
BL07634	6
BL04837	12
BL09333	17
BL17161	3
BL16103	26
BL14904	4
BL20278	22
BL11377	5
BL19182	6
BL11277	1
BL00686	12
BL21875	18
BL08026	22
BL29454	4
BL13339	26
BL17658	15
BL01108	4
BL95956	24
BL18125	13
BL05968	25
BL23515	19
BL19651	6
BL19650	9
BL19952	12
BL16321	4
BL01731	12
BL11109	15
BL22825	1
BL22833	9
BL06297	18
BL16312	21
BL96807	4
BL14603	14
BL18045	7
BL03998	14
BL00377	11
BL27963	9
BL07201	28
BL02299	22
BL04793	3
BL30690	21
BL10783	14
BL06990	26
BL10087	12
BL21586	2
BL07437	4
BL16280	18
BL11394	22
BL18543	22
BL97023	5
BL15997	17
BL12804	4
BL02230	2
BL11940	3
BL04149	2
BL02538	3
BL09372	2
BL16562	21
BL12591	28
BL06820	18
BL10632	6
BL02350	3
BL02970	20
BL01596	23
BL19344	7
BL21415	7
BL13415	12
BL07511	10
BL17449	2
BL23582	28
BL13359	17
BL09335	12
BL05756	2
BL14337	27
BL18686	26
BL96075	18
BL24679	2
BL16975	15
BL14089	9
BL06575	7
BL08159	17
BL23879	23
BL24216	2
BL10343	5
BL19743	15
BL95724	4
BL21561	10
BL10048	8
BL14014	10
BL05881	25
BL26806	4
BL95645	9
BL07348	18
BL10450	27
BL16649	18
BL23115	26
BL23465	25
BL21322	21
BL22783	19
BL22254	18
BL23468	19
BL15400	17
BL04606	14
BL04364	1
BL20749	2
BL20915	3
BL02625	26
BL07439	17
BL20860	14
BL15067	18
BL14085	28
BL22678	10
BL22196	26
BL95795	8
BL06001	17
BL03677	9
BL09923	8
BL19036	3
BL24872	10
BL09322	25
BL20114	23
BL07833	12
BL95542	7
BL22907	16
BL06915	15
BL05625	14
BL16756	14
BL23592	13
BL66600	10
BL04191	3
BL24567	2
BL17998	26
BL08936	26
BL12757	9
BL21899	26
BL13901	12
BL05616	2
BL16431	8
BL20965	12
BL12241	14
BL08666	19
BL09546	7
BL21957	23
BL02563	3
BL95695	11
BL04474	3
BL06994	26
BL10414	3
BL09953	4
BL21408	21
BL20973	23
BL05409	13
BL21211	14
BL13050	4
BL06195	14
BL10235	22
BL08588	6
BL00297	26
BL14592	1
BL04082	4
BL07047	21
BL17115	2
BL06369	14
BL15447	15
BL24490	9
BL17373	18
BL23231	3
BL18751	10
BL02522	2
BL20972	8
BL16895	24
BL00057	2
BL28056	26
BL15376	20
BL19176	28
BL18442	4
BL17622	15
BL22888	2
BL16070	16
BL19913	25
BL08792	12
BL00987	22
BL08884	14
BL15405	24
BL13247	11
BL07656	3
BL10863	27
BL18233	28
BL28040	14
BL01222	15
BL03363	3
BL08587	21
BL18872	10
BL05008	24
BL06663	2
BL01743	24
BL05109	19
BL03197	13
BL04411	28
BL96159	13
BL11320	21
BL00911	2
BL14595	23
BL00426	7
BL21849	20
BL17306	14
BL01657	3
BL24982	6
BL05412	7
BL95114	4
BL11679	7
BL19782	2
BL00174	3
BL09159	18
BL04877	7
BL12096	26
BL02446	7
BL20711	4
BL22870	19
BL21175	3
BL40590	14
BL06819	19
BL10870	18
BL95922	23
BL16362	7
BL05085	5
BL03017	27
BL18542	16
BL15002	28
BL21318	17
BL13568	17
BL08579	4
BL22304	20
BL07725	28
BL20322	17
BL21571	4
BL04423	7
BL16734	19
BL13357	27
BL10647	18
BL02989	12
BL23134	23
BL95937	23
BL24224	26
BL17805	4
BL03288	27
BL04885	27
BL22729	19
BL06772	27
BL06891	21
BL20706	5
BL09110	3
BL10067	9
BL22017	25
BL02078	3
BL10736	12
BL13946	1
BL13279	9
BL23169	10
BL17732	4
BL14780	12
BL00530	19
BL17765	10
BL97298	25
BL12503	3
BL10000	18
BL10527	13
BL16823	19
BL07962	6
BL02231	20
BL06009	20
BL95538	9
BL97022	15
BL95445	21
BL23722	28
BL24913	19
BL01392	14
BL20413	28
BL13511	3
BL18356	1
BL01008	12
BL17270	25
BL13736	4
BL08021	26
BL13033	14
BL17564	28
BL20134	18
BL14252	24
BL00795	4
BL08389	26
BL00257	28
BL15354	27
BL22873	28
BL05215	4
BL14634	26
BL24129	23
BL08751	6
BL01004	27
BL23697	5
BL02020	23
BL06350	13
BL11013	25
BL14078	14
BL08257	15
BL21683	10
BL02877	3
BL20032	1
BL18047	7
BL19527	10
BL10156	4
BL14250	8
BL04167	28
BL08194	17
BL21708	9
BL24906	1
BL00452	5
BL12050	14
BL07838	1
BL20866	16
BL07245	28
BL13290	15
BL14608	17
BL22261	12
BL01350	25
BL03403	21
BL06007	2
BL01074	12
BL15257	18
BL11899	13
BL09735	10
BL21808	26
BL01853	16
BL10703	17
BL17922	27
BL00196	4
BL11155	22
BL07399	25
BL03479	19
BL09261	24
BL13383	19
BL27131	5
BL08333	11
BL12041	17
BL12055	11
BL24312	20
BL24227	11
BL19125	20
BL00296	19
BL11895	10
BL09878	8
BL09395	4
BL05813	20
BL00718	16
BL23900	15
BL24640	7
BL13612	5
BL15565	4
BL17705	26
BL20005	21
BL23759	27
BL00496	12
BL12529	24
BL14233	3
BL05942	19
BL05491	19
BL21398	24
BL05206	25
BL20962	26
BL95490	15
BL08394	22
BL29825	20
BL95854	7
BL18986	9
BL04834	4
BL05717	27
BL06437	13
BL18900	18
BL15973	14
BL19892	9
BL02614	23
BL04134	12
BL22233	6
BL04027	9
BL05332	22
BL00761	15
BL11780	19
BL02792	7
BL22883	18
BL21434	25
BL17976	2
BL05987	8
BL29529	14
BL96140	20
BL17582	1
BL09863	23
BL00829	5
BL95809	9
BL11281	14
BL02761	18
BL05654	25
BL09404	22
BL17350	22
BL23606	8
BL01118	21
BL19425	25
BL26223	8
BL00930	14
BL23413	16
BL17064	3
BL11136	20
BL20346	27
BL04911	16
BL10695	12
BL16927	12
BL10052	6
BL23020	18
BL23343	7
BL19199	13
BL06563	20
BL18463	13
BL08609	26
BL86149	14
BL12702	3
BL06036	4
BL24668	4
BL05310	12
BL17839	18
BL01205	2
BL14643	3
BL06434	28
BL06090	26
BL14090	9
BL76557	23
BL15463	19
BL12253	21
BL13591	2
BL20631	27
BL18802	27
BL11580	15
BL21886	1
BL09893	19
BL05572	20
BL12613	4
BL21256	23
BL16595	8
BL14878	21
BL17933	20
BL03097	18
BL16748	12
BL09813	5
BL24416	26
BL19400	27
BL13206	26
BL09013	27
BL13886	9
BL04572	2
BL04192	19
BL24958	9
BL19118	9
BL02647	10
BL01815	4
BL22504	12
BL11270	24
BL13211	17
BL20161	12
BL03379	10
BL13711	28
BL03553	22
BL05677	27
BL19358	18
BL00742	12
BL12862	3
BL22740	22
BL14787	16
BL02360	6
BL14742	14
BL95406	22
BL00360	19
BL06541	3
BL21145	1
BL02235	24
BL12250	16
BL08307	6
BL23407	11
BL21750	22
BL01935	10
BL20575	16
BL24687	15
BL17935	23
BL13551	20
BL18662	18
BL27360	5
BL02495	13
BL23440	19
BL20084	28
BL02760	2
BL01870	7
BL03359	10
BL09334	25
BL16114	23
BL13596	18
BL23198	13
BL00846	24
BL12435	1
BL20145	5
BL22863	19
BL77892	9
BL05822	7
BL08154	1
BL25433	1
BL19072	1
BL18605	22
BL07269	8
BL79142	23
BL16827	22
BL22008	18
BL04095	2
BL15676	2
BL12886	4
BL95141	18
BL21441	12
BL21405	4
BL24925	7
BL01321	28
BL21205	12
BL17665	24
BL00082	5
BL19570	26
BL12537	16
BL21535	5
BL22158	2
BL13545	27
BL10251	5
BL20143	9
BL96113	23
BL19013	21
BL07343	27
BL19438	16
BL18447	20
BL00723	9
BL24807	5
BL15451	1
BL15314	16
BL24322	26
BL06026	13
BL15671	2
BL10897	28
BL02498	27
BL14525	20
BL00321	27
BL06817	19
BL11485	27
BL15522	19
BL06723	2
BL24949	3
BL00565	25
BL09387	3
BL15945	20
BL12743	20
BL22154	28
BL21537	22
BL21513	20
BL19491	5
BL07985	11
BL11327	26
BL15283	7
BL14503	7
BL16006	22
BL20010	19
BL23616	22
BL08267	25
BL01124	18
BL13041	27
BL06783	4
BL22279	6
BL22913	9
BL03042	5
BL18058	20
BL07057	27
BL20663	14
BL06097	28
BL10777	13
BL23748	19
BL04216	21
BL08569	14
BL10400	20
BL20664	20
BL12432	13
BL23929	7
BL05363	11
BL01337	9
BL21166	9
BL02997	22
BL16777	3
BL18801	9
BL05604	22
BL06268	17
BL10310	7
BL11035	15
BL96471	11
BL95672	11
BL23015	21
BL24283	8
BL01565	19
BL08716	19
BL18599	27
BL13229	26
BL18791	3
BL01302	6
BL07442	16
BL18235	24
BL11517	8
BL07499	9
BL08825	2
BL12478	2
BL19092	4
BL19152	7
BL08971	19
BL10268	4
BL19827	23
BL04907	20
BL15653	7
BL03405	24
BL18444	1
BL24262	13
BL05338	3
BL20317	13
BL08714	28
BL59754	16
BL08317	1
BL00516	9
BL17384	28
BL82149	18
BL03412	9
BL39145	18
BL12851	4
BL10512	13
BL11837	18
BL08520	10
BL13721	16
BL13599	8
BL15189	22
BL17905	25
BL21288	21
BL24856	13
BL07680	18
BL17462	11
BL47052	16
BL14184	6
BL20799	7
BL13900	5
BL08244	19
BL11500	14
BL03243	17
BL09656	2
BL10717	7
BL22623	23
BL95118	18
BL08058	18
BL24593	6
BL08824	4
BL16221	26
BL95987	14
BL96146	9
BL08212	12
BL22752	4
BL20879	19
BL20916	28
BL00794	3
BL18053	14
BL23192	27
BL05231	8
BL17464	2
BL14667	27
BL06759	28
BL96792	2
BL82618	21
BL15104	21
BL03124	13
BL23627	28
BL14869	28
BL07798	19
BL17390	23
BL17472	26
BL20391	5
BL18434	16
BL04099	23
BL05210	1
BL96962	11
BL23560	18
BL23573	4
BL16976	16
BL20148	5
BL08419	1
BL00317	26
BL12066	3
BL21531	9
BL21792	19
BL08988	14
BL95372	18
BL12093	18
BL16343	22
BL95836	5
BL21970	23
BL95186	23
BL00991	5
BL04203	13
BL19563	13
BL08873	23
BL02290	16
BL02729	21
BL10319	25
BL02437	21
BL15347	24
BL18565	16
BL20886	22
BL15900	8
BL95125	6
BL22668	14
BL17715	2
BL02205	23
BL05731	26
BL17331	28
BL01812	3
BL95292	5
BL12062	6
BL07938	3
BL18028	6
BL04988	7
BL02221	25
BL20613	6
BL23338	15
BL06628	2
BL95770	9
BL01608	14
BL16043	3
BL17992	15
BL05762	8
BL21669	19
BL07268	18
BL01761	7
BL11116	18
BL90680	28
BL08319	19
BL15206	5
BL22787	26
BL10598	20
BL23861	19
BL13233	14
BL20189	12
BL01188	12
BL20461	3
BL01438	21
BL04868	28
BL16471	23
BL22899	26
BL01796	11
BL10824	11
BL13301	13
BL13911	18
BL18676	22
BL09901	17
BL03465	25
BL21628	24
BL24957	7
BL21626	4
BL15510	28
BL04101	7
BL11858	5
BL02328	16
BL02282	18
BL18143	2
BL10095	24
BL09310	16
BL01426	9
BL09105	25
BL22705	4
BL22804	25
BL95558	24
BL17397	27
BL04681	4
BL30979	22
BL07276	7
BL15934	22
BL07804	14
BL23017	21
BL15276	1
BL10278	7
BL21442	3
BL17050	26
BL20552	20
BL10470	9
BL09345	24
BL09775	15
BL10449	4
BL07173	11
BL02750	2
BL06142	2
BL14847	26
BL01918	8
BL09598	23
BL24471	4
BL97359	10
BL03121	15
BL88000	13
BL13087	22
BL02161	11
BL10654	1
BL95598	14
BL00961	3
BL13777	20
BL12650	23
BL19486	10
BL22983	11
BL17614	2
BL02107	17
BL66806	26
BL12465	3
BL10222	26
BL17014	15
BL25748	1
BL15295	22
BL12890	26
BL07562	5
BL18695	19
BL24035	18
BL08463	5
BL17619	18
BL00695	12
BL04615	9
BL97223	10
BL95334	28
BL12706	18
BL03309	22
BL13467	12
BL20213	28
BL01478	11
BL10650	19
BL07441	21
BL01749	16
BL17567	27
BL03931	26
BL21864	14
BL11347	21
BL20247	12
BL18468	6
BL14942	19
BL05405	13
BL50739	22
BL22481	3
BL21317	2
BL14864	23
BL20237	24
BL05862	2
BL03675	4
BL18577	27
BL18950	24
BL05140	3
BL10871	7
BL09955	4
BL24484	1
BL18604	8
BL05368	2
BL04433	19
BL01765	22
BL95773	23
BL16579	1
BL19554	3
BL07331	21
BL03236	3
BL95446	8
BL22973	7
BL14326	1
BL14967	19
BL04312	25
BL20836	23
BL20611	20
BL05972	9
BL22059	11
BL18360	25
BL06548	3
BL00512	17
BL15902	2
BL05408	2
BL11632	2
BL00356	28
BL07175	5
BL20019	17
BL95117	4
BL22606	4
BL05544	20
BL11064	21
BL05633	19
BL12859	4
BL06870	17
BL02253	28
BL11715	9
BL22172	26
BL28676	12
BL03948	15
BL15445	24
BL18627	2
BL18750	6
BL16024	3
BL11434	2
BL03354	16
BL10955	11
BL10576	21
BL20068	4
BL00326	2
BL13202	22
BL12483	27
BL07125	21
BL07615	20
BL04424	1
BL09683	26
BL13186	12
BL09114	9
BL08571	12
BL07551	27
BL48441	22
BL20654	20
BL23459	13
BL04620	2
BL09894	12
BL17811	2
BL03263	3
BL24700	7
BL13297	19
BL19238	8
BL41670	14
BL13828	17
BL13448	24
BL22748	19
BL02342	21
BL16933	25
BL18623	21
BL14783	9
BL00295	20
BL11887	13
BL18782	27
BL17962	11
BL17181	25
BL19081	21
BL02212	25
BL02354	24
BL00546	8
BL12179	4
BL16475	5
BL10623	25
BL12796	19
BL06191	26
BL22796	3
BL03581	9
BL14536	3
BL20767	4
BL05105	8
BL04198	14
BL07142	3
BL12124	21
BL00157	17
BL18337	6
BL02840	11
BL15515	18
BL13909	26
BL21555	9
BL14155	19
BL07072	7
BL09956	18
BL04111	17
BL11324	6
BL96024	25
BL12500	8
BL24791	7
BL97070	11
BL04763	19
BL19308	4
BL20124	6
BL49872	22
BL20809	19
BL21587	4
BL10607	10
BL19449	28
BL13329	19
BL95702	2
BL05319	20
BL04470	13
BL00607	17
BL24297	16
BL14678	12
BL21232	5
BL06991	9
BL27291	23
BL09730	19
BL06305	6
BL02836	27
BL20062	4
BL09937	11
BL10159	28
BL04730	11
BL13885	6
BL05497	19
BL17918	4
BL04072	1
BL12094	12
BL05720	28
BL16846	23
BL02742	24
BL25786	21
BL22141	16
BL13071	10
BL15146	28
BL09407	16
BL02946	17
BL08772	5
BL15638	3
BL22143	9
BL24401	26
BL18133	19
BL06602	16
BL10511	1
BL12536	25
BL23082	4
BL01131	11
BL22485	16
BL14159	9
BL18744	17
BL17478	28
BL11114	25
BL20855	26
BL06261	19
BL16079	26
BL22045	16
BL08231	13
BL14307	9
BL02632	10
BL14702	9
BL03257	2
BL04091	19
BL61984	14
BL11984	19
BL21376	16
BL17020	3
BL16533	9
BL17342	13
BL12670	9
BL03339	27
BL14192	18
BL19085	23
BL02489	4
BL20310	16
BL95390	6
BL16780	27
BL03385	3
BL11358	12
BL04641	12
BL05848	10
BL04824	10
BL09912	20
BL03871	10
BL17635	5
BL18644	21
BL20505	6
BL12334	13
BL18893	25
BL01700	21
BL17301	20
BL00589	17
BL00750	27
BL12280	12
BL21534	28
BL02401	24
BL16949	22
BL06766	7
BL03812	21
BL21387	7
BL13145	26
BL24852	27
BL00463	12
BL09701	20
BL00614	15
BL04073	28
BL12487	21
BL09048	21
BL12444	27
BL95485	4
BL11676	18
BL19774	27
BL17744	17
BL06743	7
BL11559	21
BL96064	9
BL12194	3
BL10473	12
BL72858	14
BL04051	21
BL22357	20
BL13859	27
BL03052	22
BL13503	24
BL03053	2
BL23888	2
BL08832	4
BL95943	24
BL23799	17
BL13912	19
BL19069	21
BL25305	7
BL21358	12
BL06442	20
BL21910	3
BL02100	17
BL09208	18
BL01955	3
BL24666	10
BL00039	22
BL18510	13
BL07810	7
BL13606	24
BL19845	23
BL11778	24
BL21707	11
BL15609	17
BL05416	24
BL15533	28
BL03573	9
BL29552	23
BL95614	6
BL18858	22
BL16440	18
BL00843	6
BL73969	22
BL02226	22
BL12080	4
BL13837	3
BL20608	16
BL18135	2
BL20891	13
BL08719	2
BL09781	26
BL12648	14
BL05961	12
BL01951	28
BL19276	2
BL05154	5
BL15841	26
BL14646	27
BL95723	6
BL17359	3
BL21696	5
BL96352	5
BL12265	3
BL96197	24
BL17035	21
BL07416	3
BL23019	22
BL95082	5
BL29729	1
BL08668	26
BL12551	5
BL20491	12
BL04552	19
BL96834	8
BL01428	19
BL08360	13
BL95567	24
BL20289	14
BL12979	20
BL21695	14
BL11498	22
BL19237	15
BL18379	4
BL20758	22
BL20870	28
BL23576	3
BL08165	8
BL13103	13
BL15263	19
BL08592	9
BL00114	16
BL07373	25
BL21827	22
BL18348	12
BL08813	20
BL11557	26
BL08867	4
BL12100	4
BL03091	11
BL95750	5
BL13750	11
BL11503	3
BL23008	24
BL07935	20
BL04147	22
BL95115	19
BL01495	9
BL95755	5
BL02915	3
BL07576	1
BL13767	13
BL06458	11
BL05222	18
BL27256	21
BL97267	17
BL05992	3
BL23591	5
BL11752	9
BL09990	28
BL21756	12
BL21632	9
BL11686	7
BL11240	25
BL09025	11
BL06741	3
BL23121	21
BL18294	12
BL16202	11
BL19410	18
BL05955	19
BL09867	22
BL18813	9
BL16715	22
BL96938	5
BL09860	26
BL20492	1
BL14762	10
BL10057	6
BL00434	13
BL21453	23
BL24569	18
BL07346	27
BL20938	9
BL03267	20
BL08980	4
BL01708	5
BL16252	24
BL09732	20
BL10019	18
BL04777	2
BL16458	19
BL15658	4
BL23103	10
BL20761	19
BL20239	16
BL11543	12
BL19210	26
BL24461	17
BL01747	21
BL07851	26
BL21684	26
BL15107	6
BL20599	24
BL03441	21
BL07317	20
BL15246	6
BL06574	9
BL01585	18
BL17727	8
BL12727	15
BL17494	22
BL96052	6
BL14651	16
BL02222	5
BL95994	20
BL07265	24
BL24624	22
BL01307	22
BL06613	28
BL24413	5
BL09737	1
BL95119	23
BL08974	16
BL96509	11
BL14806	8
BL07202	1
BL01417	19
BL17183	8
BL14761	20
BL21565	20
BL11932	26
BL95286	1
BL01231	7
BL08501	5
BL31387	1
BL22734	18
BL05763	25
BL15892	26
BL13217	9
BL96073	19
BL11265	10
BL03967	9
BL02237	19
BL20126	14
BL21785	13
BL10265	20
BL18855	9
BL20739	23
BL04317	11
BL06590	23
BL20185	9
BL17187	10
BL10898	2
BL11271	5
BL06275	3
BL14976	18
BL06945	20
BL09933	1
BL17493	19
BL06930	20
BL09586	13
BL02033	21
BL09260	12
BL05469	2
BL32071	5
BL96010	1
BL01090	27
BL00366	27
BL14476	26
BL00881	1
BL31639	13
BL08500	28
BL95440	14
BL22852	6
BL16102	13
BL10416	3
BL16370	12
BL21184	28
BL23808	28
BL22541	6
BL01907	6
BL19630	28
BL24496	26
BL00482	26
BL23221	13
BL60714	3
BL16211	2
BL24799	27
BL03214	13
BL14244	10
BL27069	9
BL06134	8
BL06103	3
BL12884	22
BL05100	11
BL11593	11
BL17239	25
BL19482	18
BL96037	18
BL20411	5
BL02979	10
BL13501	2
BL06493	13
BL17159	13
BL02459	27
BL21443	14
BL18405	20
BL14087	12
BL02153	3
BL16251	20
BL95407	25
BL11875	28
BL05798	27
BL80605	13
BL12231	5
BL24840	24
BL18248	12
BL21389	18
BL00185	10
BL16687	5
BL09443	28
BL59016	9
BL16147	7
BL11048	8
BL01750	24
BL23529	12
BL19377	19
BL05874	18
BL22458	19
BL24123	9
BL23936	16
BL01934	19
BL01109	8
BL95401	12
BL09192	9
BL06963	26
BL22542	27
BL15521	3
BL17758	23
BL00458	3
BL01085	2
BL17589	17
BL16188	18
BL14092	25
BL13068	19
BL00609	20
BL20989	23
BL22214	12
BL11410	24
BL20058	9
BL10753	22
BL12384	25
BL71739	24
BL13244	23
BL03873	2
BL07556	9
BL16012	27
BL08116	18
BL12986	16
BL10692	25
BL24008	28
BL12853	21
BL19158	1
BL20248	25
BL22064	11
BL21364	9
BL22616	26
BL19099	1
BL24867	23
BL06713	18
BL00622	24
BL08699	16
BL15856	22
BL06364	27
BL76610	22
BL07249	2
BL10789	4
BL11854	19
BL02298	14
BL22614	3
BL95888	21
BL17942	20
BL18557	28
BL05593	12
BL12866	24
BL23608	13
BL16365	26
BL05618	18
BL11911	10
BL23125	21
BL00473	24
BL03952	15
BL18398	15
BL03507	19
BL14895	4
BL12206	26
BL07764	6
BL24628	4
BL08460	22
BL12641	13
BL75857	7
BL10801	13
BL95170	5
BL08215	26
BL23587	4
BL03366	24
BL14513	13
BL00938	4
BL00812	3
BL16264	25
BL09116	13
BL01009	26
BL23747	18
BL11519	20
BL19817	5
BL03651	18
BL03245	24
BL12748	25
BL12499	16
BL22572	17
BL04759	15
BL00913	28
BL06925	18
BL12286	10
BL12555	16
BL03717	10
BL95242	8
BL21976	1
BL59504	5
BL10380	17
BL96809	24
BL23970	1
BL24850	11
BL22946	24
BL12802	7
BL69148	11
BL10510	4
BL21941	10
BL22076	14
BL11443	22
BL20280	22
BL10254	5
BL07430	27
BL95931	11
BL21214	23
BL95363	24
BL16011	16
BL03486	2
BL22460	16
BL24704	19
BL20096	8
BL03676	12
BL02690	10
BL12408	7
BL12467	4
BL13201	3
BL19417	18
BL23728	18
BL11660	21
BL17517	2
BL12227	19
BL23886	1
BL06126	9
BL09470	3
BL09456	8
BL17916	8
BL10433	28
BL10843	9
BL10050	1
BL11185	11
BL11574	1
BL13240	19
BL35562	19
BL18995	12
BL10125	22
BL24664	23
BL01948	21
BL00720	28
BL01492	19
BL24207	21
BL21036	9
BL01381	13
BL17911	11
BL03193	7
BL22772	13
BL02300	4
BL15481	4
BL15123	3
BL11622	4
BL12282	23
BL05904	28
BL11523	4
BL15278	9
BL13457	19
BL24095	2
BL15792	12
BL02054	3
BL05981	3
BL11905	21
BL11512	27
BL03723	1
BL03430	5
BL07015	28
BL04835	13
BL95137	12
BL18829	23
BL06845	5
BL23418	27
BL08663	12
BL15452	4
BL13611	11
BL10274	16
BL24916	2
BL67726	12
BL23188	9
BL18568	18
BL14767	21
BL00367	14
BL02501	17
BL96749	26
BL06642	25
BL00804	13
BL15105	6
BL22749	28
BL05077	5
BL02955	11
BL22039	28
BL03462	23
BL23296	25
BL05568	13
BL09711	18
BL10179	24
BL17358	3
BL01276	19
BL08859	12
BL02468	20
BL52601	4
BL08572	13
BL21514	3
BL00960	10
BL07006	14
BL15183	8
BL12256	20
BL06981	25
BL06260	28
BL10119	8
BL21403	5
BL02317	7
BL00111	2
BL00469	8
BL10533	6
BL07312	18
BL07666	1
BL24181	20
BL10169	14
BL23602	12
BL23035	28
BL10594	3
BL01137	5
BL20684	28
BL12328	27
BL95788	21
BL03008	19
BL95845	9
BL05506	25
BL23823	22
BL11658	9
BL04267	20
BL62372	12
BL14515	13
BL01149	2
BL12360	25
BL08802	14
BL09787	27
BL13037	22
BL23249	4
BL02029	10
BL20882	27
BL11770	2
BL55743	13
BL15392	14
BL24745	18
BL62568	6
BL95774	24
BL17874	21
BL18388	8
BL15811	24
BL23659	21
BL07753	27
BL17406	15
BL02387	11
BL07847	3
BL14463	26
BL07906	13
BL10653	6
BL01704	14
BL19978	8
BL11325	13
BL22341	25
BL21773	17
BL21540	28
BL97280	3
BL16659	15
BL24486	1
BL18163	24
BL04320	21
BL24556	1
BL03669	3
BL15612	2
BL13952	22
BL12728	4
BL76464	9
BL95362	2
BL13651	5
BL10141	22
BL96923	27
BL12378	3
BL11287	5
BL08293	13
BL01723	6
BL07723	28
BL07610	28
BL21362	28
BL95907	14
BL19526	12
BL00363	22
BL05493	28
BL21968	21
BL16276	1
BL17375	2
BL21711	6
BL24338	15
BL16551	6
BL49513	9
BL06629	28
BL14539	23
BL13700	10
BL17300	20
BL07488	8
BL10923	26
BL16578	9
BL08146	8
BL02250	13
BL07724	6
BL01836	9
BL13366	27
BL12754	6
BL95892	23
BL13712	27
BL01660	8
BL23357	8
BL32106	11
BL17321	25
BL15020	18
BL24430	2
BL05199	8
BL03495	28
BL96578	5
BL07285	11
BL10307	27
BL24630	2
BL11811	9
BL45990	21
BL14374	22
BL18834	26
BL02540	14
BL23048	24
BL17439	18
BL18763	7
BL95899	14
BL21399	16
BL12187	27
BL24219	23
BL05111	16
BL18808	6
BL11113	26
BL42819	25
BL16489	1
BL70238	7
BL01166	27
BL69280	10
BL15413	23
BL24045	23
BL07184	8
BL04501	13
BL15704	6
BL08854	19
BL22366	15
BL04630	17
BL96526	15
BL01988	20
BL23601	3
BL12283	24
BL11680	21
BL04014	22
BL02168	21
BL10913	3
BL08945	10
BL22594	1
BL11412	9
BL60539	4
BL11119	19
BL18234	17
BL10891	28
BL22582	10
BL14610	3
BL22111	20
BL11815	24
BL14081	23
BL09040	4
BL02858	19
BL02101	25
BL23179	4
BL22722	27
BL01040	13
BL19136	21
BL19766	19
BL11760	19
BL95447	5
BL19205	28
BL12839	24
BL45159	26
BL16496	25
BL07211	12
BL04419	12
BL11360	15
BL14478	15
BL74063	13
BL03426	2
BL21154	28
BL01059	21
BL24127	13
BL15858	18
BL18988	27
BL18177	19
BL95568	5
BL03119	25
BL10593	22
BL73495	21
BL13653	5
BL09207	13
BL03653	7
BL17422	17
BL15265	11
BL16137	24
BL97176	4
BL21097	28
BL02869	6
BL03711	16
BL04201	25
BL07603	28
BL20180	13
BL04587	26
BL04590	25
BL95673	6
BL12439	28
BL23990	24
BL18445	3
BL11662	19
BL09855	16
BL20399	18
BL13824	4
BL21585	18
BL13225	12
BL11775	22
BL23599	28
BL06653	11
BL02450	24
BL17315	2
BL14113	22
BL14915	18
BL15114	23
BL09349	10
BL20789	16
BL01215	16
BL03937	6
BL22243	5
BL13922	1
BL09076	17
BL11629	14
BL09551	5
BL11628	17
BL04916	24
BL20698	22
BL11326	23
BL02055	8
BL08555	20
BL11540	11
BL09353	16
BL19505	19
BL11547	19
BL01226	4
BL03463	12
BL18152	27
BL07415	4
BL15229	9
BL24835	11
BL20246	18
BL01550	24
BL18870	4
BL05422	19
BL03026	22
BL06213	8
BL02311	20
BL16637	21
BL11033	11
BL01869	26
BL01318	14
BL12931	4
BL04743	17
BL07334	14
BL09938	3
BL22690	9
BL09961	28
BL01840	23
BL05147	12
BL13892	9
BL14562	3
BL11032	26
BL21705	23
BL18774	28
BL09786	6
BL16325	5
BL08247	4
BL17604	9
BL08570	12
BL09020	21
BL10411	5
BL08039	18
BL08760	1
BL02591	1
BL26847	13
BL15558	26
BL17719	24
BL24543	24
BL02504	24
BL05153	28
BL01563	7
BL08400	12
BL18443	26
BL24555	2
BL24049	19
BL20636	4
BL05287	9
BL95790	24
BL16573	26
BL13089	4
BL23038	24
BL47446	10
BL06784	3
BL10697	27
BL06572	20
BL02081	3
BL95850	28
BL22798	5
BL09675	15
BL04443	14
BL95655	25
BL19808	19
BL18025	26
BL95083	5
BL23085	12
BL75853	22
BL21008	28
BL10549	27
BL01093	18
BL19995	12
BL22326	10
BL12114	13
BL04821	21
BL09467	22
BL24428	24
BL03973	2
BL19920	17
BL04402	28
BL24595	8
BL09259	24
BL13732	1
BL00857	18
BL08485	3
BL16529	27
BL08080	1
BL04223	13
BL19777	1
BL23163	12
BL02470	1
BL13630	3
BL02351	19
BL12498	2
BL24048	11
BL11415	27
BL12210	7
BL11283	13
BL21141	1
BL14385	23
BL01242	20
BL22418	23
BL95226	10
BL02121	5
BL15918	4
BL22744	18
BL95916	24
BL24033	25
BL96483	5
BL12925	16
BL07946	26
BL06573	4
BL16878	9
BL21971	1
BL96568	11
BL13242	11
BL04013	10
BL05414	10
BL07954	4
BL16501	1
BL23548	2
BL18203	3
BL95663	1
BL12581	20
BL19281	27
BL10388	14
BL08373	18
BL21979	21
BL67708	12
BL20328	16
BL02098	19
BL23539	18
BL24058	9
BL06300	10
BL65530	10
BL14488	25
BL04001	6
BL02270	23
BL21065	15
BL12484	7
BL03246	13
BL15920	12
BL09778	16
BL22974	16
BL95163	5
BL17760	27
BL95098	8
BL95479	20
BL09029	4
BL14971	19
BL06222	6
BL18860	9
BL05837	23
BL12130	28
BL11237	23
BL09012	1
BL12643	4
BL00466	22
BL07038	13
BL09892	19
BL22098	7
BL96277	20
BL23645	15
BL12261	8
BL21563	23
BL20098	25
BL16284	11
BL15921	19
BL19688	1
BL16545	10
BL11528	8
BL15745	11
BL97299	10
BL89869	5
BL01355	8
BL03828	7
BL21335	1
BL95627	25
BL08556	17
BL07788	6
BL14718	19
BL15870	24
BL03955	28
BL96160	21
BL16861	5
BL16765	26
BL05096	28
BL22801	20
BL00289	3
BL11704	1
BL06283	11
BL24502	7
BL20807	26
BL28847	4
BL03946	3
BL15235	5
BL12208	20
BL08655	10
BL01841	14
BL05417	22
BL17763	7
BL09521	20
BL05413	6
BL09957	27
BL18850	27
BL07958	11
BL16904	12
BL07627	19
BL24001	6
BL12410	12
BL20895	8
BL24309	8
BL13776	8
BL04745	6
BL23112	10
BL02945	5
BL17833	1
BL08462	27
BL12493	24
BL21998	25
BL13528	22
BL95615	14
BL07005	2
BL08749	19
BL13954	27
BL18884	23
BL16029	27
BL11884	16
BL10363	28
BL04199	1
BL16738	27
BL16769	8
BL00552	5
BL22880	5
BL01092	23
BL02249	28
BL09623	19
BL22058	13
BL19001	7
BL19023	7
BL04133	4
BL11220	19
BL15549	10
BL08128	27
BL08902	5
BL07758	16
BL33170	14
BL06700	26
BL10060	3
BL14470	7
BL15540	27
BL18242	19
BL01514	24
BL12542	8
BL97002	24
BL01424	13
BL06051	26
BL24667	27
BL06048	9
BL95142	21
BL23155	16
BL08033	10
BL16201	23
BL11569	13
BL09089	28
BL22847	17
BL22005	13
BL21895	6
BL26785	8
BL16451	13
BL18563	25
BL10519	2
BL21401	16
BL20241	21
BL09364	8
BL13536	25
BL95626	7
BL17169	24
BL13981	11
BL64769	5
BL10275	12
BL09297	1
BL00192	7
BL22565	20
BL01783	12
BL06100	16
BL18757	19
BL23302	20
BL15097	27
BL95413	10
BL38230	10
BL24094	10
BL08401	5
BL13249	13
BL21378	19
BL04899	1
BL13499	19
BL07250	16
BL09121	19
BL00873	10
BL02722	4
BL10829	21
BL21287	5
BL16459	26
BL04429	3
BL04491	21
BL20498	19
BL00581	16
BL16063	19
BL04948	1
BL09681	5
BL24162	20
BL15076	11
BL23225	23
BL15686	28
BL00220	14
BL08564	10
BL22670	24
BL11903	18
BL18241	23
BL11236	25
BL04979	9
BL14590	6
BL23932	3
BL22107	16
BL31333	6
BL16923	27
BL07001	11
BL09450	5
BL10929	10
BL15759	18
BL04074	4
BL24271	12
BL12634	14
BL04684	4
BL14952	23
BL18816	18
BL22753	14
BL05013	16
BL95594	28
BL14534	20
BL14317	6
BL23974	1
BL96912	5
BL07133	2
BL00971	19
BL22674	26
BL19019	28
BL12607	5
BL12617	28
BL20013	24
BL06310	9
BL15260	20
BL04688	14
BL96056	23
BL07512	1
BL20055	14
BL03625	19
BL19685	21
BL11346	8
BL08092	12
BL19302	19
BL21155	10
BL95313	5
BL00357	13
BL07069	13
BL95630	13
BL32586	7
BL96856	21
BL00717	17
BL00751	28
BL04403	4
BL06356	19
BL43559	16
BL07918	27
BL95515	10
BL17423	18
BL02587	3
BL12885	18
BL24284	13
BL05734	26
BL12506	12
BL15332	18
BL05452	17
BL16359	3
BL96029	24
BL90788	9
BL12993	12
BL02281	13
BL95508	24
BL31532	23
BL06384	4
BL21118	9
BL19402	22
BL24380	2
BL16097	1
BL17149	11
BL09554	11
BL02597	22
BL03932	10
BL08990	16
BL24942	12
BL06203	21
BL10502	4
BL16601	15
BL21381	19
BL14366	9
BL15213	13
BL04782	17
BL00560	7
BL09742	13
BL97373	11
BL23354	12
BL08875	12
BL22805	28
BL13344	12
BL14873	7
BL02747	5
BL18238	23
BL12701	25
BL15864	16
BL02093	13
BL05321	24
BL01236	26
BL20056	28
BL06367	10
BL17357	15
BL73477	9
BL04477	20
BL10195	7
BL05964	28
BL20360	3
BL21293	9
BL22315	24
BL14514	10
BL08256	15
BL02014	13
BL18298	13
BL06047	2
BL24600	7
BL02566	27
BL13580	26
BL22960	18
BL64218	16
BL95815	5
BL20242	10
BL23280	4
BL19390	3
BL07234	1
BL95514	24
BL15568	27
BL20670	23
BL16857	18
BL04112	21
BL08263	19
BL97362	5
BL02325	13
BL95097	8
BL71646	9
BL08498	26
BL03833	13
BL18196	3
BL23427	6
BL17651	28
BL11425	18
BL02899	9
BL04179	24
BL18435	21
BL08662	22
BL03526	7
BL05669	25
BL11024	1
BL10785	15
BL02744	3
BL07635	1
BL16460	28
BL06327	12
BL23195	5
BL22384	20
BL03006	12
BL04584	8
BL15641	7
BL08865	21
BL74012	2
BL16897	28
BL18467	24
BL18655	8
BL82503	16
BL06373	5
BL11743	5
BL04983	5
BL14322	13
BL12019	18
BL09550	23
BL11235	1
BL04405	9
BL17435	9
BL23938	25
BL01956	5
BL16007	6
BL01919	19
BL02548	3
BL09454	5
BL15698	25
BL10467	25
BL48454	25
BL15825	4
BL22377	19
BL21153	9
BL20202	23
BL95586	8
BL15103	12
BL96947	4
BL18458	6
BL20994	7
BL10591	19
BL18378	8
BL02651	12
BL09158	14
BL17953	8
BL08983	5
BL17991	4
BL22052	13
BL23682	1
BL95052	18
BL15956	13
BL21972	25
BL17912	9
BL12407	26
BL02598	16
BL16915	12
BL23127	19
BL17525	18
BL13764	26
BL12482	18
BL13878	25
BL13437	2
BL22249	5
BL01924	8
BL12161	18
BL17084	21
BL17053	24
BL10344	5
BL01543	16
BL08277	10
BL07912	24
BL06589	10
BL04520	19
BL14469	4
BL00502	28
BL07956	4
BL23263	28
BL04589	16
BL23053	17
BL03971	23
BL20854	3
BL19588	9
BL20941	14
BL10116	28
BL05076	25
BL13347	5
BL00152	6
BL14823	8
BL14695	10
BL01412	28
BL14844	16
BL14163	23
BL12415	16
BL00813	25
BL53437	9
BL07120	9
BL15648	28
BL95869	1
BL14144	19
BL11532	6
BL06840	26
BL03953	16
BL12079	1
BL22226	4
BL07799	25
BL13472	11
BL19498	26
BL06880	19
BL16796	12
BL16436	9
BL18603	12
BL00752	10
BL23770	3
BL20632	3
BL05577	26
BL18497	2
BL22751	24
BL14114	26
BL12906	5
BL12854	5
BL22014	3
BL23514	12
BL17704	13
BL10061	18
BL96078	23
BL13313	9
BL02748	2
BL04342	12
BL12119	20
BL01635	12
BL01389	7
BL13709	28
BL07571	21
BL14036	12
BL05991	16
BL10390	2
BL12916	16
BL00156	16
BL03125	4
BL21048	24
BL95936	23
BL21869	28
BL15113	2
BL20117	23
BL03474	20
BL06157	20
BL04996	8
BL06205	27
BL01810	3
BL23965	11
BL00652	23
BL09622	27
BL13305	5
BL95366	26
BL18228	14
BL23250	21
BL38750	13
BL21091	8
BL14747	19
BL14520	20
BL24480	26
BL81175	10
BL21073	25
BL74980	28
BL01429	23
BL09249	12
BL15018	26
BL02340	27
BL10847	26
BL72351	4
BL14167	25
BL58667	24
BL04749	19
BL05512	4
BL20580	28
BL96527	9
BL10219	24
BL18846	24
BL23517	27
BL02159	13
BL11863	1
BL17519	2
BL01656	13
BL04550	16
BL20677	21
BL20833	21
BL20981	1
BL01664	10
BL01257	25
BL06879	1
BL23559	5
BL24292	22
BL07310	18
BL15818	18
BL21774	18
BL02301	13
BL14540	6
BL09612	18
BL71162	12
BL22459	28
BL17480	10
BL03371	9
BL09427	8
BL12735	17
BL12763	8
BL18525	10
BL09596	19
BL08120	13
BL10147	15
BL96006	10
BL04500	5
BL12725	13
BL95301	23
BL21174	21
BL24421	21
BL95455	23
BL13937	5
BL05827	28
BL10641	7
BL83391	5
BL96057	12
BL61396	5
BL18301	21
BL15873	21
BL14576	21
BL04694	5
BL20308	5
BL95595	5
BL10961	26
BL20986	9
BL12422	4
BL24084	10
BL07229	20
BL19816	21
BL95353	23
BL04790	14
BL14963	20
BL05770	16
BL96650	27
BL04393	20
BL20057	2
BL05695	2
BL01534	14
BL03255	21
BL22333	19
BL11196	8
BL05511	24
BL12675	19
BL09994	27
BL14538	14
BL16454	2
BL24547	11
BL01566	26
BL22764	12
BL00443	20
BL00694	5
BL24992	9
BL20776	10
BL23604	18
BL09171	23
BL37948	11
BL19950	3
BL11983	11
BL17927	10
BL18057	28
BL10841	11
BL18448	4
BL02296	27
BL06921	22
BL02652	23
BL23545	14
BL16230	21
BL14683	7
BL19890	9
BL03922	3
BL18683	3
BL12700	18
BL06833	9
BL96838	8
BL13690	6
BL04431	4
BL15273	6
BL15219	27
BL95539	21
BL16449	9
BL05358	7
BL12657	17
BL08584	12
BL11378	21
BL16630	10
BL00179	6
BL13789	12
BL17474	19
BL07475	26
BL07548	16
BL19715	21
BL05772	28
BL12837	22
BL04709	3
BL20277	9
BL00107	19
BL19432	20
BL19639	4
BL15571	5
BL07304	5
BL11258	28
BL09723	12
BL06011	27
BL15310	28
BL20666	24
BL24124	10
BL00299	16
BL95099	23
BL12902	4
BL19368	18
BL18272	21
BL23961	28
BL13232	3
BL40469	11
BL09605	24
BL23128	18
BL14460	2
BL20436	26
BL95674	6
BL10255	9
BL08103	5
BL81492	5
BL04955	17
BL06216	20
BL02542	27
BL24571	23
BL18614	25
BL01982	9
BL13535	18
BL18433	1
BL23081	14
BL13237	13
BL07039	20
BL19925	4
BL22869	2
BL01557	5
BL23777	2
BL14057	7
BL53875	13
BL95925	21
BL07910	8
BL15340	18
BL18890	24
BL05509	13
BL11089	27
BL04856	13
BL18526	1
BL85638	16
BL05228	10
BL23377	27
BL20595	27
BL96718	21
BL40477	11
BL12805	23
BL22300	10
BL03029	27
BL20274	24
BL20596	28
BL06867	19
BL04788	21
BL19953	3
BL19804	25
BL89463	8
BL09082	21
BL01529	27
BL17396	16
BL06824	24
BL16039	11
BL07318	9
BL09095	20
BL13509	25
BL03424	24
BL08653	3
BL18514	3
BL97473	1
BL13745	27
BL13523	15
BL11846	2
BL26950	24
BL16636	1
BL12881	16
BL95302	12
BL05825	12
BL75855	22
BL95525	4
BL21164	6
BL07240	21
BL05043	13
BL12721	23
BL12828	2
BL15361	24
BL95891	24
BL00431	7
BL15179	14
BL01443	21
BL15309	3
BL16674	18
BL20859	28
BL23989	6
BL14060	14
BL21775	8
BL21348	23
BL05033	18
BL13661	17
BL01820	4
BL18381	28
BL04918	28
BL21617	26
BL04135	19
BL20363	25
BL06533	20
BL96463	5
BL16385	7
BL03012	25
BL06773	8
BL22343	21
BL04540	17
BL08550	25
BL16468	26
BL13497	13
BL11765	8
BL18886	20
BL14545	4
BL11280	10
BL00854	24
BL17284	4
BL16418	11
BL06015	16
BL23009	2
BL11872	23
BL19208	9
BL13714	21
BL01451	12
BL02292	1
BL32062	21
BL22152	28
BL11012	23
BL21937	22
BL15346	9
BL08787	27
BL18997	14
BL13798	28
BL17769	2
BL00319	27
BL07902	11
BL15043	1
BL12400	9
BL18924	25
BL20086	22
BL10537	23
BL06114	21
BL10924	3
BL23210	25
BL13635	28
BL18812	28
BL14407	11
BL00242	12
BL08119	10
BL08560	26
BL07829	11
BL13575	1
BL00143	21
BL00758	10
BL17335	24
BL03763	9
BL12924	10
BL04226	3
BL18867	7
BL13707	24
BL04532	21
BL10168	19
BL05042	4
BL24369	2
BL01288	9
BL80998	1
BL13845	19
BL08252	6
BL20193	21
BL18994	19
BL97461	24
BL06650	16
BL96592	10
BL19492	1
BL21257	4
BL20295	10
BL30431	13
BL14632	16
BL14126	14
BL12014	12
BL19783	6
BL13505	12
BL17996	5
BL52560	26
BL11554	3
BL17838	10
BL00302	16
BL09873	4
BL04841	26
BL07193	4
BL04649	27
BL14404	13
BL23200	24
BL24079	16
BL44675	8
BL05384	14
BL15936	16
BL95133	23
BL04047	22
BL19802	15
BL19974	21
BL19385	20
BL96299	4
BL14102	10
BL18659	12
BL07180	12
BL24623	18
BL18665	10
BL05023	11
BL20069	20
BL09704	22
BL02262	23
BL01466	16
BL23610	21
BL15851	19
BL02466	16
BL14128	14
BL24806	5
BL14173	21
BL16811	24
BL01762	20
BL08420	20
BL04288	16
BL01111	18
BL18777	28
BL95872	26
BL12201	1
BL10925	9
BL11018	22
BL10966	11
BL06882	4
BL95540	12
BL19105	12
BL09312	25
BL27974	16
BL96618	4
BL09189	26
BL12097	5
BL22509	12
BL07345	9
BL00649	18
BL24726	5
BL15529	27
BL03555	5
BL66494	9
BL97408	13
BL19034	26
BL05268	1
BL96088	24
BL95218	2
BL10102	9
BL07290	27
BL22439	8
BL07238	3
BL20462	25
BL15124	14
BL15477	22
BL11938	6
BL00832	13
BL04508	20
BL07387	11
BL05551	23
BL04548	28
BL08023	9
BL95454	20
BL05026	9
BL22293	6
BL16235	24
BL05613	26
BL02027	12
BL64718	14
BL19764	13
BL17379	16
BL95852	15
BL04498	28
BL19112	24
BL10856	19
BL05055	3
BL24680	27
BL00153	21
BL03554	21
BL06570	25
BL14227	21
BL11898	25
BL07501	23
BL16349	19
BL15108	9
BL09100	25
BL00875	16
BL20926	28
BL14451	3
BL03563	16
BL24649	2
BL01476	28
BL22958	26
BL09897	10
BL02684	1
BL06247	4
BL21412	4
BL18060	27
BL96226	28
BL04110	24
BL19356	27
BL13430	12
BL07244	16
BL07054	18
BL14449	23
BL07454	26
BL22433	12
BL22215	5
BL06719	24
BL19917	28
BL08538	10
BL19195	21
BL05746	10
BL21414	3
BL07640	23
BL05582	24
BL81557	13
BL66680	26
BL28119	5
BL06340	1
BL02394	10
BL06381	28
BL11972	21
BL08524	16
BL12810	10
BL21509	20
BL23034	23
BL19110	14
BL07010	21
BL14969	20
BL11308	12
BL61983	24
BL24194	16
BL23954	19
BL00949	17
BL26956	18
BL06668	7
BL12534	16
BL15431	25
BL11526	14
BL19522	1
BL08773	28
BL24741	4
BL23467	28
BL10092	26
BL09138	26
BL10916	5
BL10144	3
BL16997	1
BL18785	28
BL05518	24
BL24111	21
BL15881	1
BL01483	27
BL04213	14
BL01246	28
BL23758	6
BL58801	18
BL01179	24
BL49873	5
BL17919	24
BL08266	28
BL12588	11
BL01889	25
BL14598	26
BL11617	21
BL13512	4
BL14136	2
BL04294	4
BL05999	15
BL20928	2
BL02883	3
BL11474	11
BL18661	24
BL15502	16
BL06540	7
BL12724	21
BL88634	4
BL95618	6
BL00679	14
BL15666	22
BL08548	1
BL23618	3
BL13815	27
BL14527	16
BL17891	17
BL00301	12
BL21745	24
BL08173	6
BL15584	15
BL07110	9
BL04812	19
BL69867	14
BL08499	27
BL20164	19
BL24379	24
BL09872	22
BL00981	5
BL09836	5
BL17990	8
BL04676	7
BL18933	10
BL01238	22
BL18684	6
BL09366	5
BL02772	16
BL21830	20
BL23828	13
BL10435	28
BL24482	23
BL08195	28
BL20509	1
BL11928	14
BL02939	3
BL15551	20
BL61879	14
BL04847	10
BL09400	28
BL06264	23
BL19219	13
BL10342	3
BL12183	27
BL19957	23
BL14335	20
BL19981	6
BL15741	14
BL01100	27
BL02581	4
BL14365	2
BL03392	19
BL00419	28
BL12719	13
BL09766	3
BL01601	24
BL20774	26
BL11391	7
BL17140	10
BL20551	24
BL24608	28
BL06298	3
BL20426	5
BL01908	19
BL00121	10
BL20001	26
BL53087	23
BL08704	11
BL23116	24
BL20565	1
BL96904	24
BL19908	21
BL01479	13
BL22338	16
BL10426	28
BL15319	27
BL05742	9
BL00397	23
BL19941	12
BL11949	21
BL21196	25
BL13195	16
BL13076	14
BL10780	11
BL19693	17
BL15938	16
BL13048	4
BL95839	3
BL07795	19
BL09602	5
BL06149	8
BL06875	19
BL01580	11
BL08992	3
BL04806	20
BL04137	16
BL00957	14
BL08618	9
BL08378	28
BL13398	14
BL96196	24
BL95072	21
BL24882	25
BL19186	8
BL14021	12
BL14151	19
BL13704	6
BL20940	5
BL05473	7
BL07320	23
BL15720	20
BL04687	8
BL05542	3
BL02832	18
BL96458	5
BL01871	20
BL17513	28
BL97438	25
BL05943	12
BL13718	10
BL00833	23
BL06691	4
BL19568	25
BL15348	27
BL06475	10
BL10436	19
BL11900	8
BL03538	28
BL05423	20
BL22455	16
BL03468	3
BL21769	9
BL17780	28
BL15254	27
BL18390	26
BL07547	24
BL04963	24
BL08503	9
BL04103	28
BL02606	12
BL50878	25
BL18208	10
BL08063	28
BL24859	25
BL13203	4
BL01781	5
BL24364	12
BL01300	8
BL12992	6
BL16541	14
BL88404	24
BL24629	10
BL02031	28
BL95768	26
BL08251	24
BL03945	16
BL22197	10
BL13701	16
BL01540	2
BL96865	22
BL02463	15
BL15512	12
BL07456	22
BL04635	10
BL29477	22
BL05522	5
BL17440	7
BL22224	22
BL95923	5
BL96149	25
BL09142	16
BL24186	24
BL23295	10
BL17646	21
BL16336	27
BL23851	11
BL95930	22
BL09233	3
BL17597	22
BL26664	26
BL95731	14
BL19519	5
BL02736	13
BL17354	13
BL10821	21
BL63877	10
BL07355	9
BL05237	24
BL21905	2
BL06592	1
BL10100	23
BL08328	7
BL12822	10
BL18213	9
BL09463	19
BL03528	6
BL89092	25
BL16669	28
BL09980	28
BL15643	12
BL03834	15
BL00932	11
BL05973	24
BL01568	1
BL02525	1
BL15031	8
BL07019	10
BL08595	24
BL13848	26
BL00145	15
BL17312	28
BL11366	25
BL00014	1
BL02167	25
BL10523	22
BL09619	28
BL01309	8
BL00218	27
BL96167	5
BL15620	4
BL23303	4
BL03765	19
BL12960	8
BL03787	6
BL18092	6
BL22431	5
BL15625	14
BL17017	6
BL04077	27
BL13761	5
BL10896	3
BL04814	10
BL22842	28
BL20840	28
BL05453	4
BL24688	24
BL09196	11
BL06953	18
BL15967	6
BL01787	28
BL13036	20
BL17138	12
BL02914	15
BL15057	5
BL01493	13
BL24255	3
BL59323	24
BL00922	1
BL06038	11
BL02710	2
BL09318	16
BL08028	1
BL22613	4
BL23345	18
BL04344	25
BL13142	3
BL14309	25
BL18981	24
BL11306	23
BL10373	16
BL12980	3
BL22072	26
BL07893	23
BL11867	15
BL11943	2
BL84217	22
BL05905	20
BL03087	19
BL08046	5
BL11922	24
BL23923	26
BL19045	4
BL17023	24
BL15838	11
BL05143	7
BL10432	10
BL20667	19
BL24814	20
BL01459	11
BL95729	10
BL11266	1
BL65289	19
BL95619	8
BL15826	16
BL08411	3
BL14865	10
BL95885	11
BL95219	5
BL03776	5
BL10899	18
BL13943	15
BL17746	20
BL19869	4
BL16444	18
BL12302	12
BL95339	5
BL13830	3
BL21680	26
BL00290	18
BL08301	12
BL00797	26
BL07684	22
BL14818	4
BL46622	5
BL14551	23
BL00110	8
BL14850	28
BL31298	5
BL16540	14
BL13092	6
BL16228	10
BL05045	16
BL07899	6
BL40122	8
BL95997	15
BL15450	10
BL16920	12
BL08264	5
BL17450	10
BL16773	19
BL96168	5
BL04851	5
BL00895	10
BL04390	24
BL19616	6
BL16413	10
BL22733	8
BL03477	26
BL11730	16
BL58595	16
BL22330	5
BL16657	22
BL20406	28
BL06160	19
BL06710	22
BL22155	20
BL09134	26
BL82595	8
BL14489	2
BL23709	28
BL24039	14
BL03213	1
BL17248	11
BL21460	16
BL22354	4
BL02658	1
BL02965	16
BL20872	21
BL08008	1
BL23350	16
BL02705	11
BL04417	8
BL18714	18
BL03141	22
BL11920	23
BL18494	26
BL24088	28
BL14799	8
BL21024	3
BL14652	21
BL95475	4
BL06237	5
BL06694	24
BL14372	13
BL02545	5
BL18537	14
BL19781	28
BL14890	22
BL95162	24
BL10349	25
BL07035	7
BL24217	23
BL00953	23
BL10890	28
BL16584	15
BL51965	27
BL20460	17
BL01088	7
BL10320	23
BL18464	12
BL15022	18
BL96946	5
BL13023	24
BL01953	21
BL18794	28
BL20065	4
BL07253	26
BL24308	2
BL23721	11
BL00554	28
BL22549	10
BL24507	22
BL03808	13
BL20598	16
BL12058	10
BL11799	27
BL17197	14
BL11673	28
BL23707	10
BL03556	14
BL21356	22
BL25638	5
BL17037	20
BL05792	12
BL11371	14
BL13459	28
BL20067	9
BL11747	9
BL01963	24
BL18761	21
BL16214	13
BL06913	12
BL20831	8
BL69470	26
BL17731	25
BL14465	21
BL07007	23
BL08591	16
BL19755	28
BL02464	3
BL36313	5
BL18871	24
BL12020	24
BL00437	5
BL30136	13
BL10250	27
BL20186	18
BL08177	13
BL21235	12
BL20621	20
BL19159	21
BL20017	12
BL19868	19
BL31812	27
BL03574	17
BL14838	3
BL02543	19
BL17692	16
BL09616	16
BL07583	28
BL97038	25
BL15160	22
BL08073	11
BL06834	12
BL21807	8
BL16430	28
BL02917	5
BL15388	10
BL16710	11
BL49034	25
BL22067	20
BL10978	14
BL18255	12
BL14647	5
BL00159	27
BL00973	27
BL21660	20
BL18923	28
BL06344	8
BL95076	6
BL09886	24
BL16100	24
BL95289	26
BL14547	24
BL13629	14
BL24660	11
BL08843	26
BL02308	21
BL23918	6
BL09942	13
BL03882	10
BL11150	15
BL01003	23
BL19220	8
BL05601	13
BL12932	28
BL23424	10
BL04058	24
BL10216	15
BL12169	1
BL20851	9
BL02898	8
BL15434	10
BL03797	12
BL82343	11
BL13510	11
BL19395	5
BL95451	5
BL06544	4
BL11781	18
BL12191	28
BL23183	8
BL24701	19
BL16015	24
BL03066	1
BL22441	3
BL12811	5
BL05098	20
BL16761	28
BL22924	5
BL22717	3
BL16378	21
BL22242	1
BL14639	3
BL16527	3
BL07405	3
BL19371	9
BL96093	24
BL00782	12
BL10509	9
BL22191	19
BL21984	21
BL09465	24
BL09468	12
BL02146	21
BL24858	11
BL23934	11
BL19286	10
BL14331	27
BL23554	23
BL05800	6
BL00209	6
BL95415	26
BL23801	21
BL17046	5
BL05136	8
BL24260	1
BL02490	19
BL09688	5
BL24686	28
BL14045	26
BL09449	12
BL31135	23
BL18358	3
BL07419	1
BL15190	13
BL18455	28
BL00940	28
BL21402	12
BL20586	10
BL17447	18
BL14577	15
BL95569	24
BL04194	6
BL23991	4
BL22832	23
BL12044	10
BL12397	3
BL19986	17
BL13818	4
BL00553	16
BL09165	18
BL20497	8
BL22916	5
BL03853	8
BL12056	12
BL19075	10
BL58905	22
BL06035	23
BL11514	27
BL19620	14
BL02512	24
BL13982	19
BL02805	10
BL00288	12
BL09401	12
BL00065	18
BL10430	22
BL12544	27
BL14499	20
BL07681	15
BL20837	8
BL20433	11
BL14377	11
BL06370	7
BL03680	19
BL09871	5
BL25007	3
BL16085	20
BL23333	23
BL19862	10
BL05780	20
BL18903	14
BL09499	28
BL02302	24
BL20366	2
BL19291	24
BL00131	24
BL07884	26
BL16141	8
BL95253	8
BL05901	19
BL01017	4
BL10164	5
BL01846	14
BL21914	14
BL18441	22
BL08903	9
BL22331	3
BL04747	18
BL06797	22
BL06503	22
BL22890	9
BL20697	28
BL95354	5
BL01816	1
BL12163	19
BL95106	13
BL19501	20
BL20649	6
BL03425	24
BL20077	14
BL22694	24
BL06532	7
BL95829	2
BL16004	28
BL09502	11
BL04957	19
BL17180	8
BL04512	25
BL05365	1
BL09021	23
BL11847	8
BL15751	3
BL18601	19
BL10833	12
BL13441	9
BL25183	9
BL05592	19
BL15242	25
BL95545	6
BL11330	12
BL08688	10
BL64280	13
BL12125	28
BL00144	14
BL09864	21
BL05523	15
BL13679	16
BL18393	26
BL17536	21
BL05102	4
BL14754	25
BL23135	20
BL08775	17
BL08586	16
BL17830	5
BL15038	13
BL11861	10
BL09919	16
BL60046	17
BL19893	9
BL95853	12
BL07431	21
BL16928	5
BL02396	18
BL14664	5
BL20984	3
BL17569	13
BL12145	27
BL12950	12
BL95762	12
BL16730	4
BL16825	5
BL08973	3
BL12146	10
BL01264	24
BL00487	8
BL02381	16
BL01410	3
BL03482	11
BL02076	27
BL01202	28
BL29660	12
BL13531	21
BL01636	20
BL22865	4
BL08281	13
BL03728	12
BL13640	1
BL90352	5
BL17910	10
BL04830	1
BL20971	13
BL00721	16
BL05293	3
BL09754	13
BL10011	16
BL95096	8
BL22992	4
BL12118	11
BL97145	11
BL17722	6
BL00219	6
BL06190	20
BL06588	24
BL15965	18
BL01047	28
BL40965	12
BL11909	23
BL00809	13
BL22655	22
BL24492	17
BL19043	21
BL11795	20
BL12375	5
BL24272	24
BL24841	14
BL21674	16
BL11395	5
BL13223	14
BL19033	3
BL10197	4
BL38530	5
BL07139	5
BL14922	24
BL95378	11
BL96891	26
BL20674	20
BL17915	10
BL17641	24
BL02732	8
BL01992	6
BL13681	21
BL12011	7
BL36100	27
BL95448	5
BL20412	12
BL16408	21
BL00787	20
BL21908	1
BL06614	1
BL96922	24
BL22065	5
BL23218	27
BL09642	6
BL04504	17
BL20190	27
BL03456	13
BL17745	13
BL03985	11
BL15202	5
BL24269	5
BL04442	5
BL14698	12
BL13280	10
BL20414	7
BL03990	8
BL20119	26
BL07605	23
BL83587	3
BL95296	28
BL04384	12
BL95589	5
BL02060	23
BL06756	10
BL23348	22
BL96816	10
BL07171	24
BL14992	9
BL18327	10
BL24994	5
BL23160	21
BL20203	5
BL23921	8
BL96298	27
BL10995	22
BL07160	16
BL02962	25
BL23027	28
BL02095	9
BL96109	5
BL22122	13
BL13208	6
BL22912	10
BL09890	28
BL07921	11
BL15367	20
BL06917	12
BL22507	12
BL23148	1
BL11022	6
BL35839	12
BL23252	16
BL20564	22
BL21451	4
BL63787	13
BL05670	3
BL19829	27
BL08695	22
BL96022	5
BL97003	3
BL03259	22
BL24256	26
BL17048	2
BL17245	13
BL95130	10
BL18915	23
BL07252	16
BL96579	5
BL23098	22
BL14273	10
BL23695	27
BL18357	10
BL16583	6
BL03744	7
BL15130	2
BL17369	28
BL14504	21
BL12649	3
BL81144	14
BL95064	12
BL09236	26
BL18895	8
BL96067	8
BL09534	19
BL09552	7
BL01707	3
BL85814	14
BL03106	6
BL23761	18
BL95895	13
BL21552	14
BL07630	28
BL03155	23
BL05260	22
BL22710	20
BL95742	5
BL40617	14
BL20991	6
BL17058	5
BL11158	20
BL60781	25
BL07866	13
BL07242	20
BL15430	22
BL97414	28
BL02150	22
BL04961	28
BL19328	27
BL14416	12
BL22955	4
BL19077	24
BL19749	27
BL21090	11
BL13408	9
BL17487	23
BL04627	4
BL20036	23
BL12699	5
BL11549	19
BL16815	10
BL95739	5
BL19114	8
BL19793	21
BL03840	17
BL21666	5
BL10088	14
BL42782	10
BL08916	24
BL15258	24
BL14974	11
BL96047	16
BL10037	19
BL10628	27
BL01581	24
BL25974	13
BL24462	5
BL11182	3
BL01710	8
BL08866	27
BL06807	8
BL39656	5
BL95757	11
BL96796	5
BL23420	10
BL13396	28
BL51960	5
BL13026	7
BL13940	22
BL21027	18
BL95767	26
BL11102	5
BL01984	5
BL19903	3
BL14217	26
BL02533	4
BL20156	2
BL20702	3
BL14924	19
BL97148	4
BL95113	24
BL95640	22
BL15944	24
BL10658	28
BL23006	26
BL23647	18
BL07703	11
BL44844	25
BL04523	13
BL08365	23
BL20178	6
BL03799	10
BL24083	14
BL23575	10
BL09028	27
BL21151	22
BL97047	24
BL09476	11
BL11957	5
BL02795	14
BL22597	25
BL23526	11
BL95657	11
BL08298	12
BL01711	5
BL22040	20
BL05040	23
BL08959	12
BL08000	13
BL15630	8
BL05525	11
BL09347	20
BL24172	5
BL11440	11
BL75213	11
BL02007	18
BL18192	28
BL19553	1
BL11449	9
BL95335	5
BL23241	11
BL06645	27
BL95452	6
BL12538	21
BL19026	14
BL95252	14
BL95718	5
BL18592	13
BL18417	1
BL10608	26
BL03761	11
BL04488	8
BL21516	10
BL10021	20
BL20590	10
BL12789	18
BL96118	11
BL97439	15
BL09093	6
BL16764	1
BL21574	13
BL24160	2
BL23612	13
BL21728	12
BL17455	3
BL04354	10
BL24873	27
BL02367	5
BL95038	5
BL06758	10
BL11630	18
BL07590	7
BL23261	22
BL95858	8
BL96892	5
BL21172	10
BL95380	5
BL06447	12
BL18318	6
BL12078	24
BL86379	14
BL24607	11
BL09785	23
BL00535	28
BL24273	5
BL10962	1
BL00852	10
BL12521	28
BL17210	21
BL16632	5
BL95450	23
BL04604	27
BL23817	13
BL12454	16
BL03169	26
BL02056	14
BL09703	10
BL04368	18
BL95403	5
BL24847	8
BL11406	16
BL05322	10
BL23352	17
BL23715	27
BL09728	28
BL18048	26
BL08278	3
BL22006	5
BL21592	25
BL04781	17
BL22187	11
BL95107	26
BL09357	10
BL16419	21
BL13331	15
BL17344	8
BL15589	10
BL19052	15
BL77501	11
BL96162	5
BL01344	5
BL22782	13
BL01756	20
BL22168	6
BL18826	12
BL95881	1
BL41069	23
BL19334	12
BL96961	8
BL04300	22
BL95611	11
BL61372	27
BL03875	21
BL02740	23
BL14000	22
BL15335	12
BL20422	17
BL09154	18
BL16620	6
BL19951	16
BL15433	11
BL54586	13
BL03773	11
BL08156	3
BL05406	17
BL95348	5
BL24145	14
BL14300	5
BL24765	26
BL20151	11
BL07278	24
BL03480	4
BL95722	10
BL11848	10
BL20592	23
BL14124	6
BL02474	6
BL12891	26
BL06380	8
BL10728	9
BL19897	26
BL95449	5
BL09759	5
BL06803	5
BL05651	12
BL01091	3
BL24706	4
BL00124	12
BL01839	9
BL23537	13
BL15098	1
BL14027	11
BL21372	14
BL16151	8
BL06584	22
BL12298	22
BL16290	27
BL03242	5
BL21220	14
BL01292	25
BL22391	28
BL05391	2
BL14456	5
BL16712	24
BL14457	5
BL08799	5
BL02554	24
BL29045	18
BL12688	10
BL07438	5
BL16658	23
BL96752	23
BL15505	3
BL00468	16
BL22503	8
BL19562	16
BL18106	12
BL95924	5
BL15174	27
BL11079	3
BL07170	28
BL21932	12
BL02207	8
BL05479	7
BL12349	10
BL17572	14
BL11558	2
BL08771	28
BL09080	8
BL00435	22
BL00158	3
BL02783	12
BL18111	6
BL09228	5
BL04276	23
BL95148	5
BL21432	24
BL20384	23
BL23193	16
BL06993	14
BL07165	5
BL08611	2
BL01882	10
BL01400	16
BL07769	5
BL17371	24
BL17401	10
BL08022	6
BL03432	14
BL15313	19
BL05508	18
BL16864	20
BL08131	25
BL31796	13
BL16653	2
BL11588	11
BL95921	24
BL06806	9
BL17848	24
BL02017	10
BL12198	5
BL08477	19
BL05204	23
BL03688	8
BL07435	12
BL00993	10
BL10532	6
BL15154	14
BL05735	9
BL24869	18
BL96036	23
BL13360	13
BL06777	8
BL05249	16
BL14907	1
BL02444	5
BL02000	27
BL20088	28
BL95507	5
BL04065	21
BL18679	9
BL19991	16
BL03324	10
BL08222	12
BL04672	19
BL09225	26
BL07223	7
BL23518	15
BL06133	28
BL00368	10
BL10367	5
BL17111	3
BL96400	5
BL17798	5
BL28798	8
BL03038	9
BL90078	20
BL10341	1
BL22472	1
BL10976	14
BL01879	28
BL96348	5
BL14765	11
BL10868	26
BL95217	24
BL10528	13
BL08605	24
BL07369	7
BL15435	6
BL01569	12
BL96110	1
BL17481	11
BL10089	13
BL10959	2
BL15901	9
BL23985	3
BL16914	5
BL09979	11
BL15272	15
BL00703	23
BL65502	11
BL19459	22
BL95008	5
BL21143	21
BL15264	12
BL01370	14
BL11065	23
BL04510	25
BL04921	18
BL10041	5
BL23674	23
BL07974	25
BL14248	8
BL19382	16
BL10029	11
BL08214	21
BL09731	12
BL13872	6
BL21554	12
BL07990	5
BL15115	12
BL22538	11
BL08804	5
BL05910	10
BL22363	27
BL97367	28
BL11550	24
BL18507	22
BL16742	24
BL17295	24
BL18479	11
BL09903	21
BL04450	12
BL21420	10
BL13573	10
BL11021	10
BL07790	13
BL10140	24
BL22415	25
BL96879	12
BL96466	5
BL16655	1
BL16126	5
BL14644	9
BL09964	3
BL09247	5
BL10286	19
BL25257	11
BL17009	5
BL20053	13
BL64015	14
BL02520	25
BL08837	11
BL13882	9
BL16181	5
BL12007	24
BL20673	28
BL12610	22
BL14180	1
BL62767	14
BL01974	1
BL02863	18
BL31677	21
BL03731	5
BL11968	28
BL96398	5
BL04078	23
BL19932	8
BL11301	10
BL05167	8
BL12424	28
BL14616	26
BL05367	20
BL13835	5
BL03816	28
BL22093	21
BL11849	24
BL01462	13
BL06082	16
BL00640	24
BL11542	5
BL20993	16
BL23927	20
BL03300	23
BL95474	24
BL07875	4
BL95006	20
BL08912	23
BL10706	12
BL20794	9
BL24893	5
BL07776	18
BL21797	16
BL13178	2
BL09011	23
BL23504	12
BL16665	5
BL05327	6
BL22206	24
BL16803	22
BL17383	5
BL00708	11
BL00343	25
BL05253	6
BL17924	24
BL03534	26
BL08612	26
BL10464	3
BL95414	24
BL96880	14
BL10306	28
BL21862	15
BL14031	13
BL20732	14
BL07506	12
BL03580	15
BL16650	26
BL09118	23
BL20301	5
BL14697	14
BL19537	20
BL95866	11
BL19587	24
BL97222	5
BL03749	14
BL08280	5
BL17024	8
BL13961	10
BL11442	6
BL14988	9
BL13590	5
BL21566	22
BL05893	13
BL47190	8
BL24335	28
BL01212	19
BL12899	4
BL95862	28
BL01327	3
BL28019	14
BL02454	14
BL01539	5
BL05702	21
BL04594	5
BL07819	10
BL22917	26
BL15343	1
BL22173	9
BL23353	8
BL17424	11
BL08728	5
BL00097	10
BL19666	21
BL10391	12
BL23448	14
BL78231	14
BL09370	14
BL13939	3
BL12673	10
BL19610	12
BL31539	21
BL71000	15
BL03151	22
BL00568	17
BL23670	8
BL09720	23
BL15749	27
BL00369	9
BL22080	24
BL15926	21
BL96414	24
BL23040	1
BL04097	5
BL16740	10
BL03800	5
BL00989	10
BL06019	3
BL17653	8
BL02886	5
BL90907	14
BL96101	5
BL07028	18
BL03561	24
BL11131	10
BL03216	23
BL20864	11
BL22068	20
BL35369	7
BL15259	15
BL31423	6
BL96405	5
BL06831	22
BL10670	6
BL05041	8
BL14821	5
BL09580	3
BL95957	23
BL02909	13
BL01570	10
BL00741	19
BL24397	27
BL24881	18
BL00958	16
BL01546	21
BL00324	10
BL07016	19
BL09101	11
BL95543	6
BL08088	10
BL24190	28
BL12034	14
BL16528	11
BL00195	26
BL04407	18
BL95243	13
BL09478	11
BL05873	8
BL05693	27
BL15661	26
BL05089	6
BL04489	11
BL19818	24
BL18410	26
BL23216	11
BL10298	24
BL18055	10
BL01872	13
BL16054	6
BL12025	18
BL02248	26
BL15408	10
BL96354	5
BL07780	11
BL28317	19
BL19658	4
BL16185	9
BL95738	8
BL18581	6
BL22598	22
BL71263	25
BL09367	14
BL07589	11
BL03627	26
BL07494	5
BL20215	11
BL04731	10
BL07073	15
BL12821	19
BL20737	10
BL15484	12
BL05420	8
BL20420	27
BL23394	28
BL22124	12
BL96102	25
BL06549	11
BL16572	28
BL19581	7
BL14726	16
BL18193	10
BL12386	20
BL91372	10
BL17096	5
BL01252	14
BL18506	10
BL52172	16
BL04579	11
BL10716	6
BL03615	12
BL01050	22
BL08505	24
BL09155	16
BL13875	8
BL12505	19
BL95765	3
BL08575	26
BL01858	12
BL10218	7
BL05252	23
BL03726	5
BL18215	25
BL02943	10
BL07832	7
BL14148	22
BL08011	10
BL27239	14
BL21029	28
BL00365	19
BL19626	14
BL15153	6
BL06265	6
BL20463	3
BL42117	16
BL95848	5
BL22218	12
BL14117	14
BL40958	28
BL20988	9
BL07174	10
BL04623	13
BL12089	5
BL04019	22
BL06763	24
BL79048	3
BL95410	12
BL04263	26
BL19346	6
BL02200	4
BL18932	24
BL14278	9
BL19831	14
BL15960	5
BL01867	5
BL05110	8
BL21521	6
BL96086	5
BL78736	5
BL02738	12
BL95909	10
BL10835	26
BL14001	5
BL21844	12
BL13548	5
BL20770	13
BL04439	11
BL23596	14
BL03654	28
BL10565	13
BL97225	10
BL03114	23
BL10063	20
BL04811	13
BL04206	11
BL10345	20
BL32350	4
BL05753	16
BL00272	11
BL06911	7
BL14392	4
BL34459	11
BL00018	20
BL17255	27
BL00898	24
BL22241	9
BL07299	16
BL12246	16
BL09085	10
BL00879	11
BL23580	26
BL09749	13
BL15807	5
BL18218	5
BL12982	25
BL15800	8
BL96068	24
BL95868	10
BL06487	10
BL30270	14
BL20775	3
BL23572	21
BL15007	14
BL18519	12
BL95361	28
BL40510	4
BL22053	21
BL30365	12
BL40068	2
BL03284	14
BL24764	4
BL12850	5
BL18653	9
BL23835	14
BL00893	14
BL51194	14
BL07298	11
BL07347	24
BL07116	3
BL71261	6
BL74912	3
BL18226	10
BL18617	5
BL11352	6
BL20428	23
BL33887	5
BL10599	5
BL23516	5
BL17463	6
BL07418	13
BL14642	27
BL10003	23
BL95404	6
BL15088	11
BL19409	12
BL23533	12
BL21392	27
BL07232	3
BL11188	5
BL05232	20
BL20311	20
BL08922	5
BL08897	27
BL00563	4
BL17539	6
BL00442	5
BL15846	22
BL05983	28
BL05645	16
BL79622	25
BL97260	11
BL14977	6
BL01284	3
BL01359	27
BL10643	27
BL08890	12
BL95727	10
BL23639	24
BL16048	28
BL61071	6
BL04563	14
BL16623	24
BL19354	5
BL05182	8
BL03212	11
BL96242	5
BL15557	27
BL22066	11
BL95867	5
BL10828	10
BL13447	10
BL38019	14
BL07813	5
BL23666	5
BL17168	5
BL03093	10
BL13406	8
BL11399	24
BL04057	11
BL02375	4
BL00013	10
BL02671	10
BL06794	5
BL09436	1
BL10714	11
BL09049	12
BL13925	20
BL13496	28
BL15570	14
BL21252	1
BL19847	11
BL07062	22
BL15205	5
BL09664	28
BL96518	3
BL95101	8
BL05527	6
BL23844	4
BL97355	10
BL96117	4
BL05892	8
BL95503	24
BL19745	16
BL01374	6
BL33381	5
BL16613	12
BL19765	12
BL23528	5
BL24650	2
BL01790	24
BL21046	5
BL11921	25
BL37455	3
BL01718	5
BL07826	5
BL06600	14
BL21121	7
BL80869	11
BL18520	14
BL05919	6
BL03896	13
BL18914	3
BL22900	26
BL95181	6
BL18660	14
BL09069	11
BL12333	5
BL14061	24
BL19211	23
BL04290	12
BL24424	10
BL95887	22
BL13929	20
BL18040	6
BL07886	23
BL18026	25
BL16317	20
BL23646	8
BL02156	13
BL14381	11
BL05010	11
BL02844	5
BL12291	6
BL14584	5
BL97409	2
BL95342	14
BL03809	23
BL20813	14
BL08042	13
BL24221	13
BL12021	24
BL21581	27
BL14251	11
BL38853	11
BL78077	17
BL15028	8
BL95791	5
BL21038	5
BL07233	6
BL18657	5
BL18180	14
BL24829	5
BL24469	15
BL16233	14
BL02580	16
BL14149	8
BL20481	5
BL12257	16
BL02445	23
BL15250	5
BL95811	20
BL95377	24
BL05354	5
BL20797	23
BL12855	5
BL21176	5
BL19109	27
BL27935	9
BL24614	19
BL09067	5
BL10967	24
BL03306	1
BL35883	24
BL22968	9
BL21725	5
BL02609	5
BL95350	13
BL23372	28
BL95244	28
BL24784	22
BL00149	8
BL07079	5
BL18002	17
BL00897	24
BL65288	24
BL95978	8
BL07432	5
BL06800	19
BL01732	5
BL12131	14
BL18245	8
BL15469	12
BL21000	10
BL18285	21
BL21882	9
BL00860	14
BL24136	26
BL06746	6
BL00279	22
BL07395	12
BL14820	16
BL13488	1
BL40430	20
BL09582	8
BL24520	12
BL10068	15
BL29078	22
BL11285	24
BL08589	26
BL01673	10
BL04122	5
BL20969	8
BL13227	2
BL95761	11
BL97413	24
BL14654	28
BL18841	11
BL23752	8
BL05124	27
BL10849	28
BL14626	10
BL10113	5
BL04999	24
BL09625	10
BL10992	23
BL07323	1
BL10302	5
BL19408	5
BL01819	5
BL89548	14
BL17666	14
BL14817	20
BL20628	12
BL96059	10
BL00221	12
BL16078	26
BL23431	11
BL09072	10
BL02725	10
BL09548	5
BL17843	14
BL08201	19
BL12883	5
BL01964	5
BL00892	1
BL29539	10
BL14059	16
BL17475	25
BL11494	27
BL96028	6
BL00160	12
BL25003	13
BL24128	5
BL15989	14
BL22849	12
BL65589	7
BL24504	23
BL33377	5
BL03504	28
BL11879	16
BL04003	28
BL95641	5
BL36640	19
BL26586	24
BL21084	11
BL22986	6
BL24066	5
BL26139	26
BL13109	10
BL14719	1
BL95617	28
BL21989	27
BL03870	5
BL97400	5
BL24085	7
BL22559	5
BL14493	8
BL38741	14
BL06335	27
BL09096	3
BL53769	1
BL16035	5
BL16690	7
BL03129	10
BL23288	17
BL16232	20
BL62074	28
BL96048	7
BL23930	13
BL03630	5
BL61584	22
BL95408	5
BL08324	27
BL17489	18
BL16663	8
BL04028	19
BL29665	24
BL33379	5
BL14897	10
BL23496	5
BL08440	14
BL21767	22
BL17836	20
BL00706	6
BL10522	27
BL21326	16
BL05483	11
BL02494	5
BL14778	6
BL04859	10
BL15907	5
BL01661	11
BL15786	27
BL06418	18
BL15531	10
BL23109	10
BL15719	1
BL17298	5
BL03296	5
BL25388	11
BL22964	10
BL21857	14
BL16868	19
BL04472	14
BL16673	11
BL13774	25
BL02756	12
BL07401	14
BL01082	5
BL21598	13
BL14842	6
BL95668	14
BL02890	10
BL12199	12
BL20162	7
BL15401	10
BL25197	14
BL12268	11
BL04228	26
BL07587	10
BL04024	5
BL27388	10
BL11871	28
BL01062	11
BL03550	22
BL15898	3
BL08451	11
BL16708	5
BL95291	5
BL14953	10
BL95293	5
BL00632	23
BL04647	24
BL19768	22
BL07916	4
BL01072	10
BL30468	21
BL01582	6
BL24222	28
BL17869	25
BL15494	5
BL95255	10
BL24522	27
BL13368	4
BL01920	8
BL97474	11
BL00894	11
BL03279	6
BL20987	12
BL09046	5
BL95384	12
BL08336	12
BL23330	23
BL15074	4
BL07731	5
BL12036	5
BL24833	9
BL18476	15
BL05555	5
BL15586	13
BL23237	10
BL01702	24
BL03786	5
BL18006	6
BL04896	6
BL00674	26
BL96825	10
BL17155	22
BL95810	11
BL08706	8
BL05208	11
BL07529	11
BL22882	12
BL96817	10
BL95065	22
BL02935	5
BL19381	14
BL97368	3
BL96914	11
BL12479	24
BL01225	8
BL17880	5
BL95886	26
BL06439	20
BL04565	28
BL01937	6
BL02731	8
BL95428	10
BL49718	23
BL19333	5
BL95504	14
BL14566	10
BL03241	6
BL21419	3
BL95721	10
BL03105	4
BL01578	1
BL19589	24
BL96815	5
BL95607	14
BL24870	19
BL95477	5
BL18183	11
BL14079	6
BL97004	8
BL11501	1
BL00081	10
BL01376	24
BL19661	4
BL01122	18
BL24444	28
BL04358	16
BL18612	5
BL09958	11
BL29966	2
BL06187	11
BL05086	26
BL09946	27
BL95522	11
BL11579	11
BL23922	28
BL18354	18
BL16633	1
BL11300	1
BL01094	3
BL24353	28
BL24639	5
BL08327	18
BL95840	11
BL22923	14
BL12200	16
BL07528	11
BL23493	5
BL15600	24
BL31544	26
BL02345	3
BL14517	12
BL18457	10
BL10377	28
BL03865	5
BL15384	20
BL10513	12
BL23525	5
BL06150	5
BL19798	19
BL04898	10
BL02596	10
BL20138	27
BL07980	25
BL12816	9
BL13891	14
BL22314	28
BL10239	10
BL05784	8
BL09123	5
BL08891	5
BL04631	5
BL00985	23
BL04967	14
BL14571	12
BL20772	20
BL95179	11
BL21627	28
BL96116	5
BL10490	5
BL59849	25
BL14325	5
BL95948	5
BL58856	10
BL95581	5
BL75933	19
BL14141	27
BL19160	24
BL53801	13
BL11316	12
BL12451	12
BL79300	8
BL14774	11
BL08852	8
BL10721	14
BL08617	3
BL04090	26
BL05025	5
BL06028	5
BL22095	2
BL11805	10
BL05534	11
BL12317	24
BL10667	6
BL96546	10
BL08142	5
BL15691	25
BL09229	25
BL14287	3
BL17128	5
BL14433	11
BL12790	24
BL25008	12
BL13998	11
BL08129	10
BL08926	22
BL23382	28
BL11337	5
BL07045	12
BL04931	10
BL14105	5
BL17002	23
BL19535	24
BL07328	5
BL20141	10
BL04029	8
BL13423	10
BL15037	21
BL95238	5
BL85955	14
BL15149	13
BL30290	6
BL17890	21
BL02287	9
BL07434	11
BL24122	14
BL46522	23
BL24101	5
BL15389	16
BL07834	14
BL78906	13
BL00212	14
BL04232	10
BL14745	5
BL02957	5
BL07194	28
BL12729	24
BL03068	24
BL64825	5
BL00475	5
BL65638	20
BL03165	10
BL08543	12
BL06207	5
BL17142	17
BL09555	24
BL07877	5
BL21012	10
BL25004	12
BL95719	11
BL65024	15
BL19697	7
BL21784	11
BL18669	11
BL11864	5
BL06832	5
BL13442	10
BL07487	9
BL21595	6
BL24523	5
BL95513	6
BL17896	14
BL05709	10
BL20842	10
BL22815	5
BL15116	4
BL97259	11
BL95544	5
BL24521	5
BL13443	5
BL08013	5
BL11403	11
BL19347	8
BL06236	14
BL21909	10
BL03422	5
BL12897	20
BL09018	5
BL24671	5
BL12545	5
BL17814	20
BL95825	3
BL20388	5
BL06339	5
BL96430	20
BL20777	11
BL95487	8
BL22938	11
BL36555	6
BL08253	8
BL00623	10
BL23994	5
BL23508	27
BL38892	5
BL21896	5
BL21863	5
BL20423	5
BL10903	5
BL04655	23
BL00303	20
BL14635	3
BL07102	10
BL13625	12
BL95715	14
BL95752	5
BL17431	11
BL02399	13
BL23912	25
BL95947	5
BL06312	27
BL08385	5
