<?xml version="1.0" encoding="UTF-8" standalone="no"?>
<!-- Created with Inkscape (http://www.inkscape.org/) -->

<svg
   xmlns:dc="http://purl.org/dc/elements/1.1/"
   xmlns:cc="http://creativecommons.org/ns#"
   xmlns:rdf="http://www.w3.org/1999/02/22-rdf-syntax-ns#"
   xmlns:svg="http://www.w3.org/2000/svg"
   xmlns="http://www.w3.org/2000/svg"
   xmlns:xlink="http://www.w3.org/1999/xlink"
   xmlns:sodipodi="http://sodipodi.sourceforge.net/DTD/sodipodi-0.dtd"
   xmlns:inkscape="http://www.inkscape.org/namespaces/inkscape"
   width="536"
   height="200"
   viewBox="0 0 141.81667 52.916669"
   version="1.1"
   id="svg12937"
   inkscape:version="0.92.1 r15371"
   sodipodi:docname="model_simple.svg"
   inkscape:export-filename="/mnt/Two/Dropbox/Dropbox/Thesi/Figures/model/model_1.png"
   inkscape:export-xdpi="96.400002"
   inkscape:export-ydpi="96.400002">
  <defs
     id="defs12931">
    <linearGradient
       id="linearGradient4147">
      <stop
         style="stop-color:#f6e900;stop-opacity:1"
         offset="0"
         id="stop21985" />
      <stop
         style="stop-color:black;stop-opacity:1"
         offset="1"
         id="stop21987" />
    </linearGradient>
    <marker
       inkscape:stockid="Arrow2Send"
       orient="auto"
       refY="0"
       refX="0"
       id="Arrow2Send"
       style="overflow:visible"
       inkscape:isstock="true">
      <path
         id="path17472"
         style="fill:#0b132b;fill-opacity:1;fill-rule:evenodd;stroke:#0b132b;stroke-width:0.625;stroke-linejoin:round;stroke-opacity:1"
         d="M 8.7185878,4.0337352 -2.2072895,0.01601326 8.7185884,-4.0017078 c -1.7454984,2.3720609 -1.7354408,5.6174519 -6e-7,8.035443 z"
         transform="matrix(-0.3,0,0,-0.3,0.69,0)"
         inkscape:connector-curvature="0" />
    </marker>
    <marker
       inkscape:stockid="Arrow1Lend"
       orient="auto"
       refY="0"
       refX="0"
       id="Arrow1Lend"
       style="overflow:visible"
       inkscape:isstock="true">
      <path
         id="path17442"
         d="M 0,0 5,-5 -12.5,0 5,5 Z"
         style="fill:#000000;fill-opacity:1;fill-rule:evenodd;stroke:#000000;stroke-width:1.00000003pt;stroke-opacity:1"
         transform="matrix(-0.8,0,0,-0.8,-10,0)"
         inkscape:connector-curvature="0" />
    </marker>
    <linearGradient
       id="yolo-3">
      <stop
         style="stop-color:#454955;stop-opacity:1"
         offset="0"
         id="stop4151" />
      <stop
         style="stop-color:#f6f3f6;stop-opacity:0"
         offset="1"
         id="stop4149" />
    </linearGradient>
    <linearGradient
       id="linearGradient4135">
      <stop
         id="stop4137"
         offset="0"
         style="stop-color:#ffdc02;stop-opacity:1" />
      <stop
         style="stop-color:#ffe702;stop-opacity:1"
         offset="0.58017784"
         id="stop4145" />
      <stop
         style="stop-color:#ff0202;stop-opacity:1"
         offset="0.58572346"
         id="stop4143" />
      <stop
         id="stop4139"
         offset="1"
         style="stop-color:#ff0202;stop-opacity:1" />
    </linearGradient>
    <linearGradient
       inkscape:collect="always"
       xlink:href="#yolo-3"
       id="linearGradient21962"
       x1="107.46295"
       y1="254.78729"
       x2="140.17654"
       y2="254.78729"
       gradientUnits="userSpaceOnUse"
       gradientTransform="translate(-9.795651,1.3229167)" />
  </defs>
  <sodipodi:namedview
     id="base"
     pagecolor="#ffffff"
     bordercolor="#666666"
     borderopacity="1.0"
     inkscape:pageopacity="0.0"
     inkscape:pageshadow="2"
     inkscape:zoom="0.98994949"
     inkscape:cx="195.5792"
     inkscape:cy="217.34855"
     inkscape:document-units="mm"
     inkscape:current-layer="layer1"
     showgrid="false"
     units="px"
     inkscape:window-width="1920"
     inkscape:window-height="1021"
     inkscape:window-x="0"
     inkscape:window-y="0"
     inkscape:window-maximized="1"
     showguides="false">
    <inkscape:grid
       type="xygrid"
       id="grid17414"
       spacingx="4.2333334"
       spacingy="4.2333334"
       units="pc" />
  </sodipodi:namedview>
  <metadata
     id="metadata12934">
    <rdf:RDF>
      <cc:Work
         rdf:about="">
        <dc:format>image/svg+xml</dc:format>
        <dc:type
           rdf:resource="http://purl.org/dc/dcmitype/StillImage" />
        <dc:title></dc:title>
      </cc:Work>
    </rdf:RDF>
  </metadata>
  <g
     inkscape:label="Layer 1"
     inkscape:groupmode="layer"
     id="layer1"
     transform="translate(0,-244.08332)">
    <path
       style="fill:none;fill-rule:evenodd;stroke:#454955;stroke-width:1.82599998;stroke-linecap:butt;stroke-linejoin:miter;stroke-miterlimit:4;stroke-dasharray:none;stroke-opacity:1"
       d="M 155.57414,282.45891 H 25.915272 c -15.547467,0 -16.9193329,-26.2542 1.208371,-26.2542 l 70.700914,-0.0945"
       id="path17435"
       inkscape:connector-curvature="0"
       sodipodi:nodetypes="cscc" />
    <path
       style="fill:none;fill-rule:evenodd;stroke:#0b132b;stroke-width:0.96380037;stroke-linecap:butt;stroke-linejoin:miter;stroke-miterlimit:4;stroke-dasharray:none;stroke-opacity:1;marker-end:url(#Arrow2Send)"
       d="M 71.192195,281.5523 V 271.39583 H 95.544017"
       id="path17437"
       inkscape:connector-curvature="0" />
    <flowRoot
       xml:space="preserve"
       id="flowRoot17777"
       style="font-style:normal;font-weight:normal;font-size:14.66666698px;line-height:125%;font-family:Sans;letter-spacing:0px;word-spacing:0px;fill:#000000;fill-opacity:1;stroke:none;stroke-width:1px;stroke-linecap:butt;stroke-linejoin:miter;stroke-opacity:1"
       transform="matrix(0.26458333,0,0,0.26458333,-620.91375,540.21411)"><flowRegion
         id="flowRegion17779"
         style="font-size:14.66666698px"><rect
           id="rect17781"
           width="989.94946"
           height="529.31995"
           x="2618.3154"
           y="-943.53351"
           style="font-size:14.66666698px" /></flowRegion><flowPara
         id="flowPara17783"
         style="font-style:normal;font-variant:normal;font-weight:normal;font-stretch:normal;font-size:10.66666698px;font-family:'Crimson Text';-inkscape-font-specification:'Crimson Text'">Transcription Start Site</flowPara><flowPara
         id="flowPara19225"
         style="font-style:normal;font-variant:normal;font-weight:normal;font-stretch:normal;font-family:'Crimson Text';-inkscape-font-specification:'Crimson Text'" /></flowRoot>    <g
       transform="matrix(-1.3538994,0,0,1.3538994,59.197894,273.88323)"
       id="layer1-3"
       inkscape:label="Layer 1"
       style="fill:#43aa8b;fill-opacity:0.99607843;stroke:none">
      <path
         id="path4133"
         transform="matrix(0.01111111,0,0,0.01111111,3.4970816,-2.4440807)"
         d="m 198.26367,13.583984 c -4.40482,0.05897 -10.76854,1.107745 -19.86719,3.470704 -64.70145,16.803278 23.69077,24.308473 -34.45703,57.285156 C 85.791671,107.31654 124.72326,27.605196 77.091797,74.507812 29.460325,121.41078 109.76365,83.711211 75.894531,141.34375 42.025391,198.9763 35.884589,110.47737 18.085938,174.91211 0.28726848,239.34685 50.984009,166.54872 50.46875,233.39453 49.9535,300.24035 0.38422192,226.66769 17.1875,291.36914 c 16.803278,64.70145 24.308474,-23.69272 57.285156,34.45508 32.976684,58.14778 -46.734646,19.21814 0.167969,66.84961 46.902965,47.63145 9.203388,-32.67186 66.835935,1.19726 57.63253,33.86913 -30.86637,40.00799 33.56836,57.80664 64.43474,17.79867 -8.36338,-32.8961 58.48242,-32.38085 66.84582,0.51479 -6.72687,50.08452 57.97461,33.28124 64.70146,-16.80329 -23.69272,-24.30846 34.45508,-57.28515 58.1478,-32.97669 19.21815,46.73482 66.84961,-0.16797 47.63145,-46.90279 -32.67186,-9.2034 1.19727,-66.83594 33.86912,-57.63255 40.00798,30.86638 57.80664,-33.56836 17.79866,-64.43475 -32.89416,8.3634 -32.37891,-58.48242 0.5157,-66.84581 50.08062,6.72685 33.27734,-57.97461 -16.80328,-64.70146 -24.30651,23.69077 -57.2832,-34.45703 -32.97668,-58.14779 46.73482,-19.2162 -0.16797,-66.847656 -46.90278,-47.631472 -9.20535,32.671866 -66.83789,-1.197265 -57.63254,-33.869123 30.86832,-40.007989 -33.5664,-57.806641 -4.02723,-1.1124 -7.5204,-1.957673 -10.54297,-2.564453 -45.33945,-9.0980097 14.72849,35.426407 -47.93946,34.943359 -57.44564,-0.443179 -11.18904,-37.110382 -38.10742,-36.75 z m 39.78516,101.273436 a 119.99998,119.99998 0 0 1 20.34375,2.27149 119.99998,119.99998 0 0 1 94.24414,141.13281 119.99998,119.99998 0 0 1 -105.6875,95.83594 v 16.04101 h -24 v -16.03906 a 119.99998,119.99998 0 0 1 -11.44531,-1.5957 119.99998,119.99998 0 0 1 -94.24219,-141.13282 119.99998,119.99998 0 0 1 120.78711,-96.51367 z"
         style="color:#000000;fill:#43aa8b;fill-opacity:0.99607843;fill-rule:evenodd;stroke:none;stroke-width:0.01111111;stroke-linecap:round;stroke-linejoin:round"
         inkscape:connector-curvature="0" />
    </g>
    <path
       style="fill:#43aa8b;fill-opacity:0.99607843;fill-rule:evenodd;stroke:none;stroke-width:0.12860504px;stroke-linecap:butt;stroke-linejoin:miter;stroke-opacity:1"
       d="m 50.922184,275.83914 2.981636,5.73466 h -5.787219 z"
       id="path21523"
       inkscape:connector-curvature="0"
       sodipodi:nodetypes="cccc" />
    <g
       transform="matrix(0.11501053,0.91696569,0.91696569,-0.11501053,59.755973,270.95965)"
       id="layer1-3-5"
       inkscape:label="Layer 1"
       style="fill:#43aa8b;fill-opacity:0.99607843;stroke:none">
      <path
         id="path4133-6"
         transform="matrix(0.01111111,0,0,0.01111111,3.4970816,-2.4440807)"
         d="m 198.26367,13.583984 c -4.40482,0.05897 -10.76854,1.107745 -19.86719,3.470704 -64.70145,16.803278 23.69077,24.308473 -34.45703,57.285156 C 85.791671,107.31654 124.72326,27.605196 77.091797,74.507812 29.460325,121.41078 109.76365,83.711211 75.894531,141.34375 42.025391,198.9763 35.884589,110.47737 18.085938,174.91211 0.28726848,239.34685 50.984009,166.54872 50.46875,233.39453 49.9535,300.24035 0.38422192,226.66769 17.1875,291.36914 c 16.803278,64.70145 24.308474,-23.69272 57.285156,34.45508 32.976684,58.14778 -46.734646,19.21814 0.167969,66.84961 46.902965,47.63145 9.203388,-32.67186 66.835935,1.19726 57.63253,33.86913 -30.86637,40.00799 33.56836,57.80664 64.43474,17.79867 -8.36338,-32.8961 58.48242,-32.38085 66.84582,0.51479 -6.72687,50.08452 57.97461,33.28124 64.70146,-16.80329 -23.69272,-24.30846 34.45508,-57.28515 58.1478,-32.97669 19.21815,46.73482 66.84961,-0.16797 47.63145,-46.90279 -32.67186,-9.2034 1.19727,-66.83594 33.86912,-57.63255 40.00798,30.86638 57.80664,-33.56836 17.79866,-64.43475 -32.89416,8.3634 -32.37891,-58.48242 0.5157,-66.84581 50.08062,6.72685 33.27734,-57.97461 -16.80328,-64.70146 -24.30651,23.69077 -57.2832,-34.45703 -32.97668,-58.14779 46.73482,-19.2162 -0.16797,-66.847656 -46.90278,-47.631472 -9.20535,32.671866 -66.83789,-1.197265 -57.63254,-33.869123 30.86832,-40.007989 -33.5664,-57.806641 -4.02723,-1.1124 -7.5204,-1.957673 -10.54297,-2.564453 -45.33945,-9.0980097 14.72849,35.426407 -47.93946,34.943359 -57.44564,-0.443179 -11.18904,-37.110382 -38.10742,-36.75 z m 39.78516,101.273436 a 119.99998,119.99998 0 0 1 20.34375,2.27149 119.99998,119.99998 0 0 1 94.24414,141.13281 119.99998,119.99998 0 0 1 -105.6875,95.83594 v 16.04101 h -24 v -16.03906 a 119.99998,119.99998 0 0 1 -11.44531,-1.5957 119.99998,119.99998 0 0 1 -94.24219,-141.13282 119.99998,119.99998 0 0 1 120.78711,-96.51367 z"
         style="color:#000000;fill:#43aa8b;fill-opacity:0.99607843;fill-rule:evenodd;stroke:none;stroke-width:0.01111111;stroke-linecap:round;stroke-linejoin:round"
         inkscape:connector-curvature="0" />
    </g>
    <path
       style="fill:#43aa8b;fill-opacity:0.99607843;fill-rule:evenodd;stroke:none;stroke-width:0.08778375px;stroke-linecap:butt;stroke-linejoin:miter;stroke-opacity:1"
       d="m 60.549624,277.65941 2.035221,3.91439 h -3.950269 z"
       id="path21523-2"
       inkscape:connector-curvature="0"
       sodipodi:nodetypes="cccc" />
    <g
       transform="matrix(-0.92415018,0,0,0.92415018,61.780391,276.14319)"
       id="layer1-3-5-9"
       inkscape:label="Layer 1"
       style="fill:#43aa8b;fill-opacity:0.99607843;stroke:none">
      <path
         id="path4133-6-3"
         transform="matrix(0.01111111,0,0,0.01111111,3.4970816,-2.4440807)"
         d="m 198.26367,13.583984 c -4.40482,0.05897 -10.76854,1.107745 -19.86719,3.470704 -64.70145,16.803278 23.69077,24.308473 -34.45703,57.285156 C 85.791671,107.31654 124.72326,27.605196 77.091797,74.507812 29.460325,121.41078 109.76365,83.711211 75.894531,141.34375 42.025391,198.9763 35.884589,110.47737 18.085938,174.91211 0.28726848,239.34685 50.984009,166.54872 50.46875,233.39453 49.9535,300.24035 0.38422192,226.66769 17.1875,291.36914 c 16.803278,64.70145 24.308474,-23.69272 57.285156,34.45508 32.976684,58.14778 -46.734646,19.21814 0.167969,66.84961 46.902965,47.63145 9.203388,-32.67186 66.835935,1.19726 57.63253,33.86913 -30.86637,40.00799 33.56836,57.80664 64.43474,17.79867 -8.36338,-32.8961 58.48242,-32.38085 66.84582,0.51479 -6.72687,50.08452 57.97461,33.28124 64.70146,-16.80329 -23.69272,-24.30846 34.45508,-57.28515 58.1478,-32.97669 19.21815,46.73482 66.84961,-0.16797 47.63145,-46.90279 -32.67186,-9.2034 1.19727,-66.83594 33.86912,-57.63255 40.00798,30.86638 57.80664,-33.56836 17.79866,-64.43475 -32.89416,8.3634 -32.37891,-58.48242 0.5157,-66.84581 50.08062,6.72685 33.27734,-57.97461 -16.80328,-64.70146 -24.30651,23.69077 -57.2832,-34.45703 -32.97668,-58.14779 46.73482,-19.2162 -0.16797,-66.847656 -46.90278,-47.631472 -9.20535,32.671866 -66.83789,-1.197265 -57.63254,-33.869123 30.86832,-40.007989 -33.5664,-57.806641 -4.02723,-1.1124 -7.5204,-1.957673 -10.54297,-2.564453 -45.33945,-9.0980097 14.72849,35.426407 -47.93946,34.943359 -57.44564,-0.443179 -11.18904,-37.110382 -38.10742,-36.75 z m 39.78516,101.273436 a 119.99998,119.99998 0 0 1 20.34375,2.27149 119.99998,119.99998 0 0 1 94.24414,141.13281 119.99998,119.99998 0 0 1 -105.6875,95.83594 v 16.04101 h -24 v -16.03906 a 119.99998,119.99998 0 0 1 -11.44531,-1.5957 119.99998,119.99998 0 0 1 -94.24219,-141.13282 119.99998,119.99998 0 0 1 120.78711,-96.51367 z"
         style="color:#000000;fill:#43aa8b;fill-opacity:0.99607843;fill-rule:evenodd;stroke:none;stroke-width:0.01111111;stroke-linecap:round;stroke-linejoin:round"
         inkscape:connector-curvature="0" />
    </g>
    <path
       style="fill:#43aa8b;fill-opacity:0.99607843;fill-rule:evenodd;stroke:none;stroke-width:0.08778375px;stroke-linecap:butt;stroke-linejoin:miter;stroke-opacity:1"
       d="m 56.138656,277.65942 2.03522,3.91438 h -3.950268 z"
       id="path21523-2-6"
       inkscape:connector-curvature="0"
       sodipodi:nodetypes="cccc" />
    <g
       transform="matrix(2.7854211,0,0,2.7854211,84.704543,143.41356)"
       id="layer1-3-0"
       inkscape:label="Layer 1"
       style="fill:#df9a00;fill-opacity:0.99612403;stroke:none">
      <path
         id="path4133-62"
         transform="matrix(0.01111111,0,0,0.01111111,3.4970816,-2.4440807)"
         d="m 198.26367,13.583984 c -4.40482,0.05897 -10.76854,1.107745 -19.86719,3.470704 -64.70145,16.803278 23.69077,24.308473 -34.45703,57.285156 C 85.791671,107.31654 124.72326,27.605196 77.091797,74.507812 29.460325,121.41078 109.76365,83.711211 75.894531,141.34375 42.025391,198.9763 35.884589,110.47737 18.085938,174.91211 0.28726848,239.34685 50.984009,166.54872 50.46875,233.39453 49.9535,300.24035 0.38422192,226.66769 17.1875,291.36914 c 16.803278,64.70145 24.308474,-23.69272 57.285156,34.45508 32.976684,58.14778 -46.734646,19.21814 0.167969,66.84961 46.902965,47.63145 9.203388,-32.67186 66.835935,1.19726 57.63253,33.86913 -30.86637,40.00799 33.56836,57.80664 64.43474,17.79867 -8.36338,-32.8961 58.48242,-32.38085 66.84582,0.51479 -6.72687,50.08452 57.97461,33.28124 64.70146,-16.80329 -23.69272,-24.30846 34.45508,-57.28515 58.1478,-32.97669 19.21815,46.73482 66.84961,-0.16797 47.63145,-46.90279 -32.67186,-9.2034 1.19727,-66.83594 33.86912,-57.63255 40.00798,30.86638 57.80664,-33.56836 17.79866,-64.43475 -32.89416,8.3634 -32.37891,-58.48242 0.5157,-66.84581 50.08062,6.72685 33.27734,-57.97461 -16.80328,-64.70146 -24.30651,23.69077 -57.2832,-34.45703 -32.97668,-58.14779 46.73482,-19.2162 -0.16797,-66.847656 -46.90278,-47.631472 -9.20535,32.671866 -66.83789,-1.197265 -57.63254,-33.869123 30.86832,-40.007989 -33.5664,-57.806641 -4.02723,-1.1124 -7.5204,-1.957673 -10.54297,-2.564453 -45.33945,-9.0980097 14.72849,35.426407 -47.93946,34.943359 -57.44564,-0.443179 -11.18904,-37.110382 -38.10742,-36.75 z m 39.78516,101.273436 a 119.99998,119.99998 0 0 1 20.34375,2.27149 119.99998,119.99998 0 0 1 94.24414,141.13281 119.99998,119.99998 0 0 1 -105.6875,95.83594 v 16.04101 h -24 v -16.03906 a 119.99998,119.99998 0 0 1 -11.44531,-1.5957 119.99998,119.99998 0 0 1 -94.24219,-141.13282 119.99998,119.99998 0 0 1 120.78711,-96.51367 z"
         style="color:#000000;fill:#df9a00;fill-opacity:0.99612403;fill-rule:evenodd;stroke:none;stroke-width:0.01111111;stroke-linecap:round;stroke-linejoin:round"
         inkscape:connector-curvature="0" />
    </g>
    <path
       style="fill:#df9a00;fill-opacity:0.99612403;fill-rule:evenodd;stroke:none;stroke-width:0.26458332px;stroke-linecap:butt;stroke-linejoin:miter;stroke-opacity:1"
       d="m 101.73043,147.43753 -6.134213,11.7981 h 11.906233 z"
       id="path21523-6"
       inkscape:connector-curvature="0"
       sodipodi:nodetypes="cccc" />
    <g
       transform="matrix(1.8891039,0.2148671,-0.2148671,1.8891039,70.6884,147.35493)"
       id="layer1-3-5-1"
       inkscape:label="Layer 1"
       style="fill:#df9a00;fill-opacity:0.99612403;stroke:none">
      <path
         id="path4133-6-8"
         transform="matrix(0.01111111,0,0,0.01111111,3.4970816,-2.4440807)"
         d="m 198.26367,13.583984 c -4.40482,0.05897 -10.76854,1.107745 -19.86719,3.470704 -64.70145,16.803278 23.69077,24.308473 -34.45703,57.285156 C 85.791671,107.31654 124.72326,27.605196 77.091797,74.507812 29.460325,121.41078 109.76365,83.711211 75.894531,141.34375 42.025391,198.9763 35.884589,110.47737 18.085938,174.91211 0.28726848,239.34685 50.984009,166.54872 50.46875,233.39453 49.9535,300.24035 0.38422192,226.66769 17.1875,291.36914 c 16.803278,64.70145 24.308474,-23.69272 57.285156,34.45508 32.976684,58.14778 -46.734646,19.21814 0.167969,66.84961 46.902965,47.63145 9.203388,-32.67186 66.835935,1.19726 57.63253,33.86913 -30.86637,40.00799 33.56836,57.80664 64.43474,17.79867 -8.36338,-32.8961 58.48242,-32.38085 66.84582,0.51479 -6.72687,50.08452 57.97461,33.28124 64.70146,-16.80329 -23.69272,-24.30846 34.45508,-57.28515 58.1478,-32.97669 19.21815,46.73482 66.84961,-0.16797 47.63145,-46.90279 -32.67186,-9.2034 1.19727,-66.83594 33.86912,-57.63255 40.00798,30.86638 57.80664,-33.56836 17.79866,-64.43475 -32.89416,8.3634 -32.37891,-58.48242 0.5157,-66.84581 50.08062,6.72685 33.27734,-57.97461 -16.80328,-64.70146 -24.30651,23.69077 -57.2832,-34.45703 -32.97668,-58.14779 46.73482,-19.2162 -0.16797,-66.847656 -46.90278,-47.631472 -9.20535,32.671866 -66.83789,-1.197265 -57.63254,-33.869123 30.86832,-40.007989 -33.5664,-57.806641 -4.02723,-1.1124 -7.5204,-1.957673 -10.54297,-2.564453 -45.33945,-9.0980097 14.72849,35.426407 -47.93946,34.943359 -57.44564,-0.443179 -11.18904,-37.110382 -38.10742,-36.75 z m 39.78516,101.273436 a 119.99998,119.99998 0 0 1 20.34375,2.27149 119.99998,119.99998 0 0 1 94.24414,141.13281 119.99998,119.99998 0 0 1 -105.6875,95.83594 v 16.04101 h -24 v -16.03906 a 119.99998,119.99998 0 0 1 -11.44531,-1.5957 119.99998,119.99998 0 0 1 -94.24219,-141.13282 119.99998,119.99998 0 0 1 120.78711,-96.51367 z"
         style="color:#000000;fill:#df9a00;fill-opacity:0.99612403;fill-rule:evenodd;stroke:none;stroke-width:0.01111111;stroke-linecap:round;stroke-linejoin:round"
         inkscape:connector-curvature="0" />
    </g>
    <path
       style="fill:#df9a00;fill-opacity:0.99612403;fill-rule:evenodd;stroke:none;stroke-width:0.18060036px;stroke-linecap:butt;stroke-linejoin:miter;stroke-opacity:1"
       d="m 81.923587,151.18243 -4.187127,8.0532 h 8.127016 z"
       id="path21523-2-7"
       inkscape:connector-curvature="0"
       sodipodi:nodetypes="cccc" />
    <g
       transform="matrix(1.9012842,0,0,1.9012842,79.391488,148.06304)"
       id="layer1-3-5-9-9"
       inkscape:label="Layer 1"
       style="fill:#df9a00;fill-opacity:0.99612403;stroke:none">
      <path
         id="path4133-6-3-2"
         transform="matrix(0.01111111,0,0,0.01111111,3.4970816,-2.4440807)"
         d="m 198.26367,13.583984 c -4.40482,0.05897 -10.76854,1.107745 -19.86719,3.470704 -64.70145,16.803278 23.69077,24.308473 -34.45703,57.285156 C 85.791671,107.31654 124.72326,27.605196 77.091797,74.507812 29.460325,121.41078 109.76365,83.711211 75.894531,141.34375 42.025391,198.9763 35.884589,110.47737 18.085938,174.91211 0.28726848,239.34685 50.984009,166.54872 50.46875,233.39453 49.9535,300.24035 0.38422192,226.66769 17.1875,291.36914 c 16.803278,64.70145 24.308474,-23.69272 57.285156,34.45508 32.976684,58.14778 -46.734646,19.21814 0.167969,66.84961 46.902965,47.63145 9.203388,-32.67186 66.835935,1.19726 57.63253,33.86913 -30.86637,40.00799 33.56836,57.80664 64.43474,17.79867 -8.36338,-32.8961 58.48242,-32.38085 66.84582,0.51479 -6.72687,50.08452 57.97461,33.28124 64.70146,-16.80329 -23.69272,-24.30846 34.45508,-57.28515 58.1478,-32.97669 19.21815,46.73482 66.84961,-0.16797 47.63145,-46.90279 -32.67186,-9.2034 1.19727,-66.83594 33.86912,-57.63255 40.00798,30.86638 57.80664,-33.56836 17.79866,-64.43475 -32.89416,8.3634 -32.37891,-58.48242 0.5157,-66.84581 50.08062,6.72685 33.27734,-57.97461 -16.80328,-64.70146 -24.30651,23.69077 -57.2832,-34.45703 -32.97668,-58.14779 46.73482,-19.2162 -0.16797,-66.847656 -46.90278,-47.631472 -9.20535,32.671866 -66.83789,-1.197265 -57.63254,-33.869123 30.86832,-40.007989 -33.5664,-57.806641 -4.02723,-1.1124 -7.5204,-1.957673 -10.54297,-2.564453 -45.33945,-9.0980097 14.72849,35.426407 -47.93946,34.943359 -57.44564,-0.443179 -11.18904,-37.110382 -38.10742,-36.75 z m 39.78516,101.273436 a 119.99998,119.99998 0 0 1 20.34375,2.27149 119.99998,119.99998 0 0 1 94.24414,141.13281 119.99998,119.99998 0 0 1 -105.6875,95.83594 v 16.04101 h -24 v -16.03906 a 119.99998,119.99998 0 0 1 -11.44531,-1.5957 119.99998,119.99998 0 0 1 -94.24219,-141.13282 119.99998,119.99998 0 0 1 120.78711,-96.51367 z"
         style="color:#000000;fill:#df9a00;fill-opacity:0.99612403;fill-rule:evenodd;stroke:none;stroke-width:0.01111111;stroke-linecap:round;stroke-linejoin:round"
         inkscape:connector-curvature="0" />
    </g>
    <path
       style="fill:#df9a00;fill-opacity:0.99612403;fill-rule:evenodd;stroke:none;stroke-width:0.18060036px;stroke-linecap:butt;stroke-linejoin:miter;stroke-opacity:1"
       d="m 90.998416,151.18244 -4.187127,8.05319 h 8.127017 z"
       id="path21523-2-6-0"
       inkscape:connector-curvature="0"
       sodipodi:nodetypes="cccc" />
    <g
       transform="matrix(2.6508107,0.85543758,-0.85543758,2.6508107,42.866717,261.97673)"
       id="layer1-3-0-2"
       inkscape:label="Layer 1"
       style="fill:#0b132b;fill-opacity:0.99607843;stroke:none">
      <path
         id="path4133-62-3"
         transform="matrix(0.01111111,0,0,0.01111111,3.4970816,-2.4440807)"
         d="m 198.26367,13.583984 c -4.40482,0.05897 -10.76854,1.107745 -19.86719,3.470704 -64.70145,16.803278 23.69077,24.308473 -34.45703,57.285156 C 85.791671,107.31654 124.72326,27.605196 77.091797,74.507812 29.460325,121.41078 109.76365,83.711211 75.894531,141.34375 42.025391,198.9763 35.884589,110.47737 18.085938,174.91211 0.28726848,239.34685 50.984009,166.54872 50.46875,233.39453 49.9535,300.24035 0.38422192,226.66769 17.1875,291.36914 c 16.803278,64.70145 24.308474,-23.69272 57.285156,34.45508 32.976684,58.14778 -46.734646,19.21814 0.167969,66.84961 46.902965,47.63145 9.203388,-32.67186 66.835935,1.19726 57.63253,33.86913 -30.86637,40.00799 33.56836,57.80664 64.43474,17.79867 -8.36338,-32.8961 58.48242,-32.38085 66.84582,0.51479 -6.72687,50.08452 57.97461,33.28124 64.70146,-16.80329 -23.69272,-24.30846 34.45508,-57.28515 58.1478,-32.97669 19.21815,46.73482 66.84961,-0.16797 47.63145,-46.90279 -32.67186,-9.2034 1.19727,-66.83594 33.86912,-57.63255 40.00798,30.86638 57.80664,-33.56836 17.79866,-64.43475 -32.89416,8.3634 -32.37891,-58.48242 0.5157,-66.84581 50.08062,6.72685 33.27734,-57.97461 -16.80328,-64.70146 -24.30651,23.69077 -57.2832,-34.45703 -32.97668,-58.14779 46.73482,-19.2162 -0.16797,-66.847656 -46.90278,-47.631472 -9.20535,32.671866 -66.83789,-1.197265 -57.63254,-33.869123 30.86832,-40.007989 -33.5664,-57.806641 -4.02723,-1.1124 -7.5204,-1.957673 -10.54297,-2.564453 -45.33945,-9.0980097 14.72849,35.426407 -47.93946,34.943359 -57.44564,-0.443179 -11.18904,-37.110382 -38.10742,-36.75 z m 39.78516,101.273436 a 119.99998,119.99998 0 0 1 20.34375,2.27149 119.99998,119.99998 0 0 1 94.24414,141.13281 119.99998,119.99998 0 0 1 -105.6875,95.83594 v 16.04101 h -24 v -16.03906 a 119.99998,119.99998 0 0 1 -11.44531,-1.5957 119.99998,119.99998 0 0 1 -94.24219,-141.13282 119.99998,119.99998 0 0 1 120.78711,-96.51367 z"
         style="color:#000000;fill:#0b132b;fill-opacity:0.99607843;fill-rule:evenodd;stroke:none;stroke-width:0.01111111;stroke-linecap:round;stroke-linejoin:round"
         inkscape:connector-curvature="0" />
    </g>
    <g
       transform="matrix(1.4632883,0.4722147,-0.4722147,1.4632883,38.812952,264.43957)"
       id="layer1-3-0-2-7"
       inkscape:label="Layer 1"
       style="fill:#0b132b;fill-opacity:0.99607843;stroke:none">
      <path
         id="path4133-62-3-5"
         transform="matrix(0.01111111,0,0,0.01111111,3.4970816,-2.4440807)"
         d="m 198.26367,13.583984 c -4.40482,0.05897 -10.76854,1.107745 -19.86719,3.470704 -64.70145,16.803278 23.69077,24.308473 -34.45703,57.285156 C 85.791671,107.31654 124.72326,27.605196 77.091797,74.507812 29.460325,121.41078 109.76365,83.711211 75.894531,141.34375 42.025391,198.9763 35.884589,110.47737 18.085938,174.91211 0.28726848,239.34685 50.984009,166.54872 50.46875,233.39453 49.9535,300.24035 0.38422192,226.66769 17.1875,291.36914 c 16.803278,64.70145 24.308474,-23.69272 57.285156,34.45508 32.976684,58.14778 -46.734646,19.21814 0.167969,66.84961 46.902965,47.63145 9.203388,-32.67186 66.835935,1.19726 57.63253,33.86913 -30.86637,40.00799 33.56836,57.80664 64.43474,17.79867 -8.36338,-32.8961 58.48242,-32.38085 66.84582,0.51479 -6.72687,50.08452 57.97461,33.28124 64.70146,-16.80329 -23.69272,-24.30846 34.45508,-57.28515 58.1478,-32.97669 19.21815,46.73482 66.84961,-0.16797 47.63145,-46.90279 -32.67186,-9.2034 1.19727,-66.83594 33.86912,-57.63255 40.00798,30.86638 57.80664,-33.56836 17.79866,-64.43475 -32.89416,8.3634 -32.37891,-58.48242 0.5157,-66.84581 50.08062,6.72685 33.27734,-57.97461 -16.80328,-64.70146 -24.30651,23.69077 -57.2832,-34.45703 -32.97668,-58.14779 46.73482,-19.2162 -0.16797,-66.847656 -46.90278,-47.631472 -9.20535,32.671866 -66.83789,-1.197265 -57.63254,-33.869123 30.86832,-40.007989 -33.5664,-57.806641 -4.02723,-1.1124 -7.5204,-1.957673 -10.54297,-2.564453 -45.33945,-9.0980097 14.72849,35.426407 -47.93946,34.943359 -57.44564,-0.443179 -11.18904,-37.110382 -38.10742,-36.75 z m 39.78516,101.273436 a 119.99998,119.99998 0 0 1 20.34375,2.27149 119.99998,119.99998 0 0 1 94.24414,141.13281 119.99998,119.99998 0 0 1 -105.6875,95.83594 v 16.04101 h -24 v -16.03906 a 119.99998,119.99998 0 0 1 -11.44531,-1.5957 119.99998,119.99998 0 0 1 -94.24219,-141.13282 119.99998,119.99998 0 0 1 120.78711,-96.51367 z"
         style="color:#000000;fill:#0b132b;fill-opacity:0.99607843;fill-rule:evenodd;stroke:none;stroke-width:0.01111111;stroke-linecap:round;stroke-linejoin:round"
         inkscape:connector-curvature="0" />
    </g>
    <g
       transform="matrix(0.98648116,0.31834528,-0.31834528,0.98648116,45.077887,259.76473)"
       id="layer1-3-0-2-7-9"
       inkscape:label="Layer 1"
       style="fill:#0b132b;fill-opacity:0.99607843;stroke:none">
      <path
         id="path4133-62-3-5-2"
         transform="matrix(0.01111111,0,0,0.01111111,3.4970816,-2.4440807)"
         d="m 198.26367,13.583984 c -4.40482,0.05897 -10.76854,1.107745 -19.86719,3.470704 -64.70145,16.803278 23.69077,24.308473 -34.45703,57.285156 C 85.791671,107.31654 124.72326,27.605196 77.091797,74.507812 29.460325,121.41078 109.76365,83.711211 75.894531,141.34375 42.025391,198.9763 35.884589,110.47737 18.085938,174.91211 0.28726848,239.34685 50.984009,166.54872 50.46875,233.39453 49.9535,300.24035 0.38422192,226.66769 17.1875,291.36914 c 16.803278,64.70145 24.308474,-23.69272 57.285156,34.45508 32.976684,58.14778 -46.734646,19.21814 0.167969,66.84961 46.902965,47.63145 9.203388,-32.67186 66.835935,1.19726 57.63253,33.86913 -30.86637,40.00799 33.56836,57.80664 64.43474,17.79867 -8.36338,-32.8961 58.48242,-32.38085 66.84582,0.51479 -6.72687,50.08452 57.97461,33.28124 64.70146,-16.80329 -23.69272,-24.30846 34.45508,-57.28515 58.1478,-32.97669 19.21815,46.73482 66.84961,-0.16797 47.63145,-46.90279 -32.67186,-9.2034 1.19727,-66.83594 33.86912,-57.63255 40.00798,30.86638 57.80664,-33.56836 17.79866,-64.43475 -32.89416,8.3634 -32.37891,-58.48242 0.5157,-66.84581 50.08062,6.72685 33.27734,-57.97461 -16.80328,-64.70146 -24.30651,23.69077 -57.2832,-34.45703 -32.97668,-58.14779 46.73482,-19.2162 -0.16797,-66.847656 -46.90278,-47.631472 -9.20535,32.671866 -66.83789,-1.197265 -57.63254,-33.869123 30.86832,-40.007989 -33.5664,-57.806641 -4.02723,-1.1124 -7.5204,-1.957673 -10.54297,-2.564453 -45.33945,-9.0980097 14.72849,35.426407 -47.93946,34.943359 -57.44564,-0.443179 -11.18904,-37.110382 -38.10742,-36.75 z m 39.78516,101.273436 a 119.99998,119.99998 0 0 1 20.34375,2.27149 119.99998,119.99998 0 0 1 94.24414,141.13281 119.99998,119.99998 0 0 1 -105.6875,95.83594 v 16.04101 h -24 v -16.03906 a 119.99998,119.99998 0 0 1 -11.44531,-1.5957 119.99998,119.99998 0 0 1 -94.24219,-141.13282 119.99998,119.99998 0 0 1 120.78711,-96.51367 z"
         style="color:#000000;fill:#0b132b;fill-opacity:0.99607843;fill-rule:evenodd;stroke:none;stroke-width:0.01111111;stroke-linecap:round;stroke-linejoin:round"
         inkscape:connector-curvature="0" />
    </g>
    <g
       transform="matrix(-0.54578464,0,0,-0.54578464,58.125141,260.26063)"
       id="layer1-3-5-9-2"
       inkscape:label="Layer 1"
       style="fill:#ef3054;fill-opacity:0.99607843;stroke:none">
      <path
         id="path4133-6-3-8"
         transform="matrix(0.01111111,0,0,0.01111111,3.4970816,-2.4440807)"
         d="m 198.26367,13.583984 c -4.40482,0.05897 -10.76854,1.107745 -19.86719,3.470704 -64.70145,16.803278 23.69077,24.308473 -34.45703,57.285156 C 85.791671,107.31654 124.72326,27.605196 77.091797,74.507812 29.460325,121.41078 109.76365,83.711211 75.894531,141.34375 42.025391,198.9763 35.884589,110.47737 18.085938,174.91211 0.28726848,239.34685 50.984009,166.54872 50.46875,233.39453 49.9535,300.24035 0.38422192,226.66769 17.1875,291.36914 c 16.803278,64.70145 24.308474,-23.69272 57.285156,34.45508 32.976684,58.14778 -46.734646,19.21814 0.167969,66.84961 46.902965,47.63145 9.203388,-32.67186 66.835935,1.19726 57.63253,33.86913 -30.86637,40.00799 33.56836,57.80664 64.43474,17.79867 -8.36338,-32.8961 58.48242,-32.38085 66.84582,0.51479 -6.72687,50.08452 57.97461,33.28124 64.70146,-16.80329 -23.69272,-24.30846 34.45508,-57.28515 58.1478,-32.97669 19.21815,46.73482 66.84961,-0.16797 47.63145,-46.90279 -32.67186,-9.2034 1.19727,-66.83594 33.86912,-57.63255 40.00798,30.86638 57.80664,-33.56836 17.79866,-64.43475 -32.89416,8.3634 -32.37891,-58.48242 0.5157,-66.84581 50.08062,6.72685 33.27734,-57.97461 -16.80328,-64.70146 -24.30651,23.69077 -57.2832,-34.45703 -32.97668,-58.14779 46.73482,-19.2162 -0.16797,-66.847656 -46.90278,-47.631472 -9.20535,32.671866 -66.83789,-1.197265 -57.63254,-33.869123 30.86832,-40.007989 -33.5664,-57.806641 -4.02723,-1.1124 -7.5204,-1.957673 -10.54297,-2.564453 -45.33945,-9.0980097 14.72849,35.426407 -47.93946,34.943359 -57.44564,-0.443179 -11.18904,-37.110382 -38.10742,-36.75 z m 39.78516,101.273436 a 119.99998,119.99998 0 0 1 20.34375,2.27149 119.99998,119.99998 0 0 1 94.24414,141.13281 119.99998,119.99998 0 0 1 -105.6875,95.83594 v 16.04101 h -24 v -16.03906 a 119.99998,119.99998 0 0 1 -11.44531,-1.5957 119.99998,119.99998 0 0 1 -94.24219,-141.13282 119.99998,119.99998 0 0 1 120.78711,-96.51367 z"
         style="color:#000000;fill:#ef3054;fill-opacity:0.99607843;fill-rule:evenodd;stroke:none;stroke-width:0.01111111;stroke-linecap:round;stroke-linejoin:round"
         inkscape:connector-curvature="0" />
    </g>
    <path
       style="fill:#ef3054;fill-opacity:0.99607843;fill-rule:evenodd;stroke:none;stroke-width:0.05184333px;stroke-linecap:butt;stroke-linejoin:miter;stroke-opacity:1"
       d="m 54.793244,259.36518 1.201961,-2.31176 h -2.33295 z"
       id="path21523-2-6-9"
       inkscape:connector-curvature="0"
       sodipodi:nodetypes="cccc" />
    <g
       transform="matrix(-1.8653875,0,0,-1.8653875,50.920492,267.64692)"
       id="layer1-3-7"
       inkscape:label="Layer 1"
       style="fill:#ef3054;fill-opacity:0.99607843;stroke:none">
      <path
         id="path4133-3"
         transform="matrix(0.01111111,0,0,0.01111111,3.4970816,-2.4440807)"
         d="m 198.26367,13.583984 c -4.40482,0.05897 -10.76854,1.107745 -19.86719,3.470704 -64.70145,16.803278 23.69077,24.308473 -34.45703,57.285156 C 85.791671,107.31654 124.72326,27.605196 77.091797,74.507812 29.460325,121.41078 109.76365,83.711211 75.894531,141.34375 42.025391,198.9763 35.884589,110.47737 18.085938,174.91211 0.28726848,239.34685 50.984009,166.54872 50.46875,233.39453 49.9535,300.24035 0.38422192,226.66769 17.1875,291.36914 c 16.803278,64.70145 24.308474,-23.69272 57.285156,34.45508 32.976684,58.14778 -46.734646,19.21814 0.167969,66.84961 46.902965,47.63145 9.203388,-32.67186 66.835935,1.19726 57.63253,33.86913 -30.86637,40.00799 33.56836,57.80664 64.43474,17.79867 -8.36338,-32.8961 58.48242,-32.38085 66.84582,0.51479 -6.72687,50.08452 57.97461,33.28124 64.70146,-16.80329 -23.69272,-24.30846 34.45508,-57.28515 58.1478,-32.97669 19.21815,46.73482 66.84961,-0.16797 47.63145,-46.90279 -32.67186,-9.2034 1.19727,-66.83594 33.86912,-57.63255 40.00798,30.86638 57.80664,-33.56836 17.79866,-64.43475 -32.89416,8.3634 -32.37891,-58.48242 0.5157,-66.84581 50.08062,6.72685 33.27734,-57.97461 -16.80328,-64.70146 -24.30651,23.69077 -57.2832,-34.45703 -32.97668,-58.14779 46.73482,-19.2162 -0.16797,-66.847656 -46.90278,-47.631472 -9.20535,32.671866 -66.83789,-1.197265 -57.63254,-33.869123 30.86832,-40.007989 -33.5664,-57.806641 -4.02723,-1.1124 -7.5204,-1.957673 -10.54297,-2.564453 -45.33945,-9.0980097 14.72849,35.426407 -47.93946,34.943359 -57.44564,-0.443179 -11.18904,-37.110382 -38.10742,-36.75 z m 39.78516,101.273436 a 119.99998,119.99998 0 0 1 20.34375,2.27149 119.99998,119.99998 0 0 1 94.24414,141.13281 119.99998,119.99998 0 0 1 -105.6875,95.83594 v 16.04101 h -24 v -16.03906 a 119.99998,119.99998 0 0 1 -11.44531,-1.5957 119.99998,119.99998 0 0 1 -94.24219,-141.13282 119.99998,119.99998 0 0 1 120.78711,-96.51367 z"
         style="color:#000000;fill:#ef3054;fill-opacity:0.99607843;fill-rule:evenodd;stroke:none;stroke-width:0.01111111;stroke-linecap:round;stroke-linejoin:round"
         inkscape:connector-curvature="0" />
    </g>
    <path
       style="fill:#ef3054;fill-opacity:0.99607843;fill-rule:evenodd;stroke:none;stroke-width:0.17719059px;stroke-linecap:butt;stroke-linejoin:miter;stroke-opacity:1"
       d="m 39.518312,264.95208 4.108065,-7.90115 h -7.973566 z"
       id="path21523-61"
       inkscape:connector-curvature="0"
       sodipodi:nodetypes="cccc" />
    <path
       id="path4133-2"
       d="m 45.772617,263.93824 c 0.04227,-5.7e-4 0.103352,-0.0107 0.190676,-0.0333 0.620975,-0.16128 -0.227373,-0.2333 0.330703,-0.5498 0.558075,-0.3165 0.184428,0.44853 0.641573,-0.002 0.457145,-0.45014 -0.31357,-0.0883 0.01149,-0.64145 0.32506,-0.55313 0.383997,0.29624 0.55482,-0.32218 0.170824,-0.61841 -0.315741,0.0803 -0.310795,-0.56128 0.005,-0.64156 0.480688,0.0646 0.319418,-0.55641 -0.16127,-0.62098 -0.233301,0.22739 -0.549796,-0.33069 -0.316495,-0.55808 0.448537,-0.18445 -0.0016,-0.64159 -0.450153,-0.45715 -0.08833,0.31357 -0.641461,-0.0115 -0.55313,-0.32506 0.296241,-0.38397 -0.322173,-0.5548 -0.618415,-0.17082 0.08027,0.31572 -0.561287,0.31078 -0.641555,-0.005 0.06456,-0.48069 -0.556414,-0.31942 -0.620966,0.16127 0.227401,0.2333 -0.330674,0.5498 -0.558076,0.31649 -0.184447,-0.44854 -0.641592,0.002 -0.457145,0.45015 0.313569,0.0883 -0.01149,0.64146 -0.32506,0.55313 -0.383978,-0.29623 -0.554801,0.32218 -0.170824,0.61841 0.315703,-0.0803 0.310758,0.56128 -0.005,0.64155 -0.480651,-0.0646 -0.319381,0.55641 0.16127,0.62098 0.233283,-0.22737 0.549778,0.33071 0.316495,0.55807 -0.448539,0.18442 0.0016,0.64157 0.450151,0.45715 0.08835,-0.31356 0.641479,0.0115 0.55313,0.32506 -0.29626,0.38398 0.322154,0.55481 0.03865,0.0107 0.07218,0.0187 0.101187,0.0247 0.435147,0.0873 -0.141357,-0.34001 0.4601,-0.33536 0.551337,0.004 0.107387,0.35616 0.365738,0.3527 z m -0.381839,-0.97198 a 1.1517041,1.1517041 0 0 1 -0.19525,-0.0218 1.1517041,1.1517041 0 0 1 -0.904511,-1.35453 1.1517041,1.1517041 0 0 1 1.014339,-0.91979 v -0.15395 h 0.230341 v 0.15394 a 1.1517041,1.1517041 0 0 1 0.109846,0.0153 1.1517041,1.1517041 0 0 1 0.904493,1.35453 1.1517041,1.1517041 0 0 1 -1.159258,0.92628 z"
       style="color:#000000;fill:#ef3054;fill-opacity:0.99607843;fill-rule:evenodd;stroke:none;stroke-width:0.00010664;stroke-linecap:round;stroke-linejoin:round"
       inkscape:connector-curvature="0" />
    <path
       style="fill:#ef3054;fill-opacity:0.99607843;fill-rule:evenodd;stroke:none;stroke-width:0.08204911px;stroke-linecap:butt;stroke-linejoin:miter;stroke-opacity:1"
       d="m 45.416319,260.70961 1.902263,-3.65868 h -3.692205 z"
       id="path21523-9"
       inkscape:connector-curvature="0"
       sodipodi:nodetypes="cccc" />
    <g
       transform="matrix(0.31175545,0.10060596,-0.10060596,0.31175545,42.170373,263.899)"
       id="layer1-3-0-2-7-9-3"
       inkscape:label="Layer 1"
       style="fill:#0e3b00;fill-opacity:0.99612403;stroke:none">
      <path
         id="path4133-62-3-5-2-1"
         transform="matrix(0.01111111,0,0,0.01111111,3.4970816,-2.4440807)"
         d="m 198.26367,13.583984 c -4.40482,0.05897 -10.76854,1.107745 -19.86719,3.470704 -64.70145,16.803278 23.69077,24.308473 -34.45703,57.285156 C 85.791671,107.31654 124.72326,27.605196 77.091797,74.507812 29.460325,121.41078 109.76365,83.711211 75.894531,141.34375 42.025391,198.9763 35.884589,110.47737 18.085938,174.91211 0.28726848,239.34685 50.984009,166.54872 50.46875,233.39453 49.9535,300.24035 0.38422192,226.66769 17.1875,291.36914 c 16.803278,64.70145 24.308474,-23.69272 57.285156,34.45508 32.976684,58.14778 -46.734646,19.21814 0.167969,66.84961 46.902965,47.63145 9.203388,-32.67186 66.835935,1.19726 57.63253,33.86913 -30.86637,40.00799 33.56836,57.80664 64.43474,17.79867 -8.36338,-32.8961 58.48242,-32.38085 66.84582,0.51479 -6.72687,50.08452 57.97461,33.28124 64.70146,-16.80329 -23.69272,-24.30846 34.45508,-57.28515 58.1478,-32.97669 19.21815,46.73482 66.84961,-0.16797 47.63145,-46.90279 -32.67186,-9.2034 1.19727,-66.83594 33.86912,-57.63255 40.00798,30.86638 57.80664,-33.56836 17.79866,-64.43475 -32.89416,8.3634 -32.37891,-58.48242 0.5157,-66.84581 50.08062,6.72685 33.27734,-57.97461 -16.80328,-64.70146 -24.30651,23.69077 -57.2832,-34.45703 -32.97668,-58.14779 46.73482,-19.2162 -0.16797,-66.847656 -46.90278,-47.631472 -9.20535,32.671866 -66.83789,-1.197265 -57.63254,-33.869123 30.86832,-40.007989 -33.5664,-57.806641 -4.02723,-1.1124 -7.5204,-1.957673 -10.54297,-2.564453 -45.33945,-9.0980097 14.72849,35.426407 -47.93946,34.943359 -57.44564,-0.443179 -11.18904,-37.110382 -38.10742,-36.75 z m 39.78516,101.273436 a 119.99998,119.99998 0 0 1 20.34375,2.27149 119.99998,119.99998 0 0 1 94.24414,141.13281 119.99998,119.99998 0 0 1 -105.6875,95.83594 v 16.04101 h -24 v -16.03906 a 119.99998,119.99998 0 0 1 -11.44531,-1.5957 119.99998,119.99998 0 0 1 -94.24219,-141.13282 119.99998,119.99998 0 0 1 120.78711,-96.51367 z"
         style="color:#000000;fill:#0e3b00;fill-opacity:0.99612403;fill-rule:evenodd;stroke:none;stroke-width:0.01111111;stroke-linecap:round;stroke-linejoin:round"
         inkscape:connector-curvature="0" />
    </g>
    <g
       transform="matrix(1.3239055,0.8212871,-0.8212871,1.3239055,61.131263,259.84082)"
       id="layer1-3-0-2-7-9-9"
       inkscape:label="Layer 1"
       style="fill:#0b132b;fill-opacity:0.99607843;stroke:none">
      <path
         id="path4133-62-3-5-2-4"
         transform="matrix(0.01111111,0,0,0.01111111,3.4970816,-2.4440807)"
         d="m 198.26367,13.583984 c -4.40482,0.05897 -10.76854,1.107745 -19.86719,3.470704 -64.70145,16.803278 23.69077,24.308473 -34.45703,57.285156 C 85.791671,107.31654 124.72326,27.605196 77.091797,74.507812 29.460325,121.41078 109.76365,83.711211 75.894531,141.34375 42.025391,198.9763 35.884589,110.47737 18.085938,174.91211 0.28726848,239.34685 50.984009,166.54872 50.46875,233.39453 49.9535,300.24035 0.38422192,226.66769 17.1875,291.36914 c 16.803278,64.70145 24.308474,-23.69272 57.285156,34.45508 32.976684,58.14778 -46.734646,19.21814 0.167969,66.84961 46.902965,47.63145 9.203388,-32.67186 66.835935,1.19726 57.63253,33.86913 -30.86637,40.00799 33.56836,57.80664 64.43474,17.79867 -8.36338,-32.8961 58.48242,-32.38085 66.84582,0.51479 -6.72687,50.08452 57.97461,33.28124 64.70146,-16.80329 -23.69272,-24.30846 34.45508,-57.28515 58.1478,-32.97669 19.21815,46.73482 66.84961,-0.16797 47.63145,-46.90279 -32.67186,-9.2034 1.19727,-66.83594 33.86912,-57.63255 40.00798,30.86638 57.80664,-33.56836 17.79866,-64.43475 -32.89416,8.3634 -32.37891,-58.48242 0.5157,-66.84581 50.08062,6.72685 33.27734,-57.97461 -16.80328,-64.70146 -24.30651,23.69077 -57.2832,-34.45703 -32.97668,-58.14779 46.73482,-19.2162 -0.16797,-66.847656 -46.90278,-47.631472 -9.20535,32.671866 -66.83789,-1.197265 -57.63254,-33.869123 30.86832,-40.007989 -33.5664,-57.806641 -4.02723,-1.1124 -7.5204,-1.957673 -10.54297,-2.564453 -45.33945,-9.0980097 14.72849,35.426407 -47.93946,34.943359 -57.44564,-0.443179 -11.18904,-37.110382 -38.10742,-36.75 z m 39.78516,101.273436 a 119.99998,119.99998 0 0 1 20.34375,2.27149 119.99998,119.99998 0 0 1 94.24414,141.13281 119.99998,119.99998 0 0 1 -105.6875,95.83594 v 16.04101 h -24 v -16.03906 a 119.99998,119.99998 0 0 1 -11.44531,-1.5957 119.99998,119.99998 0 0 1 -94.24219,-141.13282 119.99998,119.99998 0 0 1 120.78711,-96.51367 z"
         style="color:#000000;fill:#0b132b;fill-opacity:0.99607843;fill-rule:evenodd;stroke:none;stroke-width:0.01111111;stroke-linecap:round;stroke-linejoin:round"
         inkscape:connector-curvature="0" />
    </g>
    <g
       transform="matrix(-0.7216305,0,0,-0.7216305,69.181448,261.2734)"
       id="layer1-3-5-9-2-7"
       inkscape:label="Layer 1"
       style="fill:#ef3054;fill-opacity:0.99607843;stroke:none">
      <path
         id="path4133-6-3-8-8"
         transform="matrix(0.01111111,0,0,0.01111111,3.4970816,-2.4440807)"
         d="m 198.26367,13.583984 c -4.40482,0.05897 -10.76854,1.107745 -19.86719,3.470704 -64.70145,16.803278 23.69077,24.308473 -34.45703,57.285156 C 85.791671,107.31654 124.72326,27.605196 77.091797,74.507812 29.460325,121.41078 109.76365,83.711211 75.894531,141.34375 42.025391,198.9763 35.884589,110.47737 18.085938,174.91211 0.28726848,239.34685 50.984009,166.54872 50.46875,233.39453 49.9535,300.24035 0.38422192,226.66769 17.1875,291.36914 c 16.803278,64.70145 24.308474,-23.69272 57.285156,34.45508 32.976684,58.14778 -46.734646,19.21814 0.167969,66.84961 46.902965,47.63145 9.203388,-32.67186 66.835935,1.19726 57.63253,33.86913 -30.86637,40.00799 33.56836,57.80664 64.43474,17.79867 -8.36338,-32.8961 58.48242,-32.38085 66.84582,0.51479 -6.72687,50.08452 57.97461,33.28124 64.70146,-16.80329 -23.69272,-24.30846 34.45508,-57.28515 58.1478,-32.97669 19.21815,46.73482 66.84961,-0.16797 47.63145,-46.90279 -32.67186,-9.2034 1.19727,-66.83594 33.86912,-57.63255 40.00798,30.86638 57.80664,-33.56836 17.79866,-64.43475 -32.89416,8.3634 -32.37891,-58.48242 0.5157,-66.84581 50.08062,6.72685 33.27734,-57.97461 -16.80328,-64.70146 -24.30651,23.69077 -57.2832,-34.45703 -32.97668,-58.14779 46.73482,-19.2162 -0.16797,-66.847656 -46.90278,-47.631472 -9.20535,32.671866 -66.83789,-1.197265 -57.63254,-33.869123 30.86832,-40.007989 -33.5664,-57.806641 -4.02723,-1.1124 -7.5204,-1.957673 -10.54297,-2.564453 -45.33945,-9.0980097 14.72849,35.426407 -47.93946,34.943359 -57.44564,-0.443179 -11.18904,-37.110382 -38.10742,-36.75 z m 39.78516,101.273436 a 119.99998,119.99998 0 0 1 20.34375,2.27149 119.99998,119.99998 0 0 1 94.24414,141.13281 119.99998,119.99998 0 0 1 -105.6875,95.83594 v 16.04101 h -24 v -16.03906 a 119.99998,119.99998 0 0 1 -11.44531,-1.5957 119.99998,119.99998 0 0 1 -94.24219,-141.13282 119.99998,119.99998 0 0 1 120.78711,-96.51367 z"
         style="color:#000000;fill:#ef3054;fill-opacity:0.99607843;fill-rule:evenodd;stroke:none;stroke-width:0.01111111;stroke-linecap:round;stroke-linejoin:round"
         inkscape:connector-curvature="0" />
    </g>
    <path
       style="fill:#ef3054;fill-opacity:0.99607843;fill-rule:evenodd;stroke:none;stroke-width:0.06854668px;stroke-linecap:butt;stroke-linejoin:miter;stroke-opacity:1"
       d="m 64.77605,260.08944 1.589219,-3.05658 h -3.084601 z"
       id="path21523-2-6-9-4"
       inkscape:connector-curvature="0"
       sodipodi:nodetypes="cccc" />
    <path
       style="fill:none;fill-opacity:1;fill-rule:evenodd;stroke:url(#linearGradient21962);stroke-width:1.82599998;stroke-linecap:butt;stroke-linejoin:miter;stroke-miterlimit:4;stroke-dasharray:none;stroke-opacity:1"
       d="M 97.667307,256.11021 H 174.8876"
       id="path21946"
       inkscape:connector-curvature="0" />
    <flowRoot
       xml:space="preserve"
       id="flowRoot17777-5"
       style="font-style:normal;font-weight:normal;font-size:14.66666698px;line-height:125%;font-family:Sans;letter-spacing:0px;word-spacing:0px;fill:#000000;fill-opacity:1;stroke:none;stroke-width:1px;stroke-linecap:butt;stroke-linejoin:miter;stroke-opacity:1"
       transform="matrix(0.26458333,0,0,0.26458333,-660.4222,540.21411)"><flowRegion
         id="flowRegion17779-6"
         style="font-size:14.66666698px"><rect
           id="rect17781-7"
           width="989.94946"
           height="529.31995"
           x="2618.3154"
           y="-943.53351"
           style="font-size:14.66666698px" /></flowRegion><flowPara
         style="font-style:normal;font-variant:normal;font-weight:normal;font-stretch:normal;font-size:10.66666698px;font-family:'Crimson Text';-inkscape-font-specification:'Crimson Text'"
         id="flowPara4590">Local Transcription Factors</flowPara><flowPara
         id="flowPara19225-4"
         style="font-style:normal;font-variant:normal;font-weight:normal;font-stretch:normal;font-family:'Crimson Text';-inkscape-font-specification:'Crimson Text'" /></flowRoot>    <flowRoot
       xml:space="preserve"
       id="flowRoot17777-5-0"
       style="font-style:normal;font-weight:normal;font-size:14.66666698px;line-height:125%;font-family:Sans;letter-spacing:0px;word-spacing:0px;fill:#000000;fill-opacity:1;stroke:none;stroke-width:1px;stroke-linecap:butt;stroke-linejoin:miter;stroke-opacity:1"
       transform="matrix(0.26458333,0,0,0.26458333,-660.41669,497.73995)"><flowRegion
         id="flowRegion17779-6-6"
         style="font-size:14.66666698px"><rect
           id="rect17781-7-4"
           width="989.94946"
           height="529.31995"
           x="2618.3154"
           y="-943.53351"
           style="font-size:14.66666698px" /></flowRegion><flowPara
         style="font-style:normal;font-variant:normal;font-weight:normal;font-stretch:normal;font-size:10.66666698px;font-family:'Crimson Text';-inkscape-font-specification:'Crimson Text'"
         id="flowPara4590-7">Distal Transcription Factors</flowPara><flowPara
         id="flowPara19225-4-4"
         style="font-style:normal;font-variant:normal;font-weight:normal;font-stretch:normal;font-family:'Crimson Text';-inkscape-font-specification:'Crimson Text'" /></flowRoot>    <flowRoot
       xml:space="preserve"
       id="flowRoot17777-5-0-8"
       style="font-style:normal;font-weight:normal;font-size:14.66666698px;line-height:125%;font-family:Sans;letter-spacing:0px;word-spacing:0px;fill:#000000;fill-opacity:1;stroke:none;stroke-width:1px;stroke-linecap:butt;stroke-linejoin:miter;stroke-opacity:1"
       transform="matrix(0.26458333,0,0,0.26458333,-619.6557,497.73719)"><flowRegion
         id="flowRegion17779-6-6-5"
         style="font-size:14.66666698px"><rect
           id="rect17781-7-4-8"
           width="989.94946"
           height="529.31995"
           x="2618.3154"
           y="-943.53351"
           style="font-size:14.66666698px" /></flowRegion><flowPara
         style="font-style:normal;font-variant:normal;font-weight:normal;font-stretch:normal;font-size:10.66666698px;font-family:'Crimson Text';-inkscape-font-specification:'Crimson Text'"
         id="flowPara4590-7-2">The Transcriptional &quot;Machinery&quot;</flowPara><flowPara
         id="flowPara19225-4-4-6"
         style="font-style:normal;font-variant:normal;font-weight:normal;font-stretch:normal;font-family:'Crimson Text';-inkscape-font-specification:'Crimson Text'" /></flowRoot>    <flowRoot
       xml:space="preserve"
       id="flowRoot17777-5-06"
       style="font-style:normal;font-weight:normal;font-size:14.66666698px;line-height:125%;font-family:Sans;letter-spacing:0px;word-spacing:0px;fill:#000000;fill-opacity:1;stroke:none;stroke-width:1px;stroke-linecap:butt;stroke-linejoin:miter;stroke-opacity:1"
       transform="matrix(0.26458333,0,0,0.26458333,-660.44425,534.87671)"><flowRegion
         id="flowRegion17779-6-64"
         style="font-size:14.66666698px"><rect
           id="rect17781-7-6"
           width="989.94946"
           height="529.31995"
           x="2618.3154"
           y="-943.53351"
           style="font-size:14.66666698px" /></flowRegion><flowPara
         style="font-style:normal;font-variant:normal;font-weight:normal;font-stretch:normal;font-size:10.66666698px;font-family:'Crimson Text';-inkscape-font-specification:'Crimson Text'"
         id="flowPara4675">Co-Factors</flowPara><flowPara
         id="flowPara19225-4-8"
         style="font-style:normal;font-variant:normal;font-weight:normal;font-stretch:normal;font-family:'Crimson Text';-inkscape-font-specification:'Crimson Text'" /></flowRoot>    <flowRoot
       xml:space="preserve"
       id="flowRoot17777-9"
       style="font-style:normal;font-weight:normal;font-size:14.66666698px;line-height:125%;font-family:Sans;letter-spacing:0px;word-spacing:0px;fill:#000000;fill-opacity:1;stroke:none;stroke-width:1px;stroke-linecap:butt;stroke-linejoin:miter;stroke-opacity:1"
       transform="matrix(0.26458333,0,0,0.26458333,-591.02577,540.21126)"><flowRegion
         id="flowRegion17779-60"
         style="font-size:14.66666698px"><rect
           id="rect17781-70"
           width="989.94946"
           height="529.31995"
           x="2618.3154"
           y="-943.53351"
           style="font-size:14.66666698px" /></flowRegion><flowPara
         id="flowPara17783-1"
         style="font-style:normal;font-variant:normal;font-weight:normal;font-stretch:normal;font-size:10.66666698px;font-family:'Crimson Text';-inkscape-font-specification:'Crimson Text'">The gene body</flowPara><flowPara
         id="flowPara19225-0"
         style="font-style:normal;font-variant:normal;font-weight:normal;font-stretch:normal;font-family:'Crimson Text';-inkscape-font-specification:'Crimson Text'" /></flowRoot>    <path
       style="fill:none;fill-rule:evenodd;stroke:#454955;stroke-width:1.82599998;stroke-linecap:butt;stroke-linejoin:miter;stroke-miterlimit:4;stroke-dasharray:none;stroke-opacity:1"
       d="M 155.5383,280.95772 H 78.659519"
       id="path17435-1"
       inkscape:connector-curvature="0"
       sodipodi:nodetypes="cc" />
    <path
       style="fill:none;fill-rule:evenodd;stroke:#000000;stroke-width:0.09794034;stroke-linecap:butt;stroke-linejoin:miter;stroke-miterlimit:4;stroke-dasharray:none;stroke-opacity:1"
       d="m 70.302629,283.65813 v 0.69109 h 1.740629 v -0.69109"
       id="path4723"
       inkscape:connector-curvature="0"
       sodipodi:nodetypes="cccc" />
    <path
       style="opacity:1;vector-effect:none;fill:none;fill-opacity:1;fill-rule:evenodd;stroke:#000000;stroke-width:0.09794034;stroke-linecap:butt;stroke-linejoin:miter;stroke-miterlimit:4;stroke-dasharray:none;stroke-dashoffset:0;stroke-opacity:1"
       d="m 71.172943,284.37382 v 10.25339"
       id="path4743"
       inkscape:connector-curvature="0"
       sodipodi:nodetypes="cc" />
    <path
       style="fill:none;fill-rule:evenodd;stroke:#000000;stroke-width:0.09794034;stroke-linecap:butt;stroke-linejoin:miter;stroke-miterlimit:4;stroke-dasharray:none;stroke-opacity:1"
       d="m 78.636132,283.65813 v 0.69109 h 76.525988 v -0.69109"
       id="path4723-7"
       inkscape:connector-curvature="0"
       sodipodi:nodetypes="cccc" />
    <path
       style="opacity:1;vector-effect:none;fill:none;fill-opacity:1;fill-rule:evenodd;stroke:#000000;stroke-width:0.09794034;stroke-linecap:butt;stroke-linejoin:miter;stroke-miterlimit:4;stroke-dasharray:none;stroke-dashoffset:0;stroke-opacity:1"
       d="m 101.12187,284.37382 v 10.25339"
       id="path4743-7"
       inkscape:connector-curvature="0"
       sodipodi:nodetypes="cc" />
    <path
       style="opacity:1;vector-effect:none;fill:none;fill-opacity:1;fill-rule:evenodd;stroke:#000000;stroke-width:0.09794034;stroke-linecap:butt;stroke-linejoin:miter;stroke-miterlimit:4;stroke-dasharray:none;stroke-dashoffset:0;stroke-opacity:1"
       d="m 45.593378,271.31547 v 17.38178"
       id="path4743-6"
       inkscape:connector-curvature="0"
       sodipodi:nodetypes="cc" />
    <path
       style="fill:none;fill-rule:evenodd;stroke:#000000;stroke-width:0.09794034;stroke-linecap:butt;stroke-linejoin:miter;stroke-miterlimit:4;stroke-dasharray:none;stroke-opacity:1"
       d="m 47.538986,283.65813 v 0.69109 H 64.44591 v -0.69109"
       id="path4723-4"
       inkscape:connector-curvature="0"
       sodipodi:nodetypes="cccc" />
    <path
       style="opacity:1;vector-effect:none;fill:none;fill-opacity:1;fill-rule:evenodd;stroke:#000000;stroke-width:0.09794034;stroke-linecap:butt;stroke-linejoin:miter;stroke-miterlimit:4;stroke-dasharray:none;stroke-dashoffset:0;stroke-opacity:1"
       d="m 63.575595,284.37382 v 10.25339"
       id="path4743-5"
       inkscape:connector-curvature="0"
       sodipodi:nodetypes="cc" />
    <path
       style="fill:none;fill-rule:evenodd;stroke:#000000;stroke-width:0.09794034;stroke-linecap:butt;stroke-linejoin:miter;stroke-miterlimit:4;stroke-dasharray:none;stroke-opacity:1"
       d="m 35.521416,254.88742 v -0.69109 h 31.57459 v 0.69109"
       id="path4723-2"
       inkscape:connector-curvature="0"
       sodipodi:nodetypes="cccc" />
    <path
       style="opacity:1;vector-effect:none;fill:none;fill-opacity:1;fill-rule:evenodd;stroke:#000000;stroke-width:0.09794034;stroke-linecap:butt;stroke-linejoin:miter;stroke-miterlimit:4;stroke-dasharray:none;stroke-dashoffset:0;stroke-opacity:1"
       d="m 64.054126,254.17173 0,-4.5071"
       id="path4743-0"
       inkscape:connector-curvature="0"
       sodipodi:nodetypes="cc" />
    <path
       style="opacity:1;vector-effect:none;fill:none;fill-opacity:1;fill-rule:evenodd;stroke:#000000;stroke-width:0.09794034;stroke-linecap:butt;stroke-linejoin:miter;stroke-miterlimit:4;stroke-dasharray:none;stroke-dashoffset:0;stroke-opacity:1"
       d="M 71.98249,261.98936 V 249.66463"
       id="path4743-09"
       inkscape:connector-curvature="0"
       sodipodi:nodetypes="cc" />
    <flowRoot
       xml:space="preserve"
       id="flowRoot17777-5-9"
       style="font-style:normal;font-weight:normal;font-size:14.66666698px;line-height:125%;font-family:Sans;letter-spacing:0px;word-spacing:0px;fill:#000000;fill-opacity:1;stroke:none;stroke-width:1px;stroke-linecap:butt;stroke-linejoin:miter;stroke-opacity:1"
       transform="matrix(0.26458333,0,0,0.26458333,-672.22717,540.81804)"><flowRegion
         id="flowRegion17779-6-4"
         style="font-size:14.66666698px"><rect
           id="rect17781-7-5"
           width="989.94946"
           height="529.31995"
           x="2618.3154"
           y="-943.53351"
           style="font-size:14.66666698px" /></flowRegion><flowPara
         id="flowPara19225-4-0"
         style="font-style:normal;font-variant:normal;font-weight:normal;font-stretch:normal;font-family:'Crimson Text';-inkscape-font-specification:'Crimson Text'">DNA</flowPara></flowRoot>    <path
       style="opacity:1;vector-effect:none;fill:none;fill-opacity:1;fill-rule:evenodd;stroke:#000000;stroke-width:0.09794034;stroke-linecap:butt;stroke-linejoin:miter;stroke-miterlimit:4;stroke-dasharray:none;stroke-dashoffset:0;stroke-opacity:1"
       d="m 29.576635,282.86192 0,11.76529"
       id="path4743-5-3"
       inkscape:connector-curvature="0"
       sodipodi:nodetypes="cc" />
  </g>
</svg>
